Record Length,2.500000e+03,,   0.048500000000,   2.92000,
Sample Interval,4.000000e-07,,   0.048500400000,   3.00000,
Trigger Point,-1.212500000000e+05,,   0.048500800000,   2.96000,
,,,   0.048501200000,   2.92000,
,,,   0.048501600000,   3.00000,
,,,   0.048502000000,   3.00000,
Source,CH2,,   0.048502400000,   2.92000,
Vertical Units,V,,   0.048502800000,   3.00000,
Vertical Scale,1.000000e+00,,   0.048503200000,   2.96000,
Vertical Offset,-3.480000e+00,,   0.048503600000,   2.92000,
Horizontal Units,s,,   0.048504000000,   2.92000,
Horizontal Scale,1.000000e-04,,   0.048504400000,   2.92000,
Pt Fmt,Y,,   0.048504800000,   2.96000,
Yzero,0.000000e+00,,   0.048505200000,   2.96000,
Probe Atten,1.000000e+00,,   0.048505600000,   2.96000,
Model Number,TDS1012B,,   0.048506000000,   2.92000,
Serial Number,C050145,,   0.048506400000,   3.00000,
Firmware Version,FV:v22.16,,   0.048506800000,   2.92000,
,,,0.048507200000,   2.96000,
,,,0.048507600000,   2.96000,
,,,0.048508000000,   2.96000,
,,,0.048508400000,   2.96000,
,,,0.048508800000,   3.00000,
,,,0.048509200000,   2.96000,
,,,0.048509600000,   2.96000,
,,,0.048510000000,   2.96000,
,,,0.048510400000,   2.92000,
,,,0.048510800000,   2.96000,
,,,0.048511200000,   2.92000,
,,,0.048511600000,   3.00000,
,,,0.048512000000,   3.00000,
,,,0.048512400000,   2.96000,
,,,0.048512800000,   2.96000,
,,,0.048513200000,   2.96000,
,,,0.048513600000,   3.00000,
,,,0.048514000000,   3.00000,
,,,0.048514400000,   2.96000,
,,,0.048514800000,   3.00000,
,,,0.048515200000,   2.96000,
,,,0.048515600000,   2.96000,
,,,0.048516000000,   2.96000,
,,,0.048516400000,   3.04000,
,,,0.048516800000,   3.00000,
,,,0.048517200000,   3.00000,
,,,0.048517600000,   3.00000,
,,,0.048518000000,   3.00000,
,,,0.048518400000,   2.96000,
,,,0.048518800000,   2.96000,
,,,0.048519200000,   2.96000,
,,,0.048519600000,   2.96000,
,,,0.048520000000,   2.96000,
,,,0.048520400000,   2.96000,
,,,0.048520800000,   2.92000,
,,,0.048521200000,   2.96000,
,,,0.048521600000,   3.00000,
,,,0.048522000000,   3.00000,
,,,0.048522400000,   2.96000,
,,,0.048522800000,   2.96000,
,,,0.048523200000,   3.00000,
,,,0.048523600000,   3.00000,
,,,0.048524000000,   3.00000,
,,,0.048524400000,   2.92000,
,,,0.048524800000,   2.96000,
,,,0.048525200000,   2.96000,
,,,0.048525600000,   2.92000,
,,,0.048526000000,   2.96000,
,,,0.048526400000,   2.96000,
,,,0.048526800000,   2.96000,
,,,0.048527200000,   2.92000,
,,,0.048527600000,   2.96000,
,,,0.048528000000,   2.96000,
,,,0.048528400000,   2.96000,
,,,0.048528800000,   3.00000,
,,,0.048529200000,   3.00000,
,,,0.048529600000,   3.00000,
,,,0.048530000000,   3.00000,
,,,0.048530400000,   3.00000,
,,,0.048530800000,   2.96000,
,,,0.048531200000,   3.00000,
,,,0.048531600000,   2.96000,
,,,0.048532000000,   2.96000,
,,,0.048532400000,   3.00000,
,,,0.048532800000,   2.96000,
,,,0.048533200000,   2.96000,
,,,0.048533600000,   2.92000,
,,,0.048534000000,   3.00000,
,,,0.048534400000,   2.96000,
,,,0.048534800000,   2.96000,
,,,0.048535200000,   2.96000,
,,,0.048535600000,   2.96000,
,,,0.048536000000,   3.00000,
,,,0.048536400000,   3.00000,
,,,0.048536800000,   3.00000,
,,,0.048537200000,   2.96000,
,,,0.048537600000,   3.00000,
,,,0.048538000000,   2.96000,
,,,0.048538400000,   2.96000,
,,,0.048538800000,   2.96000,
,,,0.048539200000,   3.00000,
,,,0.048539600000,   2.92000,
,,,0.048540000000,   3.00000,
,,,0.048540400000,   2.96000,
,,,0.048540800000,   2.96000,
,,,0.048541200000,   2.96000,
,,,0.048541600000,   3.00000,
,,,0.048542000000,   2.92000,
,,,0.048542400000,   3.00000,
,,,0.048542800000,   2.96000,
,,,0.048543200000,   2.92000,
,,,0.048543600000,   2.96000,
,,,0.048544000000,   2.96000,
,,,0.048544400000,   2.96000,
,,,0.048544800000,   2.96000,
,,,0.048545200000,   2.92000,
,,,0.048545600000,   2.92000,
,,,0.048546000000,   2.96000,
,,,0.048546400000,   2.96000,
,,,0.048546800000,   2.92000,
,,,0.048547200000,   3.00000,
,,,0.048547600000,   2.96000,
,,,0.048548000000,   3.00000,
,,,0.048548400000,   3.00000,
,,,0.048548800000,   2.96000,
,,,0.048549200000,   2.92000,
,,,0.048549600000,   2.96000,
,,,0.048550000000,   3.00000,
,,,0.048550400000,   2.96000,
,,,0.048550800000,   2.96000,
,,,0.048551200000,   3.00000,
,,,0.048551600000,   3.00000,
,,,0.048552000000,   3.00000,
,,,0.048552400000,   2.96000,
,,,0.048552800000,   2.96000,
,,,0.048553200000,   3.00000,
,,,0.048553600000,   3.00000,
,,,0.048554000000,   2.96000,
,,,0.048554400000,   3.00000,
,,,0.048554800000,   2.92000,
,,,0.048555200000,   3.00000,
,,,0.048555600000,   2.96000,
,,,0.048556000000,   3.04000,
,,,0.048556400000,   3.00000,
,,,0.048556800000,   3.00000,
,,,0.048557200000,   2.96000,
,,,0.048557600000,   2.96000,
,,,0.048558000000,   2.96000,
,,,0.048558400000,   2.96000,
,,,0.048558800000,   2.92000,
,,,0.048559200000,   3.00000,
,,,0.048559600000,   3.00000,
,,,0.048560000000,   2.92000,
,,,0.048560400000,   2.92000,
,,,0.048560800000,   2.96000,
,,,0.048561200000,   2.96000,
,,,0.048561600000,   2.96000,
,,,0.048562000000,   3.00000,
,,,0.048562400000,   2.96000,
,,,0.048562800000,   3.00000,
,,,0.048563200000,   3.00000,
,,,0.048563600000,   2.96000,
,,,0.048564000000,   2.96000,
,,,0.048564400000,   2.96000,
,,,0.048564800000,   3.00000,
,,,0.048565200000,   3.00000,
,,,0.048565600000,   2.96000,
,,,0.048566000000,   2.96000,
,,,0.048566400000,   3.00000,
,,,0.048566800000,   2.92000,
,,,0.048567200000,   3.00000,
,,,0.048567600000,   3.00000,
,,,0.048568000000,   3.04000,
,,,0.048568400000,   2.96000,
,,,0.048568800000,   2.96000,
,,,0.048569200000,   3.00000,
,,,0.048569600000,   3.00000,
,,,0.048570000000,   2.96000,
,,,0.048570400000,   2.96000,
,,,0.048570800000,   2.92000,
,,,0.048571200000,   2.96000,
,,,0.048571600000,   2.96000,
,,,0.048572000000,   3.00000,
,,,0.048572400000,   2.96000,
,,,0.048572800000,   3.00000,
,,,0.048573200000,   2.92000,
,,,0.048573600000,   3.00000,
,,,0.048574000000,   2.92000,
,,,0.048574400000,   3.00000,
,,,0.048574800000,   2.96000,
,,,0.048575200000,   2.92000,
,,,0.048575600000,   3.00000,
,,,0.048576000000,   2.96000,
,,,0.048576400000,   3.00000,
,,,0.048576800000,   2.92000,
,,,0.048577200000,   2.96000,
,,,0.048577600000,   2.96000,
,,,0.048578000000,   2.96000,
,,,0.048578400000,   2.96000,
,,,0.048578800000,   3.00000,
,,,0.048579200000,   2.96000,
,,,0.048579600000,   2.96000,
,,,0.048580000000,   2.96000,
,,,0.048580400000,   2.92000,
,,,0.048580800000,   2.92000,
,,,0.048581200000,   2.92000,
,,,0.048581600000,   2.96000,
,,,0.048582000000,   2.96000,
,,,0.048582400000,   2.96000,
,,,0.048582800000,   2.96000,
,,,0.048583200000,   2.92000,
,,,0.048583600000,   2.92000,
,,,0.048584000000,   2.88000,
,,,0.048584400000,   2.92000,
,,,0.048584800000,   2.92000,
,,,0.048585200000,   2.92000,
,,,0.048585600000,   3.00000,
,,,0.048586000000,   2.96000,
,,,0.048586400000,   2.96000,
,,,0.048586800000,   2.96000,
,,,0.048587200000,   2.92000,
,,,0.048587600000,   3.00000,
,,,0.048588000000,   3.04000,
,,,0.048588400000,   2.96000,
,,,0.048588800000,   2.92000,
,,,0.048589200000,   2.96000,
,,,0.048589600000,   3.00000,
,,,0.048590000000,   3.00000,
,,,0.048590400000,   2.96000,
,,,0.048590800000,   3.00000,
,,,0.048591200000,   3.00000,
,,,0.048591600000,   2.96000,
,,,0.048592000000,   2.96000,
,,,0.048592400000,   2.96000,
,,,0.048592800000,   3.00000,
,,,0.048593200000,   3.00000,
,,,0.048593600000,   2.96000,
,,,0.048594000000,   3.00000,
,,,0.048594400000,   2.96000,
,,,0.048594800000,   3.00000,
,,,0.048595200000,   2.96000,
,,,0.048595600000,   2.96000,
,,,0.048596000000,   3.00000,
,,,0.048596400000,   2.96000,
,,,0.048596800000,   2.92000,
,,,0.048597200000,   2.96000,
,,,0.048597600000,   3.00000,
,,,0.048598000000,   2.92000,
,,,0.048598400000,   2.92000,
,,,0.048598800000,   3.00000,
,,,0.048599200000,   2.96000,
,,,0.048599600000,   2.96000,
,,,0.048600000000,   2.92000,
,,,0.048600400000,   3.00000,
,,,0.048600800000,   2.96000,
,,,0.048601200000,   3.00000,
,,,0.048601600000,   3.00000,
,,,0.048602000000,   2.96000,
,,,0.048602400000,   3.00000,
,,,0.048602800000,   3.00000,
,,,0.048603200000,   2.96000,
,,,0.048603600000,   2.96000,
,,,0.048604000000,   3.00000,
,,,0.048604400000,   2.96000,
,,,0.048604800000,   2.92000,
,,,0.048605200000,   3.00000,
,,,0.048605600000,   2.92000,
,,,0.048606000000,   3.00000,
,,,0.048606400000,   2.92000,
,,,0.048606800000,   2.96000,
,,,0.048607200000,   3.00000,
,,,0.048607600000,   3.00000,
,,,0.048608000000,   3.00000,
,,,0.048608400000,   3.00000,
,,,0.048608800000,   3.00000,
,,,0.048609200000,   3.00000,
,,,0.048609600000,   2.92000,
,,,0.048610000000,   2.96000,
,,,0.048610400000,   2.96000,
,,,0.048610800000,   2.96000,
,,,0.048611200000,   2.96000,
,,,0.048611600000,   2.96000,
,,,0.048612000000,   2.92000,
,,,0.048612400000,   2.96000,
,,,0.048612800000,   2.92000,
,,,0.048613200000,   2.96000,
,,,0.048613600000,   2.92000,
,,,0.048614000000,   3.00000,
,,,0.048614400000,   2.92000,
,,,0.048614800000,   2.88000,
,,,0.048615200000,   3.00000,
,,,0.048615600000,   2.96000,
,,,0.048616000000,   2.96000,
,,,0.048616400000,   2.96000,
,,,0.048616800000,   2.92000,
,,,0.048617200000,   3.00000,
,,,0.048617600000,   2.96000,
,,,0.048618000000,   2.96000,
,,,0.048618400000,   3.00000,
,,,0.048618800000,   2.96000,
,,,0.048619200000,   3.00000,
,,,0.048619600000,   2.96000,
,,,0.048620000000,   3.00000,
,,,0.048620400000,   2.96000,
,,,0.048620800000,   2.96000,
,,,0.048621200000,   2.96000,
,,,0.048621600000,   2.96000,
,,,0.048622000000,   2.96000,
,,,0.048622400000,   2.96000,
,,,0.048622800000,   2.96000,
,,,0.048623200000,   2.96000,
,,,0.048623600000,   2.96000,
,,,0.048624000000,   3.00000,
,,,0.048624400000,   2.96000,
,,,0.048624800000,   2.96000,
,,,0.048625200000,   3.00000,
,,,0.048625600000,   3.00000,
,,,0.048626000000,   2.92000,
,,,0.048626400000,   2.96000,
,,,0.048626800000,   3.00000,
,,,0.048627200000,   3.00000,
,,,0.048627600000,   3.00000,
,,,0.048628000000,   2.96000,
,,,0.048628400000,   2.96000,
,,,0.048628800000,   2.96000,
,,,0.048629200000,   3.00000,
,,,0.048629600000,   3.00000,
,,,0.048630000000,   2.96000,
,,,0.048630400000,   2.96000,
,,,0.048630800000,   3.00000,
,,,0.048631200000,   3.00000,
,,,0.048631600000,   2.96000,
,,,0.048632000000,   2.96000,
,,,0.048632400000,   2.96000,
,,,0.048632800000,   2.96000,
,,,0.048633200000,   2.96000,
,,,0.048633600000,   3.00000,
,,,0.048634000000,   2.92000,
,,,0.048634400000,   3.00000,
,,,0.048634800000,   2.96000,
,,,0.048635200000,   2.96000,
,,,0.048635600000,   3.00000,
,,,0.048636000000,   3.00000,
,,,0.048636400000,   2.96000,
,,,0.048636800000,   2.96000,
,,,0.048637200000,   3.00000,
,,,0.048637600000,   2.92000,
,,,0.048638000000,   2.92000,
,,,0.048638400000,   3.00000,
,,,0.048638800000,   3.00000,
,,,0.048639200000,   2.92000,
,,,0.048639600000,   2.92000,
,,,0.048640000000,   2.96000,
,,,0.048640400000,   2.96000,
,,,0.048640800000,   3.00000,
,,,0.048641200000,   2.96000,
,,,0.048641600000,   2.96000,
,,,0.048642000000,   3.04000,
,,,0.048642400000,   3.00000,
,,,0.048642800000,   3.00000,
,,,0.048643200000,   2.96000,
,,,0.048643600000,   2.92000,
,,,0.048644000000,   2.96000,
,,,0.048644400000,   3.00000,
,,,0.048644800000,   2.96000,
,,,0.048645200000,   2.92000,
,,,0.048645600000,   3.00000,
,,,0.048646000000,   2.96000,
,,,0.048646400000,   2.96000,
,,,0.048646800000,   3.00000,
,,,0.048647200000,   3.00000,
,,,0.048647600000,   2.96000,
,,,0.048648000000,   2.92000,
,,,0.048648400000,   3.00000,
,,,0.048648800000,   3.00000,
,,,0.048649200000,   2.96000,
,,,0.048649600000,   2.96000,
,,,0.048650000000,   2.96000,
,,,0.048650400000,   2.96000,
,,,0.048650800000,   2.96000,
,,,0.048651200000,   2.96000,
,,,0.048651600000,   2.96000,
,,,0.048652000000,   3.00000,
,,,0.048652400000,   2.96000,
,,,0.048652800000,   3.00000,
,,,0.048653200000,   2.92000,
,,,0.048653600000,   3.00000,
,,,0.048654000000,   2.96000,
,,,0.048654400000,   2.96000,
,,,0.048654800000,   3.00000,
,,,0.048655200000,   3.00000,
,,,0.048655600000,   3.04000,
,,,0.048656000000,   2.96000,
,,,0.048656400000,   2.92000,
,,,0.048656800000,   3.00000,
,,,0.048657200000,   3.00000,
,,,0.048657600000,   2.92000,
,,,0.048658000000,   3.00000,
,,,0.048658400000,   2.92000,
,,,0.048658800000,   2.96000,
,,,0.048659200000,   2.92000,
,,,0.048659600000,   2.96000,
,,,0.048660000000,   2.96000,
,,,0.048660400000,   3.00000,
,,,0.048660800000,   2.92000,
,,,0.048661200000,   2.96000,
,,,0.048661600000,   2.96000,
,,,0.048662000000,   2.96000,
,,,0.048662400000,   2.88000,
,,,0.048662800000,   2.96000,
,,,0.048663200000,   2.96000,
,,,0.048663600000,   2.96000,
,,,0.048664000000,   2.96000,
,,,0.048664400000,   2.92000,
,,,0.048664800000,   2.96000,
,,,0.048665200000,   2.96000,
,,,0.048665600000,   3.00000,
,,,0.048666000000,   2.92000,
,,,0.048666400000,   2.96000,
,,,0.048666800000,   3.00000,
,,,0.048667200000,   3.00000,
,,,0.048667600000,   2.96000,
,,,0.048668000000,   3.00000,
,,,0.048668400000,   2.92000,
,,,0.048668800000,   2.96000,
,,,0.048669200000,   2.96000,
,,,0.048669600000,   2.88000,
,,,0.048670000000,   3.00000,
,,,0.048670400000,   2.96000,
,,,0.048670800000,   3.00000,
,,,0.048671200000,   2.92000,
,,,0.048671600000,   2.96000,
,,,0.048672000000,   3.00000,
,,,0.048672400000,   3.00000,
,,,0.048672800000,   2.96000,
,,,0.048673200000,   2.96000,
,,,0.048673600000,   2.92000,
,,,0.048674000000,   2.96000,
,,,0.048674400000,   2.96000,
,,,0.048674800000,   2.96000,
,,,0.048675200000,   3.04000,
,,,0.048675600000,   3.00000,
,,,0.048676000000,   2.96000,
,,,0.048676400000,   3.00000,
,,,0.048676800000,   2.92000,
,,,0.048677200000,   2.96000,
,,,0.048677600000,   2.92000,
,,,0.048678000000,   2.96000,
,,,0.048678400000,   2.96000,
,,,0.048678800000,   2.92000,
,,,0.048679200000,   2.92000,
,,,0.048679600000,   3.00000,
,,,0.048680000000,   2.96000,
,,,0.048680400000,   2.96000,
,,,0.048680800000,   2.96000,
,,,0.048681200000,   2.96000,
,,,0.048681600000,   3.04000,
,,,0.048682000000,   3.00000,
,,,0.048682400000,   2.96000,
,,,0.048682800000,   3.00000,
,,,0.048683200000,   3.00000,
,,,0.048683600000,   2.96000,
,,,0.048684000000,   2.92000,
,,,0.048684400000,   2.96000,
,,,0.048684800000,   2.96000,
,,,0.048685200000,   3.00000,
,,,0.048685600000,   2.96000,
,,,0.048686000000,   2.96000,
,,,0.048686400000,   3.00000,
,,,0.048686800000,   2.96000,
,,,0.048687200000,   2.96000,
,,,0.048687600000,   2.96000,
,,,0.048688000000,   3.04000,
,,,0.048688400000,   3.00000,
,,,0.048688800000,   3.00000,
,,,0.048689200000,   3.00000,
,,,0.048689600000,   3.00000,
,,,0.048690000000,   3.00000,
,,,0.048690400000,   2.96000,
,,,0.048690800000,   3.00000,
,,,0.048691200000,   2.96000,
,,,0.048691600000,   3.00000,
,,,0.048692000000,   2.96000,
,,,0.048692400000,   3.00000,
,,,0.048692800000,   2.96000,
,,,0.048693200000,   3.00000,
,,,0.048693600000,   2.96000,
,,,0.048694000000,   3.00000,
,,,0.048694400000,   3.00000,
,,,0.048694800000,   2.92000,
,,,0.048695200000,   3.00000,
,,,0.048695600000,   2.96000,
,,,0.048696000000,   2.92000,
,,,0.048696400000,   2.96000,
,,,0.048696800000,   2.96000,
,,,0.048697200000,   3.00000,
,,,0.048697600000,   3.00000,
,,,0.048698000000,   2.96000,
,,,0.048698400000,   3.00000,
,,,0.048698800000,   2.96000,
,,,0.048699200000,   2.96000,
,,,0.048699600000,   2.92000,
,,,0.048700000000,   3.04000,
,,,0.048700400000,   2.92000,
,,,0.048700800000,   3.00000,
,,,0.048701200000,   3.00000,
,,,0.048701600000,   2.92000,
,,,0.048702000000,   2.96000,
,,,0.048702400000,   2.96000,
,,,0.048702800000,   2.92000,
,,,0.048703200000,   3.00000,
,,,0.048703600000,   2.96000,
,,,0.048704000000,   2.96000,
,,,0.048704400000,   2.96000,
,,,0.048704800000,   2.96000,
,,,0.048705200000,   2.96000,
,,,0.048705600000,   2.96000,
,,,0.048706000000,   2.92000,
,,,0.048706400000,   3.04000,
,,,0.048706800000,   3.00000,
,,,0.048707200000,   2.96000,
,,,0.048707600000,   2.92000,
,,,0.048708000000,   3.00000,
,,,0.048708400000,   2.96000,
,,,0.048708800000,   3.00000,
,,,0.048709200000,   2.92000,
,,,0.048709600000,   2.96000,
,,,0.048710000000,   3.00000,
,,,0.048710400000,   3.00000,
,,,0.048710800000,   3.00000,
,,,0.048711200000,   2.96000,
,,,0.048711600000,   3.00000,
,,,0.048712000000,   2.96000,
,,,0.048712400000,   2.96000,
,,,0.048712800000,   3.04000,
,,,0.048713200000,   2.92000,
,,,0.048713600000,   3.00000,
,,,0.048714000000,   2.96000,
,,,0.048714400000,   3.00000,
,,,0.048714800000,   3.00000,
,,,0.048715200000,   2.96000,
,,,0.048715600000,   2.96000,
,,,0.048716000000,   3.00000,
,,,0.048716400000,   3.00000,
,,,0.048716800000,   2.96000,
,,,0.048717200000,   2.96000,
,,,0.048717600000,   3.00000,
,,,0.048718000000,   3.00000,
,,,0.048718400000,   2.92000,
,,,0.048718800000,   2.92000,
,,,0.048719200000,   2.96000,
,,,0.048719600000,   3.00000,
,,,0.048720000000,   3.00000,
,,,0.048720400000,   2.96000,
,,,0.048720800000,   2.92000,
,,,0.048721200000,   3.00000,
,,,0.048721600000,   2.96000,
,,,0.048722000000,   2.96000,
,,,0.048722400000,   2.96000,
,,,0.048722800000,   2.96000,
,,,0.048723200000,   3.04000,
,,,0.048723600000,   2.96000,
,,,0.048724000000,   2.96000,
,,,0.048724400000,   2.96000,
,,,0.048724800000,   3.00000,
,,,0.048725200000,   2.96000,
,,,0.048725600000,   2.96000,
,,,0.048726000000,   3.04000,
,,,0.048726400000,   3.00000,
,,,0.048726800000,   2.96000,
,,,0.048727200000,   2.96000,
,,,0.048727600000,   3.00000,
,,,0.048728000000,   3.00000,
,,,0.048728400000,   3.00000,
,,,0.048728800000,   2.92000,
,,,0.048729200000,   3.00000,
,,,0.048729600000,   3.00000,
,,,0.048730000000,   2.92000,
,,,0.048730400000,   3.00000,
,,,0.048730800000,   2.96000,
,,,0.048731200000,   2.96000,
,,,0.048731600000,   2.96000,
,,,0.048732000000,   3.04000,
,,,0.048732400000,   2.92000,
,,,0.048732800000,   2.96000,
,,,0.048733200000,   2.96000,
,,,0.048733600000,   2.92000,
,,,0.048734000000,   2.96000,
,,,0.048734400000,   2.96000,
,,,0.048734800000,   2.96000,
,,,0.048735200000,   2.96000,
,,,0.048735600000,   2.96000,
,,,0.048736000000,   2.96000,
,,,0.048736400000,   2.96000,
,,,0.048736800000,   2.96000,
,,,0.048737200000,   3.00000,
,,,0.048737600000,   2.92000,
,,,0.048738000000,   3.00000,
,,,0.048738400000,   2.96000,
,,,0.048738800000,   3.00000,
,,,0.048739200000,   2.96000,
,,,0.048739600000,   2.92000,
,,,0.048740000000,   2.96000,
,,,0.048740400000,   2.96000,
,,,0.048740800000,   3.00000,
,,,0.048741200000,   2.92000,
,,,0.048741600000,   2.92000,
,,,0.048742000000,   2.96000,
,,,0.048742400000,   2.96000,
,,,0.048742800000,   3.00000,
,,,0.048743200000,   2.92000,
,,,0.048743600000,   2.92000,
,,,0.048744000000,   2.96000,
,,,0.048744400000,   2.96000,
,,,0.048744800000,   2.96000,
,,,0.048745200000,   3.00000,
,,,0.048745600000,   3.00000,
,,,0.048746000000,   3.00000,
,,,0.048746400000,   2.96000,
,,,0.048746800000,   2.96000,
,,,0.048747200000,   2.96000,
,,,0.048747600000,   2.92000,
,,,0.048748000000,   2.96000,
,,,0.048748400000,   3.04000,
,,,0.048748800000,   2.92000,
,,,0.048749200000,   3.00000,
,,,0.048749600000,   3.00000,
,,,0.048750000000,   2.96000,
,,,0.048750400000,   2.96000,
,,,0.048750800000,   2.96000,
,,,0.048751200000,   2.96000,
,,,0.048751600000,   3.00000,
,,,0.048752000000,   3.00000,
,,,0.048752400000,   3.00000,
,,,0.048752800000,   2.96000,
,,,0.048753200000,   2.96000,
,,,0.048753600000,   2.96000,
,,,0.048754000000,   2.96000,
,,,0.048754400000,   3.00000,
,,,0.048754800000,   3.00000,
,,,0.048755200000,   3.00000,
,,,0.048755600000,   3.00000,
,,,0.048756000000,   3.00000,
,,,0.048756400000,   3.00000,
,,,0.048756800000,   2.96000,
,,,0.048757200000,   2.96000,
,,,0.048757600000,   2.96000,
,,,0.048758000000,   2.96000,
,,,0.048758400000,   2.92000,
,,,0.048758800000,   2.96000,
,,,0.048759200000,   3.00000,
,,,0.048759600000,   2.96000,
,,,0.048760000000,   2.96000,
,,,0.048760400000,   2.96000,
,,,0.048760800000,   3.00000,
,,,0.048761200000,   3.00000,
,,,0.048761600000,   3.00000,
,,,0.048762000000,   2.96000,
,,,0.048762400000,   3.00000,
,,,0.048762800000,   3.00000,
,,,0.048763200000,   2.96000,
,,,0.048763600000,   3.00000,
,,,0.048764000000,   2.96000,
,,,0.048764400000,   3.00000,
,,,0.048764800000,   2.92000,
,,,0.048765200000,   2.96000,
,,,0.048765600000,   3.00000,
,,,0.048766000000,   2.96000,
,,,0.048766400000,   3.00000,
,,,0.048766800000,   2.96000,
,,,0.048767200000,   3.00000,
,,,0.048767600000,   3.04000,
,,,0.048768000000,   3.00000,
,,,0.048768400000,   3.00000,
,,,0.048768800000,   2.96000,
,,,0.048769200000,   2.96000,
,,,0.048769600000,   2.92000,
,,,0.048770000000,   3.00000,
,,,0.048770400000,   2.96000,
,,,0.048770800000,   2.96000,
,,,0.048771200000,   2.96000,
,,,0.048771600000,   3.04000,
,,,0.048772000000,   2.92000,
,,,0.048772400000,   2.96000,
,,,0.048772800000,   2.96000,
,,,0.048773200000,   2.92000,
,,,0.048773600000,   3.00000,
,,,0.048774000000,   3.00000,
,,,0.048774400000,   3.00000,
,,,0.048774800000,   2.92000,
,,,0.048775200000,   2.96000,
,,,0.048775600000,   3.00000,
,,,0.048776000000,   3.00000,
,,,0.048776400000,   2.96000,
,,,0.048776800000,   3.04000,
,,,0.048777200000,   2.96000,
,,,0.048777600000,   2.96000,
,,,0.048778000000,   2.92000,
,,,0.048778400000,   2.96000,
,,,0.048778800000,   3.00000,
,,,0.048779200000,   3.00000,
,,,0.048779600000,   2.92000,
,,,0.048780000000,   2.96000,
,,,0.048780400000,   2.92000,
,,,0.048780800000,   2.96000,
,,,0.048781200000,   2.96000,
,,,0.048781600000,   2.96000,
,,,0.048782000000,   2.96000,
,,,0.048782400000,   3.00000,
,,,0.048782800000,   2.92000,
,,,0.048783200000,   2.88000,
,,,0.048783600000,   2.96000,
,,,0.048784000000,   2.92000,
,,,0.048784400000,   2.96000,
,,,0.048784800000,   2.96000,
,,,0.048785200000,   2.96000,
,,,0.048785600000,   3.00000,
,,,0.048786000000,   2.96000,
,,,0.048786400000,   2.96000,
,,,0.048786800000,   2.88000,
,,,0.048787200000,   2.92000,
,,,0.048787600000,   3.00000,
,,,0.048788000000,   3.00000,
,,,0.048788400000,   2.92000,
,,,0.048788800000,   3.00000,
,,,0.048789200000,   2.96000,
,,,0.048789600000,   3.00000,
,,,0.048790000000,   2.96000,
,,,0.048790400000,   2.96000,
,,,0.048790800000,   3.00000,
,,,0.048791200000,   3.00000,
,,,0.048791600000,   2.92000,
,,,0.048792000000,   3.04000,
,,,0.048792400000,   2.96000,
,,,0.048792800000,   3.00000,
,,,0.048793200000,   2.96000,
,,,0.048793600000,   2.96000,
,,,0.048794000000,   3.00000,
,,,0.048794400000,   2.96000,
,,,0.048794800000,   3.00000,
,,,0.048795200000,   3.00000,
,,,0.048795600000,   2.96000,
,,,0.048796000000,   2.92000,
,,,0.048796400000,   2.92000,
,,,0.048796800000,   2.96000,
,,,0.048797200000,   3.00000,
,,,0.048797600000,   2.96000,
,,,0.048798000000,   2.92000,
,,,0.048798400000,   2.96000,
,,,0.048798800000,   2.96000,
,,,0.048799200000,   3.00000,
,,,0.048799600000,   2.96000,
,,,0.048800000000,   3.00000,
,,,0.048800400000,   3.00000,
,,,0.048800800000,   2.96000,
,,,0.048801200000,   3.00000,
,,,0.048801600000,   2.96000,
,,,0.048802000000,   3.00000,
,,,0.048802400000,   3.00000,
,,,0.048802800000,   2.96000,
,,,0.048803200000,   2.92000,
,,,0.048803600000,   2.92000,
,,,0.048804000000,   3.00000,
,,,0.048804400000,   2.96000,
,,,0.048804800000,   3.00000,
,,,0.048805200000,   3.00000,
,,,0.048805600000,   3.00000,
,,,0.048806000000,   2.96000,
,,,0.048806400000,   2.92000,
,,,0.048806800000,   3.00000,
,,,0.048807200000,   3.00000,
,,,0.048807600000,   2.92000,
,,,0.048808000000,   2.96000,
,,,0.048808400000,   2.96000,
,,,0.048808800000,   3.00000,
,,,0.048809200000,   2.92000,
,,,0.048809600000,   3.00000,
,,,0.048810000000,   2.92000,
,,,0.048810400000,   3.00000,
,,,0.048810800000,   2.96000,
,,,0.048811200000,   3.00000,
,,,0.048811600000,   2.96000,
,,,0.048812000000,   3.00000,
,,,0.048812400000,   2.96000,
,,,0.048812800000,   2.92000,
,,,0.048813200000,   3.04000,
,,,0.048813600000,   2.96000,
,,,0.048814000000,   3.00000,
,,,0.048814400000,   2.92000,
,,,0.048814800000,   2.96000,
,,,0.048815200000,   2.96000,
,,,0.048815600000,   2.92000,
,,,0.048816000000,   2.96000,
,,,0.048816400000,   3.00000,
,,,0.048816800000,   2.92000,
,,,0.048817200000,   2.96000,
,,,0.048817600000,   3.00000,
,,,0.048818000000,   2.92000,
,,,0.048818400000,   3.00000,
,,,0.048818800000,   3.00000,
,,,0.048819200000,   2.88000,
,,,0.048819600000,   2.96000,
,,,0.048820000000,   2.96000,
,,,0.048820400000,   2.96000,
,,,0.048820800000,   3.00000,
,,,0.048821200000,   2.96000,
,,,0.048821600000,   2.96000,
,,,0.048822000000,   3.00000,
,,,0.048822400000,   2.96000,
,,,0.048822800000,   2.96000,
,,,0.048823200000,   2.96000,
,,,0.048823600000,   2.96000,
,,,0.048824000000,   2.96000,
,,,0.048824400000,   2.96000,
,,,0.048824800000,   2.96000,
,,,0.048825200000,   3.00000,
,,,0.048825600000,   2.96000,
,,,0.048826000000,   2.96000,
,,,0.048826400000,   2.96000,
,,,0.048826800000,   2.92000,
,,,0.048827200000,   3.00000,
,,,0.048827600000,   3.00000,
,,,0.048828000000,   2.92000,
,,,0.048828400000,   3.00000,
,,,0.048828800000,   3.00000,
,,,0.048829200000,   3.00000,
,,,0.048829600000,   2.96000,
,,,0.048830000000,   2.92000,
,,,0.048830400000,   2.96000,
,,,0.048830800000,   3.04000,
,,,0.048831200000,   2.92000,
,,,0.048831600000,   3.04000,
,,,0.048832000000,   3.00000,
,,,0.048832400000,   2.96000,
,,,0.048832800000,   2.92000,
,,,0.048833200000,   3.00000,
,,,0.048833600000,   3.08000,
,,,0.048834000000,   2.96000,
,,,0.048834400000,   3.00000,
,,,0.048834800000,   3.00000,
,,,0.048835200000,   3.00000,
,,,0.048835600000,   2.92000,
,,,0.048836000000,   3.00000,
,,,0.048836400000,   3.00000,
,,,0.048836800000,   2.96000,
,,,0.048837200000,   2.96000,
,,,0.048837600000,   2.88000,
,,,0.048838000000,   2.96000,
,,,0.048838400000,   2.96000,
,,,0.048838800000,   2.96000,
,,,0.048839200000,   3.00000,
,,,0.048839600000,   2.96000,
,,,0.048840000000,   3.00000,
,,,0.048840400000,   2.96000,
,,,0.048840800000,   2.92000,
,,,0.048841200000,   2.92000,
,,,0.048841600000,   3.00000,
,,,0.048842000000,   2.96000,
,,,0.048842400000,   2.96000,
,,,0.048842800000,   3.00000,
,,,0.048843200000,   2.96000,
,,,0.048843600000,   3.00000,
,,,0.048844000000,   2.96000,
,,,0.048844400000,   2.96000,
,,,0.048844800000,   3.00000,
,,,0.048845200000,   2.96000,
,,,0.048845600000,   3.00000,
,,,0.048846000000,   2.92000,
,,,0.048846400000,   2.96000,
,,,0.048846800000,   3.00000,
,,,0.048847200000,   2.96000,
,,,0.048847600000,   3.00000,
,,,0.048848000000,   2.92000,
,,,0.048848400000,   2.96000,
,,,0.048848800000,   2.92000,
,,,0.048849200000,   3.00000,
,,,0.048849600000,   2.92000,
,,,0.048850000000,   2.96000,
,,,0.048850400000,   2.92000,
,,,0.048850800000,   3.00000,
,,,0.048851200000,   2.92000,
,,,0.048851600000,   3.00000,
,,,0.048852000000,   3.00000,
,,,0.048852400000,   2.96000,
,,,0.048852800000,   3.00000,
,,,0.048853200000,   2.92000,
,,,0.048853600000,   3.00000,
,,,0.048854000000,   2.96000,
,,,0.048854400000,   2.96000,
,,,0.048854800000,   3.00000,
,,,0.048855200000,   3.00000,
,,,0.048855600000,   2.96000,
,,,0.048856000000,   3.00000,
,,,0.048856400000,   2.96000,
,,,0.048856800000,   3.00000,
,,,0.048857200000,   2.96000,
,,,0.048857600000,   3.00000,
,,,0.048858000000,   3.00000,
,,,0.048858400000,   2.96000,
,,,0.048858800000,   3.00000,
,,,0.048859200000,   2.96000,
,,,0.048859600000,   2.96000,
,,,0.048860000000,   2.92000,
,,,0.048860400000,   2.88000,
,,,0.048860800000,   2.96000,
,,,0.048861200000,   2.92000,
,,,0.048861600000,   3.00000,
,,,0.048862000000,   2.96000,
,,,0.048862400000,   2.96000,
,,,0.048862800000,   2.92000,
,,,0.048863200000,   2.96000,
,,,0.048863600000,   2.96000,
,,,0.048864000000,   2.96000,
,,,0.048864400000,   2.96000,
,,,0.048864800000,   3.00000,
,,,0.048865200000,   3.00000,
,,,0.048865600000,   2.96000,
,,,0.048866000000,   2.96000,
,,,0.048866400000,   3.00000,
,,,0.048866800000,   3.00000,
,,,0.048867200000,   3.00000,
,,,0.048867600000,   2.96000,
,,,0.048868000000,   2.96000,
,,,0.048868400000,   3.00000,
,,,0.048868800000,   2.96000,
,,,0.048869200000,   2.96000,
,,,0.048869600000,   2.96000,
,,,0.048870000000,   3.00000,
,,,0.048870400000,   3.00000,
,,,0.048870800000,   3.00000,
,,,0.048871200000,   3.00000,
,,,0.048871600000,   2.96000,
,,,0.048872000000,   2.96000,
,,,0.048872400000,   3.00000,
,,,0.048872800000,   2.96000,
,,,0.048873200000,   3.00000,
,,,0.048873600000,   3.00000,
,,,0.048874000000,   2.96000,
,,,0.048874400000,   2.96000,
,,,0.048874800000,   3.00000,
,,,0.048875200000,   2.92000,
,,,0.048875600000,   2.96000,
,,,0.048876000000,   3.00000,
,,,0.048876400000,   2.96000,
,,,0.048876800000,   2.96000,
,,,0.048877200000,   2.92000,
,,,0.048877600000,   2.96000,
,,,0.048878000000,   3.04000,
,,,0.048878400000,   3.00000,
,,,0.048878800000,   2.96000,
,,,0.048879200000,   2.92000,
,,,0.048879600000,   3.00000,
,,,0.048880000000,   3.00000,
,,,0.048880400000,   2.96000,
,,,0.048880800000,   2.96000,
,,,0.048881200000,   3.00000,
,,,0.048881600000,   2.96000,
,,,0.048882000000,   2.92000,
,,,0.048882400000,   2.96000,
,,,0.048882800000,   2.96000,
,,,0.048883200000,   3.00000,
,,,0.048883600000,   2.96000,
,,,0.048884000000,   2.96000,
,,,0.048884400000,   3.00000,
,,,0.048884800000,   2.96000,
,,,0.048885200000,   2.96000,
,,,0.048885600000,   2.96000,
,,,0.048886000000,   2.96000,
,,,0.048886400000,   3.00000,
,,,0.048886800000,   3.00000,
,,,0.048887200000,   2.96000,
,,,0.048887600000,   2.92000,
,,,0.048888000000,   3.00000,
,,,0.048888400000,   2.92000,
,,,0.048888800000,   3.00000,
,,,0.048889200000,   2.96000,
,,,0.048889600000,   2.96000,
,,,0.048890000000,   2.96000,
,,,0.048890400000,   3.00000,
,,,0.048890800000,   2.96000,
,,,0.048891200000,   3.04000,
,,,0.048891600000,   2.92000,
,,,0.048892000000,   2.96000,
,,,0.048892400000,   3.00000,
,,,0.048892800000,   2.96000,
,,,0.048893200000,   3.00000,
,,,0.048893600000,   2.96000,
,,,0.048894000000,   2.96000,
,,,0.048894400000,   3.00000,
,,,0.048894800000,   2.96000,
,,,0.048895200000,   2.96000,
,,,0.048895600000,   2.96000,
,,,0.048896000000,   2.92000,
,,,0.048896400000,   2.92000,
,,,0.048896800000,   2.96000,
,,,0.048897200000,   2.96000,
,,,0.048897600000,   3.00000,
,,,0.048898000000,   3.00000,
,,,0.048898400000,   2.96000,
,,,0.048898800000,   3.00000,
,,,0.048899200000,   3.00000,
,,,0.048899600000,   2.96000,
,,,0.048900000000,   2.88000,
,,,0.048900400000,   2.96000,
,,,0.048900800000,   2.92000,
,,,0.048901200000,   3.00000,
,,,0.048901600000,   2.96000,
,,,0.048902000000,   2.96000,
,,,0.048902400000,   2.96000,
,,,0.048902800000,   2.96000,
,,,0.048903200000,   2.96000,
,,,0.048903600000,   3.00000,
,,,0.048904000000,   3.00000,
,,,0.048904400000,   3.00000,
,,,0.048904800000,   2.96000,
,,,0.048905200000,   3.00000,
,,,0.048905600000,   2.92000,
,,,0.048906000000,   2.96000,
,,,0.048906400000,   3.00000,
,,,0.048906800000,   3.04000,
,,,0.048907200000,   2.92000,
,,,0.048907600000,   3.00000,
,,,0.048908000000,   2.96000,
,,,0.048908400000,   3.04000,
,,,0.048908800000,   2.92000,
,,,0.048909200000,   2.96000,
,,,0.048909600000,   3.04000,
,,,0.048910000000,   3.00000,
,,,0.048910400000,   2.96000,
,,,0.048910800000,   3.00000,
,,,0.048911200000,   2.92000,
,,,0.048911600000,   3.00000,
,,,0.048912000000,   2.92000,
,,,0.048912400000,   3.00000,
,,,0.048912800000,   3.00000,
,,,0.048913200000,   3.00000,
,,,0.048913600000,   2.96000,
,,,0.048914000000,   2.96000,
,,,0.048914400000,   3.00000,
,,,0.048914800000,   2.96000,
,,,0.048915200000,   2.92000,
,,,0.048915600000,   3.00000,
,,,0.048916000000,   3.00000,
,,,0.048916400000,   2.96000,
,,,0.048916800000,   2.96000,
,,,0.048917200000,   2.92000,
,,,0.048917600000,   2.96000,
,,,0.048918000000,   2.96000,
,,,0.048918400000,   3.00000,
,,,0.048918800000,   2.96000,
,,,0.048919200000,   3.00000,
,,,0.048919600000,   2.96000,
,,,0.048920000000,   3.00000,
,,,0.048920400000,   2.96000,
,,,0.048920800000,   3.00000,
,,,0.048921200000,   3.00000,
,,,0.048921600000,   3.00000,
,,,0.048922000000,   3.00000,
,,,0.048922400000,   2.96000,
,,,0.048922800000,   3.00000,
,,,0.048923200000,   2.96000,
,,,0.048923600000,   2.92000,
,,,0.048924000000,   3.04000,
,,,0.048924400000,   3.00000,
,,,0.048924800000,   3.00000,
,,,0.048925200000,   2.92000,
,,,0.048925600000,   2.96000,
,,,0.048926000000,   3.00000,
,,,0.048926400000,   3.00000,
,,,0.048926800000,   3.00000,
,,,0.048927200000,   2.96000,
,,,0.048927600000,   2.96000,
,,,0.048928000000,   2.96000,
,,,0.048928400000,   3.00000,
,,,0.048928800000,   2.96000,
,,,0.048929200000,   2.96000,
,,,0.048929600000,   2.96000,
,,,0.048930000000,   3.00000,
,,,0.048930400000,   2.96000,
,,,0.048930800000,   3.00000,
,,,0.048931200000,   2.96000,
,,,0.048931600000,   2.96000,
,,,0.048932000000,   3.00000,
,,,0.048932400000,   3.00000,
,,,0.048932800000,   3.00000,
,,,0.048933200000,   2.92000,
,,,0.048933600000,   2.96000,
,,,0.048934000000,   3.00000,
,,,0.048934400000,   3.00000,
,,,0.048934800000,   2.96000,
,,,0.048935200000,   3.00000,
,,,0.048935600000,   2.96000,
,,,0.048936000000,   2.96000,
,,,0.048936400000,   2.92000,
,,,0.048936800000,   3.00000,
,,,0.048937200000,   2.96000,
,,,0.048937600000,   3.00000,
,,,0.048938000000,   2.92000,
,,,0.048938400000,   3.00000,
,,,0.048938800000,   2.96000,
,,,0.048939200000,   3.00000,
,,,0.048939600000,   2.88000,
,,,0.048940000000,   2.96000,
,,,0.048940400000,   2.96000,
,,,0.048940800000,   3.00000,
,,,0.048941200000,   2.96000,
,,,0.048941600000,   2.96000,
,,,0.048942000000,   2.96000,
,,,0.048942400000,   3.00000,
,,,0.048942800000,   2.96000,
,,,0.048943200000,   2.96000,
,,,0.048943600000,   2.96000,
,,,0.048944000000,   3.00000,
,,,0.048944400000,   3.00000,
,,,0.048944800000,   3.00000,
,,,0.048945200000,   2.92000,
,,,0.048945600000,   2.92000,
,,,0.048946000000,   2.96000,
,,,0.048946400000,   3.00000,
,,,0.048946800000,   2.92000,
,,,0.048947200000,   3.00000,
,,,0.048947600000,   3.00000,
,,,0.048948000000,   2.96000,
,,,0.048948400000,   2.92000,
,,,0.048948800000,   2.92000,
,,,0.048949200000,   3.00000,
,,,0.048949600000,   3.00000,
,,,0.048950000000,   2.96000,
,,,0.048950400000,   3.00000,
,,,0.048950800000,   2.96000,
,,,0.048951200000,   2.96000,
,,,0.048951600000,   2.88000,
,,,0.048952000000,   3.00000,
,,,0.048952400000,   3.04000,
,,,0.048952800000,   3.00000,
,,,0.048953200000,   3.00000,
,,,0.048953600000,   3.00000,
,,,0.048954000000,   3.00000,
,,,0.048954400000,   2.92000,
,,,0.048954800000,   2.92000,
,,,0.048955200000,   2.96000,
,,,0.048955600000,   2.96000,
,,,0.048956000000,   2.96000,
,,,0.048956400000,   2.96000,
,,,0.048956800000,   2.96000,
,,,0.048957200000,   3.00000,
,,,0.048957600000,   3.00000,
,,,0.048958000000,   3.00000,
,,,0.048958400000,   2.96000,
,,,0.048958800000,   3.00000,
,,,0.048959200000,   3.04000,
,,,0.048959600000,   2.96000,
,,,0.048960000000,   2.96000,
,,,0.048960400000,   2.96000,
,,,0.048960800000,   2.96000,
,,,0.048961200000,   2.96000,
,,,0.048961600000,   2.92000,
,,,0.048962000000,   2.96000,
,,,0.048962400000,   3.04000,
,,,0.048962800000,   2.92000,
,,,0.048963200000,   2.92000,
,,,0.048963600000,   3.00000,
,,,0.048964000000,   3.00000,
,,,0.048964400000,   2.96000,
,,,0.048964800000,   3.00000,
,,,0.048965200000,   2.96000,
,,,0.048965600000,   2.96000,
,,,0.048966000000,   3.00000,
,,,0.048966400000,   3.00000,
,,,0.048966800000,   2.96000,
,,,0.048967200000,   2.96000,
,,,0.048967600000,   2.92000,
,,,0.048968000000,   2.96000,
,,,0.048968400000,   2.92000,
,,,0.048968800000,   3.00000,
,,,0.048969200000,   2.92000,
,,,0.048969600000,   3.00000,
,,,0.048970000000,   2.92000,
,,,0.048970400000,   2.96000,
,,,0.048970800000,   2.96000,
,,,0.048971200000,   2.92000,
,,,0.048971600000,   2.96000,
,,,0.048972000000,   2.96000,
,,,0.048972400000,   3.00000,
,,,0.048972800000,   2.92000,
,,,0.048973200000,   3.00000,
,,,0.048973600000,   3.00000,
,,,0.048974000000,   2.96000,
,,,0.048974400000,   2.96000,
,,,0.048974800000,   3.00000,
,,,0.048975200000,   2.96000,
,,,0.048975600000,   2.96000,
,,,0.048976000000,   3.00000,
,,,0.048976400000,   2.96000,
,,,0.048976800000,   3.00000,
,,,0.048977200000,   3.00000,
,,,0.048977600000,   2.92000,
,,,0.048978000000,   2.96000,
,,,0.048978400000,   2.96000,
,,,0.048978800000,   2.96000,
,,,0.048979200000,   2.92000,
,,,0.048979600000,   2.96000,
,,,0.048980000000,   2.96000,
,,,0.048980400000,   3.00000,
,,,0.048980800000,   2.96000,
,,,0.048981200000,   2.92000,
,,,0.048981600000,   2.96000,
,,,0.048982000000,   2.96000,
,,,0.048982400000,   2.96000,
,,,0.048982800000,   2.92000,
,,,0.048983200000,   2.96000,
,,,0.048983600000,   3.00000,
,,,0.048984000000,   2.96000,
,,,0.048984400000,   3.00000,
,,,0.048984800000,   2.92000,
,,,0.048985200000,   2.96000,
,,,0.048985600000,   0.92000,
,,,0.048986000000,   0.08000,
,,,0.048986400000,   0.00000,
,,,0.048986800000,   0.04000,
,,,0.048987200000,   0.04000,
,,,0.048987600000,   0.00000,
,,,0.048988000000,   0.04000,
,,,0.048988400000,   0.04000,
,,,0.048988800000,   0.04000,
,,,0.048989200000,   0.04000,
,,,0.048989600000,   0.08000,
,,,0.048990000000,   0.08000,
,,,0.048990400000,  -0.04000,
,,,0.048990800000,   0.08000,
,,,0.048991200000,   0.04000,
,,,0.048991600000,   0.08000,
,,,0.048992000000,   0.12000,
,,,0.048992400000,   0.04000,
,,,0.048992800000,   0.04000,
,,,0.048993200000,   0.04000,
,,,0.048993600000,   0.04000,
,,,0.048994000000,   0.00000,
,,,0.048994400000,   0.00000,
,,,0.048994800000,   0.08000,
,,,0.048995200000,   0.08000,
,,,0.048995600000,  -0.04000,
,,,0.048996000000,   0.00000,
,,,0.048996400000,   0.04000,
,,,0.048996800000,   0.12000,
,,,0.048997200000,   0.04000,
,,,0.048997600000,   0.04000,
,,,0.048998000000,   0.00000,
,,,0.048998400000,   0.04000,
,,,0.048998800000,   0.04000,
,,,0.048999200000,   0.04000,
,,,0.048999600000,  -0.08000,
,,,0.049000000000,   0.00000,
,,,0.049000400000,   0.04000,
,,,0.049000800000,   0.04000,
,,,0.049001200000,   0.04000,
,,,0.049001600000,  -0.04000,
,,,0.049002000000,   0.08000,
,,,0.049002400000,   0.00000,
,,,0.049002800000,   0.00000,
,,,0.049003200000,   0.04000,
,,,0.049003600000,   0.00000,
,,,0.049004000000,   0.04000,
,,,0.049004400000,   0.04000,
,,,0.049004800000,   4.84000,
,,,0.049005200000,   2.88000,
,,,0.049005600000,   3.00000,
,,,0.049006000000,   2.92000,
,,,0.049006400000,   2.96000,
,,,0.049006800000,   2.96000,
,,,0.049007200000,   2.96000,
,,,0.049007600000,   2.96000,
,,,0.049008000000,   2.92000,
,,,0.049008400000,   2.96000,
,,,0.049008800000,   2.88000,
,,,0.049009200000,   2.96000,
,,,0.049009600000,   2.88000,
,,,0.049010000000,   2.96000,
,,,0.049010400000,   2.96000,
,,,0.049010800000,   2.92000,
,,,0.049011200000,   3.00000,
,,,0.049011600000,   2.92000,
,,,0.049012000000,   2.96000,
,,,0.049012400000,   2.96000,
,,,0.049012800000,   3.00000,
,,,0.049013200000,   2.96000,
,,,0.049013600000,   2.96000,
,,,0.049014000000,   2.96000,
,,,0.049014400000,   2.96000,
,,,0.049014800000,   2.96000,
,,,0.049015200000,   2.96000,
,,,0.049015600000,   2.92000,
,,,0.049016000000,   2.96000,
,,,0.049016400000,   2.92000,
,,,0.049016800000,   3.00000,
,,,0.049017200000,   2.92000,
,,,0.049017600000,   2.96000,
,,,0.049018000000,   2.96000,
,,,0.049018400000,   2.96000,
,,,0.049018800000,   2.88000,
,,,0.049019200000,   2.96000,
,,,0.049019600000,   2.92000,
,,,0.049020000000,   3.00000,
,,,0.049020400000,   2.96000,
,,,0.049020800000,   2.92000,
,,,0.049021200000,   2.96000,
,,,0.049021600000,   3.00000,
,,,0.049022000000,   3.00000,
,,,0.049022400000,   2.96000,
,,,0.049022800000,   3.00000,
,,,0.049023200000,   3.00000,
,,,0.049023600000,   3.00000,
,,,0.049024000000,   2.96000,
,,,0.049024400000,   2.92000,
,,,0.049024800000,   2.96000,
,,,0.049025200000,   3.00000,
,,,0.049025600000,   2.96000,
,,,0.049026000000,   2.92000,
,,,0.049026400000,   2.96000,
,,,0.049026800000,   2.96000,
,,,0.049027200000,   2.96000,
,,,0.049027600000,   3.00000,
,,,0.049028000000,   2.92000,
,,,0.049028400000,   2.96000,
,,,0.049028800000,   3.00000,
,,,0.049029200000,   2.96000,
,,,0.049029600000,   3.00000,
,,,0.049030000000,   2.92000,
,,,0.049030400000,   3.00000,
,,,0.049030800000,   2.96000,
,,,0.049031200000,   2.96000,
,,,0.049031600000,   2.96000,
,,,0.049032000000,   3.04000,
,,,0.049032400000,   2.96000,
,,,0.049032800000,   3.00000,
,,,0.049033200000,   2.96000,
,,,0.049033600000,   2.96000,
,,,0.049034000000,   2.96000,
,,,0.049034400000,   3.00000,
,,,0.049034800000,   2.96000,
,,,0.049035200000,   2.96000,
,,,0.049035600000,   2.92000,
,,,0.049036000000,   2.96000,
,,,0.049036400000,   2.96000,
,,,0.049036800000,   2.96000,
,,,0.049037200000,   2.92000,
,,,0.049037600000,   2.96000,
,,,0.049038000000,   2.96000,
,,,0.049038400000,   2.96000,
,,,0.049038800000,   3.00000,
,,,0.049039200000,   2.96000,
,,,0.049039600000,   2.96000,
,,,0.049040000000,   2.96000,
,,,0.049040400000,   2.96000,
,,,0.049040800000,   2.96000,
,,,0.049041200000,   2.92000,
,,,0.049041600000,   2.96000,
,,,0.049042000000,   2.92000,
,,,0.049042400000,   2.96000,
,,,0.049042800000,   3.00000,
,,,0.049043200000,   3.00000,
,,,0.049043600000,   3.04000,
,,,0.049044000000,   2.96000,
,,,0.049044400000,   3.04000,
,,,0.049044800000,   3.00000,
,,,0.049045200000,   3.00000,
,,,0.049045600000,   2.96000,
,,,0.049046000000,   2.96000,
,,,0.049046400000,   2.96000,
,,,0.049046800000,   2.92000,
,,,0.049047200000,   3.00000,
,,,0.049047600000,   3.00000,
,,,0.049048000000,   3.00000,
,,,0.049048400000,   2.96000,
,,,0.049048800000,   3.00000,
,,,0.049049200000,   2.92000,
,,,0.049049600000,   2.96000,
,,,0.049050000000,   2.96000,
,,,0.049050400000,   2.96000,
,,,0.049050800000,   2.96000,
,,,0.049051200000,   3.00000,
,,,0.049051600000,   3.00000,
,,,0.049052000000,   2.96000,
,,,0.049052400000,   2.96000,
,,,0.049052800000,   3.00000,
,,,0.049053200000,   2.96000,
,,,0.049053600000,   3.00000,
,,,0.049054000000,   2.96000,
,,,0.049054400000,   2.96000,
,,,0.049054800000,   2.96000,
,,,0.049055200000,   2.96000,
,,,0.049055600000,   2.92000,
,,,0.049056000000,   2.96000,
,,,0.049056400000,   3.00000,
,,,0.049056800000,   2.92000,
,,,0.049057200000,   2.96000,
,,,0.049057600000,   2.96000,
,,,0.049058000000,   2.96000,
,,,0.049058400000,   2.96000,
,,,0.049058800000,   2.96000,
,,,0.049059200000,   2.92000,
,,,0.049059600000,   3.00000,
,,,0.049060000000,   3.00000,
,,,0.049060400000,   2.96000,
,,,0.049060800000,   2.96000,
,,,0.049061200000,   3.00000,
,,,0.049061600000,   2.96000,
,,,0.049062000000,   2.96000,
,,,0.049062400000,   2.96000,
,,,0.049062800000,   2.96000,
,,,0.049063200000,   3.00000,
,,,0.049063600000,   2.96000,
,,,0.049064000000,   2.96000,
,,,0.049064400000,   2.96000,
,,,0.049064800000,   3.00000,
,,,0.049065200000,   2.96000,
,,,0.049065600000,   2.96000,
,,,0.049066000000,   3.04000,
,,,0.049066400000,   2.96000,
,,,0.049066800000,   3.00000,
,,,0.049067200000,   2.92000,
,,,0.049067600000,   2.96000,
,,,0.049068000000,   3.00000,
,,,0.049068400000,   3.04000,
,,,0.049068800000,   2.96000,
,,,0.049069200000,   3.00000,
,,,0.049069600000,   3.00000,
,,,0.049070000000,   3.04000,
,,,0.049070400000,   3.00000,
,,,0.049070800000,   3.00000,
,,,0.049071200000,   2.96000,
,,,0.049071600000,   2.96000,
,,,0.049072000000,   3.00000,
,,,0.049072400000,   3.00000,
,,,0.049072800000,   3.00000,
,,,0.049073200000,   2.96000,
,,,0.049073600000,   2.96000,
,,,0.049074000000,   3.00000,
,,,0.049074400000,   2.96000,
,,,0.049074800000,   2.96000,
,,,0.049075200000,   2.92000,
,,,0.049075600000,   2.96000,
,,,0.049076000000,   3.04000,
,,,0.049076400000,   2.96000,
,,,0.049076800000,   2.96000,
,,,0.049077200000,   2.92000,
,,,0.049077600000,   2.96000,
,,,0.049078000000,   3.00000,
,,,0.049078400000,   3.00000,
,,,0.049078800000,   2.92000,
,,,0.049079200000,   3.00000,
,,,0.049079600000,   3.00000,
,,,0.049080000000,   2.96000,
,,,0.049080400000,   2.96000,
,,,0.049080800000,   3.00000,
,,,0.049081200000,   3.00000,
,,,0.049081600000,   2.92000,
,,,0.049082000000,   2.96000,
,,,0.049082400000,   3.00000,
,,,0.049082800000,   3.00000,
,,,0.049083200000,   2.96000,
,,,0.049083600000,   2.96000,
,,,0.049084000000,   2.96000,
,,,0.049084400000,   3.00000,
,,,0.049084800000,   3.00000,
,,,0.049085200000,   2.96000,
,,,0.049085600000,   2.96000,
,,,0.049086000000,   2.96000,
,,,0.049086400000,   2.96000,
,,,0.049086800000,   3.04000,
,,,0.049087200000,   3.00000,
,,,0.049087600000,   3.00000,
,,,0.049088000000,   2.96000,
,,,0.049088400000,   2.96000,
,,,0.049088800000,   2.92000,
,,,0.049089200000,   3.00000,
,,,0.049089600000,   2.96000,
,,,0.049090000000,   2.96000,
,,,0.049090400000,   3.00000,
,,,0.049090800000,   2.96000,
,,,0.049091200000,   2.96000,
,,,0.049091600000,   2.96000,
,,,0.049092000000,   2.96000,
,,,0.049092400000,   3.00000,
,,,0.049092800000,   3.00000,
,,,0.049093200000,   2.96000,
,,,0.049093600000,   3.00000,
,,,0.049094000000,   2.96000,
,,,0.049094400000,   2.96000,
,,,0.049094800000,   2.96000,
,,,0.049095200000,   2.96000,
,,,0.049095600000,   3.00000,
,,,0.049096000000,   2.96000,
,,,0.049096400000,   2.96000,
,,,0.049096800000,   3.00000,
,,,0.049097200000,   2.96000,
,,,0.049097600000,   2.96000,
,,,0.049098000000,   2.92000,
,,,0.049098400000,   2.96000,
,,,0.049098800000,   2.96000,
,,,0.049099200000,   3.00000,
,,,0.049099600000,   3.00000,
,,,0.049100000000,   2.92000,
,,,0.049100400000,   3.00000,
,,,0.049100800000,   2.96000,
,,,0.049101200000,   2.96000,
,,,0.049101600000,   2.96000,
,,,0.049102000000,   2.96000,
,,,0.049102400000,   2.96000,
,,,0.049102800000,   2.96000,
,,,0.049103200000,   2.96000,
,,,0.049103600000,   2.92000,
,,,0.049104000000,   2.96000,
,,,0.049104400000,   2.96000,
,,,0.049104800000,   2.96000,
,,,0.049105200000,   2.96000,
,,,0.049105600000,   2.96000,
,,,0.049106000000,   2.96000,
,,,0.049106400000,   3.00000,
,,,0.049106800000,   2.96000,
,,,0.049107200000,   2.96000,
,,,0.049107600000,   3.00000,
,,,0.049108000000,   2.96000,
,,,0.049108400000,   3.04000,
,,,0.049108800000,   3.00000,
,,,0.049109200000,   2.92000,
,,,0.049109600000,   2.96000,
,,,0.049110000000,   3.00000,
,,,0.049110400000,   3.04000,
,,,0.049110800000,   3.00000,
,,,0.049111200000,   2.96000,
,,,0.049111600000,   3.00000,
,,,0.049112000000,   2.96000,
,,,0.049112400000,   2.92000,
,,,0.049112800000,   2.96000,
,,,0.049113200000,   2.96000,
,,,0.049113600000,   3.00000,
,,,0.049114000000,   3.00000,
,,,0.049114400000,   2.96000,
,,,0.049114800000,   2.92000,
,,,0.049115200000,   3.00000,
,,,0.049115600000,   3.00000,
,,,0.049116000000,   3.04000,
,,,0.049116400000,   2.96000,
,,,0.049116800000,   2.96000,
,,,0.049117200000,   3.00000,
,,,0.049117600000,   3.00000,
,,,0.049118000000,   3.00000,
,,,0.049118400000,   2.96000,
,,,0.049118800000,   3.00000,
,,,0.049119200000,   2.96000,
,,,0.049119600000,   2.96000,
,,,0.049120000000,   2.96000,
,,,0.049120400000,   2.96000,
,,,0.049120800000,   3.00000,
,,,0.049121200000,   2.96000,
,,,0.049121600000,   2.92000,
,,,0.049122000000,   2.96000,
,,,0.049122400000,   3.00000,
,,,0.049122800000,   2.96000,
,,,0.049123200000,   2.96000,
,,,0.049123600000,   3.00000,
,,,0.049124000000,   3.00000,
,,,0.049124400000,   2.96000,
,,,0.049124800000,   2.96000,
,,,0.049125200000,   3.00000,
,,,0.049125600000,   2.92000,
,,,0.049126000000,   2.96000,
,,,0.049126400000,   3.00000,
,,,0.049126800000,   2.92000,
,,,0.049127200000,   3.00000,
,,,0.049127600000,   3.00000,
,,,0.049128000000,   2.96000,
,,,0.049128400000,   2.96000,
,,,0.049128800000,   3.00000,
,,,0.049129200000,   2.96000,
,,,0.049129600000,   2.92000,
,,,0.049130000000,   2.96000,
,,,0.049130400000,   2.96000,
,,,0.049130800000,   2.96000,
,,,0.049131200000,   2.96000,
,,,0.049131600000,   2.96000,
,,,0.049132000000,   2.96000,
,,,0.049132400000,   3.00000,
,,,0.049132800000,   2.96000,
,,,0.049133200000,   2.96000,
,,,0.049133600000,   2.96000,
,,,0.049134000000,   2.96000,
,,,0.049134400000,   2.96000,
,,,0.049134800000,   2.96000,
,,,0.049135200000,   2.96000,
,,,0.049135600000,   2.96000,
,,,0.049136000000,   2.92000,
,,,0.049136400000,   2.96000,
,,,0.049136800000,   3.00000,
,,,0.049137200000,   2.92000,
,,,0.049137600000,   2.96000,
,,,0.049138000000,   3.00000,
,,,0.049138400000,   2.96000,
,,,0.049138800000,   2.96000,
,,,0.049139200000,   2.96000,
,,,0.049139600000,   2.96000,
,,,0.049140000000,   3.00000,
,,,0.049140400000,   2.96000,
,,,0.049140800000,   3.00000,
,,,0.049141200000,   2.96000,
,,,0.049141600000,   2.96000,
,,,0.049142000000,   3.00000,
,,,0.049142400000,   2.96000,
,,,0.049142800000,   3.00000,
,,,0.049143200000,   2.92000,
,,,0.049143600000,   2.96000,
,,,0.049144000000,   2.96000,
,,,0.049144400000,   3.00000,
,,,0.049144800000,   2.92000,
,,,0.049145200000,   2.96000,
,,,0.049145600000,   2.96000,
,,,0.049146000000,   3.00000,
,,,0.049146400000,   2.92000,
,,,0.049146800000,   2.96000,
,,,0.049147200000,   3.00000,
,,,0.049147600000,   3.00000,
,,,0.049148000000,   3.00000,
,,,0.049148400000,   2.96000,
,,,0.049148800000,   2.96000,
,,,0.049149200000,   2.96000,
,,,0.049149600000,   2.96000,
,,,0.049150000000,   2.96000,
,,,0.049150400000,   3.00000,
,,,0.049150800000,   2.96000,
,,,0.049151200000,   2.96000,
,,,0.049151600000,   3.00000,
,,,0.049152000000,   2.96000,
,,,0.049152400000,   2.96000,
,,,0.049152800000,   2.92000,
,,,0.049153200000,   3.00000,
,,,0.049153600000,   3.00000,
,,,0.049154000000,   2.96000,
,,,0.049154400000,   2.92000,
,,,0.049154800000,   2.92000,
,,,0.049155200000,   3.00000,
,,,0.049155600000,   3.04000,
,,,0.049156000000,   3.00000,
,,,0.049156400000,   2.96000,
,,,0.049156800000,   3.00000,
,,,0.049157200000,   2.96000,
,,,0.049157600000,   2.96000,
,,,0.049158000000,   2.96000,
,,,0.049158400000,   3.00000,
,,,0.049158800000,   2.96000,
,,,0.049159200000,   3.00000,
,,,0.049159600000,   2.96000,
,,,0.049160000000,   2.92000,
,,,0.049160400000,   3.00000,
,,,0.049160800000,   2.96000,
,,,0.049161200000,   3.00000,
,,,0.049161600000,   3.00000,
,,,0.049162000000,   2.96000,
,,,0.049162400000,   2.96000,
,,,0.049162800000,   2.96000,
,,,0.049163200000,   3.00000,
,,,0.049163600000,   3.04000,
,,,0.049164000000,   2.96000,
,,,0.049164400000,   3.00000,
,,,0.049164800000,   3.00000,
,,,0.049165200000,   2.96000,
,,,0.049165600000,   2.96000,
,,,0.049166000000,   3.00000,
,,,0.049166400000,   2.96000,
,,,0.049166800000,   2.92000,
,,,0.049167200000,   2.92000,
,,,0.049167600000,   2.96000,
,,,0.049168000000,   2.96000,
,,,0.049168400000,   2.96000,
,,,0.049168800000,   2.96000,
,,,0.049169200000,   2.92000,
,,,0.049169600000,   2.96000,
,,,0.049170000000,   3.00000,
,,,0.049170400000,   2.96000,
,,,0.049170800000,   2.96000,
,,,0.049171200000,   2.96000,
,,,0.049171600000,   2.96000,
,,,0.049172000000,   2.96000,
,,,0.049172400000,   2.96000,
,,,0.049172800000,   3.04000,
,,,0.049173200000,   2.96000,
,,,0.049173600000,   3.00000,
,,,0.049174000000,   2.96000,
,,,0.049174400000,   2.96000,
,,,0.049174800000,   2.96000,
,,,0.049175200000,   3.00000,
,,,0.049175600000,   2.96000,
,,,0.049176000000,   2.96000,
,,,0.049176400000,   2.96000,
,,,0.049176800000,   2.92000,
,,,0.049177200000,   2.92000,
,,,0.049177600000,   2.96000,
,,,0.049178000000,   2.96000,
,,,0.049178400000,   2.96000,
,,,0.049178800000,   2.96000,
,,,0.049179200000,   2.92000,
,,,0.049179600000,   2.96000,
,,,0.049180000000,   2.96000,
,,,0.049180400000,   2.96000,
,,,0.049180800000,   2.96000,
,,,0.049181200000,   2.96000,
,,,0.049181600000,   2.96000,
,,,0.049182000000,   3.00000,
,,,0.049182400000,   2.96000,
,,,0.049182800000,   2.92000,
,,,0.049183200000,   2.92000,
,,,0.049183600000,   2.96000,
,,,0.049184000000,   2.96000,
,,,0.049184400000,   2.92000,
,,,0.049184800000,   3.00000,
,,,0.049185200000,   3.00000,
,,,0.049185600000,   3.00000,
,,,0.049186000000,   3.00000,
,,,0.049186400000,   2.96000,
,,,0.049186800000,   3.00000,
,,,0.049187200000,   2.92000,
,,,0.049187600000,   2.96000,
,,,0.049188000000,   2.96000,
,,,0.049188400000,   2.96000,
,,,0.049188800000,   2.96000,
,,,0.049189200000,   2.92000,
,,,0.049189600000,   3.00000,
,,,0.049190000000,   3.00000,
,,,0.049190400000,   3.00000,
,,,0.049190800000,   2.96000,
,,,0.049191200000,   3.00000,
,,,0.049191600000,   3.00000,
,,,0.049192000000,   2.96000,
,,,0.049192400000,   2.96000,
,,,0.049192800000,   2.96000,
,,,0.049193200000,   3.00000,
,,,0.049193600000,   2.92000,
,,,0.049194000000,   2.92000,
,,,0.049194400000,   2.96000,
,,,0.049194800000,   2.96000,
,,,0.049195200000,   3.00000,
,,,0.049195600000,   2.92000,
,,,0.049196000000,   3.00000,
,,,0.049196400000,   3.00000,
,,,0.049196800000,   3.00000,
,,,0.049197200000,   3.00000,
,,,0.049197600000,   2.96000,
,,,0.049198000000,   3.00000,
,,,0.049198400000,   2.96000,
,,,0.049198800000,   2.92000,
,,,0.049199200000,   2.96000,
,,,0.049199600000,   2.96000,
,,,0.049200000000,   3.00000,
,,,0.049200400000,   2.96000,
,,,0.049200800000,   2.96000,
,,,0.049201200000,   3.04000,
,,,0.049201600000,   2.96000,
,,,0.049202000000,   3.00000,
,,,0.049202400000,   2.96000,
,,,0.049202800000,   3.00000,
,,,0.049203200000,   2.96000,
,,,0.049203600000,   2.96000,
,,,0.049204000000,   2.96000,
,,,0.049204400000,   2.92000,
,,,0.049204800000,   3.00000,
,,,0.049205200000,   2.96000,
,,,0.049205600000,   3.00000,
,,,0.049206000000,   2.96000,
,,,0.049206400000,   2.96000,
,,,0.049206800000,   2.92000,
,,,0.049207200000,   3.00000,
,,,0.049207600000,   2.96000,
,,,0.049208000000,   3.00000,
,,,0.049208400000,   2.96000,
,,,0.049208800000,   2.96000,
,,,0.049209200000,   3.00000,
,,,0.049209600000,   3.00000,
,,,0.049210000000,   2.96000,
,,,0.049210400000,   2.96000,
,,,0.049210800000,   2.96000,
,,,0.049211200000,   3.00000,
,,,0.049211600000,   3.00000,
,,,0.049212000000,   2.96000,
,,,0.049212400000,   3.00000,
,,,0.049212800000,   2.92000,
,,,0.049213200000,   2.96000,
,,,0.049213600000,   2.96000,
,,,0.049214000000,   2.96000,
,,,0.049214400000,   2.96000,
,,,0.049214800000,   3.04000,
,,,0.049215200000,   2.92000,
,,,0.049215600000,   2.96000,
,,,0.049216000000,   2.96000,
,,,0.049216400000,   3.00000,
,,,0.049216800000,   2.88000,
,,,0.049217200000,   2.92000,
,,,0.049217600000,   2.96000,
,,,0.049218000000,   2.96000,
,,,0.049218400000,   2.96000,
,,,0.049218800000,   2.96000,
,,,0.049219200000,   2.92000,
,,,0.049219600000,   2.92000,
,,,0.049220000000,   2.92000,
,,,0.049220400000,   2.92000,
,,,0.049220800000,   3.00000,
,,,0.049221200000,   3.04000,
,,,0.049221600000,   3.00000,
,,,0.049222000000,   2.92000,
,,,0.049222400000,   2.92000,
,,,0.049222800000,   2.96000,
,,,0.049223200000,   2.96000,
,,,0.049223600000,   3.00000,
,,,0.049224000000,   2.96000,
,,,0.049224400000,   2.96000,
,,,0.049224800000,   3.00000,
,,,0.049225200000,   2.96000,
,,,0.049225600000,   2.92000,
,,,0.049226000000,   2.96000,
,,,0.049226400000,   3.04000,
,,,0.049226800000,   3.00000,
,,,0.049227200000,   3.00000,
,,,0.049227600000,   2.96000,
,,,0.049228000000,   2.96000,
,,,0.049228400000,   3.00000,
,,,0.049228800000,   2.96000,
,,,0.049229200000,   2.96000,
,,,0.049229600000,   3.00000,
,,,0.049230000000,   2.96000,
,,,0.049230400000,   2.96000,
,,,0.049230800000,   2.96000,
,,,0.049231200000,   2.96000,
,,,0.049231600000,   2.96000,
,,,0.049232000000,   2.96000,
,,,0.049232400000,   3.00000,
,,,0.049232800000,   3.00000,
,,,0.049233200000,   3.00000,
,,,0.049233600000,   2.92000,
,,,0.049234000000,   3.00000,
,,,0.049234400000,   2.96000,
,,,0.049234800000,   3.00000,
,,,0.049235200000,   3.00000,
,,,0.049235600000,   2.96000,
,,,0.049236000000,   3.00000,
,,,0.049236400000,   2.96000,
,,,0.049236800000,   2.92000,
,,,0.049237200000,   2.96000,
,,,0.049237600000,   2.96000,
,,,0.049238000000,   2.96000,
,,,0.049238400000,   2.96000,
,,,0.049238800000,   2.96000,
,,,0.049239200000,   2.96000,
,,,0.049239600000,   2.96000,
,,,0.049240000000,   2.96000,
,,,0.049240400000,   3.00000,
,,,0.049240800000,   3.04000,
,,,0.049241200000,   3.04000,
,,,0.049241600000,   2.96000,
,,,0.049242000000,   2.92000,
,,,0.049242400000,   3.00000,
,,,0.049242800000,   3.04000,
,,,0.049243200000,   3.00000,
,,,0.049243600000,   2.96000,
,,,0.049244000000,   2.96000,
,,,0.049244400000,   2.96000,
,,,0.049244800000,   2.96000,
,,,0.049245200000,   3.00000,
,,,0.049245600000,   2.92000,
,,,0.049246000000,   3.00000,
,,,0.049246400000,   2.96000,
,,,0.049246800000,   3.04000,
,,,0.049247200000,   2.92000,
,,,0.049247600000,   3.00000,
,,,0.049248000000,   2.96000,
,,,0.049248400000,   2.92000,
,,,0.049248800000,   3.00000,
,,,0.049249200000,   2.96000,
,,,0.049249600000,   3.00000,
,,,0.049250000000,   2.96000,
,,,0.049250400000,   2.92000,
,,,0.049250800000,   3.00000,
,,,0.049251200000,   2.92000,
,,,0.049251600000,   2.96000,
,,,0.049252000000,   3.00000,
,,,0.049252400000,   2.92000,
,,,0.049252800000,   2.96000,
,,,0.049253200000,   3.00000,
,,,0.049253600000,   2.96000,
,,,0.049254000000,   3.00000,
,,,0.049254400000,   2.96000,
,,,0.049254800000,   2.96000,
,,,0.049255200000,   2.96000,
,,,0.049255600000,   2.96000,
,,,0.049256000000,   2.92000,
,,,0.049256400000,   2.96000,
,,,0.049256800000,   2.96000,
,,,0.049257200000,   2.96000,
,,,0.049257600000,   2.96000,
,,,0.049258000000,   2.96000,
,,,0.049258400000,   2.96000,
,,,0.049258800000,   2.92000,
,,,0.049259200000,   3.00000,
,,,0.049259600000,   2.96000,
,,,0.049260000000,   2.96000,
,,,0.049260400000,   3.00000,
,,,0.049260800000,   3.00000,
,,,0.049261200000,   3.04000,
,,,0.049261600000,   3.00000,
,,,0.049262000000,   2.88000,
,,,0.049262400000,   2.92000,
,,,0.049262800000,   2.96000,
,,,0.049263200000,   3.00000,
,,,0.049263600000,   2.92000,
,,,0.049264000000,   2.96000,
,,,0.049264400000,   2.96000,
,,,0.049264800000,   2.96000,
,,,0.049265200000,   2.92000,
,,,0.049265600000,   2.96000,
,,,0.049266000000,   2.96000,
,,,0.049266400000,   3.00000,
,,,0.049266800000,   3.00000,
,,,0.049267200000,   3.00000,
,,,0.049267600000,   2.96000,
,,,0.049268000000,   3.00000,
,,,0.049268400000,   2.92000,
,,,0.049268800000,   3.00000,
,,,0.049269200000,   3.00000,
,,,0.049269600000,   2.96000,
,,,0.049270000000,   3.00000,
,,,0.049270400000,   3.00000,
,,,0.049270800000,   2.96000,
,,,0.049271200000,   2.92000,
,,,0.049271600000,   2.96000,
,,,0.049272000000,   3.00000,
,,,0.049272400000,   2.96000,
,,,0.049272800000,   2.96000,
,,,0.049273200000,   2.92000,
,,,0.049273600000,   2.96000,
,,,0.049274000000,   3.00000,
,,,0.049274400000,   2.96000,
,,,0.049274800000,   2.96000,
,,,0.049275200000,   3.00000,
,,,0.049275600000,   3.00000,
,,,0.049276000000,   3.00000,
,,,0.049276400000,   2.96000,
,,,0.049276800000,   2.96000,
,,,0.049277200000,   3.00000,
,,,0.049277600000,   2.96000,
,,,0.049278000000,   2.96000,
,,,0.049278400000,   2.96000,
,,,0.049278800000,   2.92000,
,,,0.049279200000,   3.00000,
,,,0.049279600000,   2.92000,
,,,0.049280000000,   3.00000,
,,,0.049280400000,   3.00000,
,,,0.049280800000,   3.00000,
,,,0.049281200000,   3.04000,
,,,0.049281600000,   2.92000,
,,,0.049282000000,   3.00000,
,,,0.049282400000,   3.00000,
,,,0.049282800000,   3.04000,
,,,0.049283200000,   2.96000,
,,,0.049283600000,   2.96000,
,,,0.049284000000,   2.92000,
,,,0.049284400000,   2.92000,
,,,0.049284800000,   3.00000,
,,,0.049285200000,   3.00000,
,,,0.049285600000,   2.96000,
,,,0.049286000000,   2.96000,
,,,0.049286400000,   3.00000,
,,,0.049286800000,   2.92000,
,,,0.049287200000,   3.00000,
,,,0.049287600000,   2.96000,
,,,0.049288000000,   2.96000,
,,,0.049288400000,   3.00000,
,,,0.049288800000,   3.00000,
,,,0.049289200000,   2.96000,
,,,0.049289600000,   2.92000,
,,,0.049290000000,   2.92000,
,,,0.049290400000,   2.96000,
,,,0.049290800000,   2.96000,
,,,0.049291200000,   3.00000,
,,,0.049291600000,   3.00000,
,,,0.049292000000,   3.00000,
,,,0.049292400000,   2.96000,
,,,0.049292800000,   2.96000,
,,,0.049293200000,   2.96000,
,,,0.049293600000,   3.00000,
,,,0.049294000000,   3.00000,
,,,0.049294400000,   2.96000,
,,,0.049294800000,   3.00000,
,,,0.049295200000,   3.00000,
,,,0.049295600000,   2.96000,
,,,0.049296000000,   2.88000,
,,,0.049296400000,   2.96000,
,,,0.049296800000,   2.96000,
,,,0.049297200000,   2.96000,
,,,0.049297600000,   2.96000,
,,,0.049298000000,   2.92000,
,,,0.049298400000,   3.00000,
,,,0.049298800000,   2.92000,
,,,0.049299200000,   2.96000,
,,,0.049299600000,   2.96000,
,,,0.049300000000,   2.96000,
,,,0.049300400000,   2.96000,
,,,0.049300800000,   3.00000,
,,,0.049301200000,   2.96000,
,,,0.049301600000,   2.96000,
,,,0.049302000000,   2.96000,
,,,0.049302400000,   2.96000,
,,,0.049302800000,   2.96000,
,,,0.049303200000,   2.92000,
,,,0.049303600000,   3.00000,
,,,0.049304000000,   2.92000,
,,,0.049304400000,   2.96000,
,,,0.049304800000,   2.96000,
,,,0.049305200000,   2.92000,
,,,0.049305600000,   2.96000,
,,,0.049306000000,   3.00000,
,,,0.049306400000,   3.00000,
,,,0.049306800000,   2.96000,
,,,0.049307200000,   2.96000,
,,,0.049307600000,   3.00000,
,,,0.049308000000,   2.92000,
,,,0.049308400000,   3.00000,
,,,0.049308800000,   3.00000,
,,,0.049309200000,   2.96000,
,,,0.049309600000,   2.96000,
,,,0.049310000000,   3.00000,
,,,0.049310400000,   3.00000,
,,,0.049310800000,   3.00000,
,,,0.049311200000,   2.92000,
,,,0.049311600000,   2.96000,
,,,0.049312000000,   2.96000,
,,,0.049312400000,   2.96000,
,,,0.049312800000,   2.92000,
,,,0.049313200000,   3.00000,
,,,0.049313600000,   3.00000,
,,,0.049314000000,   3.00000,
,,,0.049314400000,   2.96000,
,,,0.049314800000,   3.00000,
,,,0.049315200000,   2.96000,
,,,0.049315600000,   3.00000,
,,,0.049316000000,   3.00000,
,,,0.049316400000,   2.92000,
,,,0.049316800000,   3.00000,
,,,0.049317200000,   3.00000,
,,,0.049317600000,   2.92000,
,,,0.049318000000,   3.00000,
,,,0.049318400000,   2.96000,
,,,0.049318800000,   2.96000,
,,,0.049319200000,   2.96000,
,,,0.049319600000,   2.96000,
,,,0.049320000000,   3.04000,
,,,0.049320400000,   3.04000,
,,,0.049320800000,   3.00000,
,,,0.049321200000,   2.96000,
,,,0.049321600000,   3.00000,
,,,0.049322000000,   2.96000,
,,,0.049322400000,   3.00000,
,,,0.049322800000,   2.96000,
,,,0.049323200000,   3.00000,
,,,0.049323600000,   2.96000,
,,,0.049324000000,   2.96000,
,,,0.049324400000,   3.00000,
,,,0.049324800000,   2.92000,
,,,0.049325200000,   2.96000,
,,,0.049325600000,   2.96000,
,,,0.049326000000,   3.00000,
,,,0.049326400000,   2.96000,
,,,0.049326800000,   3.00000,
,,,0.049327200000,   2.96000,
,,,0.049327600000,   3.00000,
,,,0.049328000000,   2.96000,
,,,0.049328400000,   2.96000,
,,,0.049328800000,   3.00000,
,,,0.049329200000,   2.92000,
,,,0.049329600000,   3.00000,
,,,0.049330000000,   2.96000,
,,,0.049330400000,   2.96000,
,,,0.049330800000,   3.00000,
,,,0.049331200000,   3.00000,
,,,0.049331600000,   2.96000,
,,,0.049332000000,   3.00000,
,,,0.049332400000,   2.96000,
,,,0.049332800000,   2.96000,
,,,0.049333200000,   3.00000,
,,,0.049333600000,   3.00000,
,,,0.049334000000,   2.96000,
,,,0.049334400000,   2.96000,
,,,0.049334800000,   3.00000,
,,,0.049335200000,   2.96000,
,,,0.049335600000,   2.96000,
,,,0.049336000000,   3.00000,
,,,0.049336400000,   2.92000,
,,,0.049336800000,   3.00000,
,,,0.049337200000,   2.96000,
,,,0.049337600000,   2.92000,
,,,0.049338000000,   2.96000,
,,,0.049338400000,   2.96000,
,,,0.049338800000,   3.00000,
,,,0.049339200000,   3.00000,
,,,0.049339600000,   2.96000,
,,,0.049340000000,   3.00000,
,,,0.049340400000,   3.00000,
,,,0.049340800000,   3.00000,
,,,0.049341200000,   2.92000,
,,,0.049341600000,   2.92000,
,,,0.049342000000,   3.00000,
,,,0.049342400000,   3.00000,
,,,0.049342800000,   2.92000,
,,,0.049343200000,   3.00000,
,,,0.049343600000,   2.96000,
,,,0.049344000000,   2.96000,
,,,0.049344400000,   2.96000,
,,,0.049344800000,   2.96000,
,,,0.049345200000,   2.92000,
,,,0.049345600000,   3.00000,
,,,0.049346000000,   2.96000,
,,,0.049346400000,   3.00000,
,,,0.049346800000,   2.96000,
,,,0.049347200000,   2.96000,
,,,0.049347600000,   2.96000,
,,,0.049348000000,   2.96000,
,,,0.049348400000,   3.00000,
,,,0.049348800000,   2.96000,
,,,0.049349200000,   2.96000,
,,,0.049349600000,   2.92000,
,,,0.049350000000,   3.00000,
,,,0.049350400000,   2.96000,
,,,0.049350800000,   2.96000,
,,,0.049351200000,   2.96000,
,,,0.049351600000,   3.00000,
,,,0.049352000000,   2.96000,
,,,0.049352400000,   2.88000,
,,,0.049352800000,   2.96000,
,,,0.049353200000,   2.96000,
,,,0.049353600000,   2.96000,
,,,0.049354000000,   2.92000,
,,,0.049354400000,   2.96000,
,,,0.049354800000,   3.00000,
,,,0.049355200000,   2.96000,
,,,0.049355600000,   3.00000,
,,,0.049356000000,   2.92000,
,,,0.049356400000,   3.04000,
,,,0.049356800000,   2.96000,
,,,0.049357200000,   2.96000,
,,,0.049357600000,   2.96000,
,,,0.049358000000,   2.96000,
,,,0.049358400000,   2.96000,
,,,0.049358800000,   2.96000,
,,,0.049359200000,   2.96000,
,,,0.049359600000,   3.00000,
,,,0.049360000000,   3.00000,
,,,0.049360400000,   3.00000,
,,,0.049360800000,   2.92000,
,,,0.049361200000,   2.96000,
,,,0.049361600000,   3.00000,
,,,0.049362000000,   3.00000,
,,,0.049362400000,   2.96000,
,,,0.049362800000,   2.96000,
,,,0.049363200000,   2.96000,
,,,0.049363600000,   2.96000,
,,,0.049364000000,   3.04000,
,,,0.049364400000,   2.92000,
,,,0.049364800000,   2.96000,
,,,0.049365200000,   2.96000,
,,,0.049365600000,   3.00000,
,,,0.049366000000,   2.92000,
,,,0.049366400000,   3.00000,
,,,0.049366800000,   2.92000,
,,,0.049367200000,   3.00000,
,,,0.049367600000,   3.00000,
,,,0.049368000000,   2.96000,
,,,0.049368400000,   3.00000,
,,,0.049368800000,   2.92000,
,,,0.049369200000,   2.96000,
,,,0.049369600000,   3.00000,
,,,0.049370000000,   2.92000,
,,,0.049370400000,   2.96000,
,,,0.049370800000,   2.96000,
,,,0.049371200000,   2.96000,
,,,0.049371600000,   2.96000,
,,,0.049372000000,   2.96000,
,,,0.049372400000,   2.96000,
,,,0.049372800000,   3.00000,
,,,0.049373200000,   3.00000,
,,,0.049373600000,   2.92000,
,,,0.049374000000,   3.00000,
,,,0.049374400000,   2.96000,
,,,0.049374800000,   2.92000,
,,,0.049375200000,   2.92000,
,,,0.049375600000,   2.96000,
,,,0.049376000000,   2.88000,
,,,0.049376400000,   3.00000,
,,,0.049376800000,   2.96000,
,,,0.049377200000,   2.96000,
,,,0.049377600000,   2.96000,
,,,0.049378000000,   2.92000,
,,,0.049378400000,   2.96000,
,,,0.049378800000,   2.96000,
,,,0.049379200000,   2.96000,
,,,0.049379600000,   2.96000,
,,,0.049380000000,   3.00000,
,,,0.049380400000,   2.92000,
,,,0.049380800000,   2.92000,
,,,0.049381200000,   2.92000,
,,,0.049381600000,   2.96000,
,,,0.049382000000,   3.00000,
,,,0.049382400000,   2.96000,
,,,0.049382800000,   2.96000,
,,,0.049383200000,   2.96000,
,,,0.049383600000,   3.00000,
,,,0.049384000000,   2.92000,
,,,0.049384400000,   2.96000,
,,,0.049384800000,   3.00000,
,,,0.049385200000,   2.96000,
,,,0.049385600000,   2.96000,
,,,0.049386000000,   3.00000,
,,,0.049386400000,   2.96000,
,,,0.049386800000,   2.96000,
,,,0.049387200000,   2.96000,
,,,0.049387600000,   3.00000,
,,,0.049388000000,   3.00000,
,,,0.049388400000,   3.04000,
,,,0.049388800000,   2.96000,
,,,0.049389200000,   3.00000,
,,,0.049389600000,   2.96000,
,,,0.049390000000,   2.96000,
,,,0.049390400000,   2.88000,
,,,0.049390800000,   3.00000,
,,,0.049391200000,   3.00000,
,,,0.049391600000,   2.96000,
,,,0.049392000000,   2.96000,
,,,0.049392400000,   2.96000,
,,,0.049392800000,   3.00000,
,,,0.049393200000,   3.00000,
,,,0.049393600000,   2.96000,
,,,0.049394000000,   2.96000,
,,,0.049394400000,   3.00000,
,,,0.049394800000,   3.00000,
,,,0.049395200000,   2.96000,
,,,0.049395600000,   2.96000,
,,,0.049396000000,   3.00000,
,,,0.049396400000,   2.96000,
,,,0.049396800000,   2.96000,
,,,0.049397200000,   2.96000,
,,,0.049397600000,   2.92000,
,,,0.049398000000,   3.00000,
,,,0.049398400000,   2.96000,
,,,0.049398800000,   2.96000,
,,,0.049399200000,   3.04000,
,,,0.049399600000,   3.00000,
,,,0.049400000000,   3.00000,
,,,0.049400400000,   2.96000,
,,,0.049400800000,   3.00000,
,,,0.049401200000,   2.96000,
,,,0.049401600000,   2.96000,
,,,0.049402000000,   2.96000,
,,,0.049402400000,   2.96000,
,,,0.049402800000,   3.00000,
,,,0.049403200000,   2.96000,
,,,0.049403600000,   3.04000,
,,,0.049404000000,   2.96000,
,,,0.049404400000,   3.00000,
,,,0.049404800000,   2.92000,
,,,0.049405200000,   3.00000,
,,,0.049405600000,   2.96000,
,,,0.049406000000,   3.00000,
,,,0.049406400000,   2.96000,
,,,0.049406800000,   2.96000,
,,,0.049407200000,   3.00000,
,,,0.049407600000,   2.92000,
,,,0.049408000000,   2.96000,
,,,0.049408400000,   2.96000,
,,,0.049408800000,   2.96000,
,,,0.049409200000,   2.96000,
,,,0.049409600000,   2.96000,
,,,0.049410000000,   2.96000,
,,,0.049410400000,   3.00000,
,,,0.049410800000,   2.96000,
,,,0.049411200000,   2.96000,
,,,0.049411600000,   2.92000,
,,,0.049412000000,   2.92000,
,,,0.049412400000,   3.00000,
,,,0.049412800000,   3.00000,
,,,0.049413200000,   2.96000,
,,,0.049413600000,   2.92000,
,,,0.049414000000,   2.96000,
,,,0.049414400000,   2.96000,
,,,0.049414800000,   2.96000,
,,,0.049415200000,   2.96000,
,,,0.049415600000,   2.92000,
,,,0.049416000000,   2.96000,
,,,0.049416400000,   2.92000,
,,,0.049416800000,   2.96000,
,,,0.049417200000,   3.00000,
,,,0.049417600000,   3.00000,
,,,0.049418000000,   2.96000,
,,,0.049418400000,   2.96000,
,,,0.049418800000,   3.00000,
,,,0.049419200000,   3.04000,
,,,0.049419600000,   3.00000,
,,,0.049420000000,   2.92000,
,,,0.049420400000,   2.96000,
,,,0.049420800000,   2.96000,
,,,0.049421200000,   2.96000,
,,,0.049421600000,   3.00000,
,,,0.049422000000,   2.96000,
,,,0.049422400000,   3.00000,
,,,0.049422800000,   2.96000,
,,,0.049423200000,   3.00000,
,,,0.049423600000,   2.96000,
,,,0.049424000000,   2.96000,
,,,0.049424400000,   3.00000,
,,,0.049424800000,   2.96000,
,,,0.049425200000,   2.96000,
,,,0.049425600000,   3.04000,
,,,0.049426000000,   2.96000,
,,,0.049426400000,   3.00000,
,,,0.049426800000,   2.96000,
,,,0.049427200000,   2.96000,
,,,0.049427600000,   3.00000,
,,,0.049428000000,   3.04000,
,,,0.049428400000,   2.96000,
,,,0.049428800000,   3.00000,
,,,0.049429200000,   2.96000,
,,,0.049429600000,   2.96000,
,,,0.049430000000,   2.92000,
,,,0.049430400000,   3.00000,
,,,0.049430800000,   2.96000,
,,,0.049431200000,   2.92000,
,,,0.049431600000,   2.96000,
,,,0.049432000000,   2.96000,
,,,0.049432400000,   3.00000,
,,,0.049432800000,   3.00000,
,,,0.049433200000,   2.96000,
,,,0.049433600000,   2.96000,
,,,0.049434000000,   3.00000,
,,,0.049434400000,   3.00000,
,,,0.049434800000,   3.00000,
,,,0.049435200000,   2.96000,
,,,0.049435600000,   3.04000,
,,,0.049436000000,   2.92000,
,,,0.049436400000,   2.96000,
,,,0.049436800000,   2.96000,
,,,0.049437200000,   2.96000,
,,,0.049437600000,   3.00000,
,,,0.049438000000,   2.96000,
,,,0.049438400000,   2.96000,
,,,0.049438800000,   3.04000,
,,,0.049439200000,   2.96000,
,,,0.049439600000,   3.00000,
,,,0.049440000000,   2.92000,
,,,0.049440400000,   2.96000,
,,,0.049440800000,   2.96000,
,,,0.049441200000,   2.96000,
,,,0.049441600000,   2.96000,
,,,0.049442000000,   2.96000,
,,,0.049442400000,   2.96000,
,,,0.049442800000,   2.96000,
,,,0.049443200000,   2.96000,
,,,0.049443600000,   2.96000,
,,,0.049444000000,   2.96000,
,,,0.049444400000,   2.92000,
,,,0.049444800000,   3.00000,
,,,0.049445200000,   2.96000,
,,,0.049445600000,   2.96000,
,,,0.049446000000,   2.96000,
,,,0.049446400000,   2.96000,
,,,0.049446800000,   2.96000,
,,,0.049447200000,   3.00000,
,,,0.049447600000,   3.00000,
,,,0.049448000000,   2.88000,
,,,0.049448400000,   2.96000,
,,,0.049448800000,   3.00000,
,,,0.049449200000,   2.96000,
,,,0.049449600000,   2.96000,
,,,0.049450000000,   2.96000,
,,,0.049450400000,   2.92000,
,,,0.049450800000,   3.00000,
,,,0.049451200000,   2.92000,
,,,0.049451600000,   2.96000,
,,,0.049452000000,   3.04000,
,,,0.049452400000,   3.00000,
,,,0.049452800000,   2.96000,
,,,0.049453200000,   2.96000,
,,,0.049453600000,   3.04000,
,,,0.049454000000,   2.96000,
,,,0.049454400000,   2.88000,
,,,0.049454800000,   3.00000,
,,,0.049455200000,   2.96000,
,,,0.049455600000,   3.00000,
,,,0.049456000000,   2.96000,
,,,0.049456400000,   2.96000,
,,,0.049456800000,   3.00000,
,,,0.049457200000,   2.96000,
,,,0.049457600000,   3.00000,
,,,0.049458000000,   3.00000,
,,,0.049458400000,   2.96000,
,,,0.049458800000,   3.00000,
,,,0.049459200000,   2.96000,
,,,0.049459600000,   2.96000,
,,,0.049460000000,   2.92000,
,,,0.049460400000,   2.92000,
,,,0.049460800000,   3.00000,
,,,0.049461200000,   2.96000,
,,,0.049461600000,   2.92000,
,,,0.049462000000,   3.00000,
,,,0.049462400000,   3.00000,
,,,0.049462800000,   2.96000,
,,,0.049463200000,   2.96000,
,,,0.049463600000,   2.92000,
,,,0.049464000000,   3.00000,
,,,0.049464400000,   3.00000,
,,,0.049464800000,   3.00000,
,,,0.049465200000,   3.00000,
,,,0.049465600000,   2.96000,
,,,0.049466000000,   2.96000,
,,,0.049466400000,   2.96000,
,,,0.049466800000,   2.96000,
,,,0.049467200000,   3.00000,
,,,0.049467600000,   3.04000,
,,,0.049468000000,   3.00000,
,,,0.049468400000,   3.00000,
,,,0.049468800000,   2.96000,
,,,0.049469200000,   2.92000,
,,,0.049469600000,   2.96000,
,,,0.049470000000,   3.00000,
,,,0.049470400000,   3.00000,
,,,0.049470800000,   2.92000,
,,,0.049471200000,   2.96000,
,,,0.049471600000,   2.96000,
,,,0.049472000000,   3.00000,
,,,0.049472400000,   3.00000,
,,,0.049472800000,   2.96000,
,,,0.049473200000,   2.92000,
,,,0.049473600000,   2.96000,
,,,0.049474000000,   3.00000,
,,,0.049474400000,   3.00000,
,,,0.049474800000,   2.92000,
,,,0.049475200000,   2.96000,
,,,0.049475600000,   3.00000,
,,,0.049476000000,   3.00000,
,,,0.049476400000,   2.96000,
,,,0.049476800000,   2.92000,
,,,0.049477200000,   3.04000,
,,,0.049477600000,   2.96000,
,,,0.049478000000,   2.96000,
,,,0.049478400000,   3.00000,
,,,0.049478800000,   3.00000,
,,,0.049479200000,   2.96000,
,,,0.049479600000,   2.96000,
,,,0.049480000000,   2.96000,
,,,0.049480400000,   3.00000,
,,,0.049480800000,   3.00000,
,,,0.049481200000,   2.96000,
,,,0.049481600000,   2.96000,
,,,0.049482000000,   2.96000,
,,,0.049482400000,   2.96000,
,,,0.049482800000,   3.00000,
,,,0.049483200000,   2.96000,
,,,0.049483600000,   3.00000,
,,,0.049484000000,   2.96000,
,,,0.049484400000,   3.00000,
,,,0.049484800000,   2.96000,
,,,0.049485200000,   3.00000,
,,,0.049485600000,   2.96000,
,,,0.049486000000,   3.00000,
,,,0.049486400000,   2.96000,
,,,0.049486800000,   2.96000,
,,,0.049487200000,   3.00000,
,,,0.049487600000,   2.88000,
,,,0.049488000000,   2.96000,
,,,0.049488400000,   3.00000,
,,,0.049488800000,   2.96000,
,,,0.049489200000,   2.96000,
,,,0.049489600000,   3.00000,
,,,0.049490000000,   2.96000,
,,,0.049490400000,   2.96000,
,,,0.049490800000,   2.96000,
,,,0.049491200000,   3.00000,
,,,0.049491600000,   3.00000,
,,,0.049492000000,   3.00000,
,,,0.049492400000,   3.00000,
,,,0.049492800000,   2.96000,
,,,0.049493200000,   2.96000,
,,,0.049493600000,   2.96000,
,,,0.049494000000,   2.96000,
,,,0.049494400000,   2.96000,
,,,0.049494800000,   2.92000,
,,,0.049495200000,   3.00000,
,,,0.049495600000,   2.96000,
,,,0.049496000000,   2.92000,
,,,0.049496400000,   2.96000,
,,,0.049496800000,   2.92000,
,,,0.049497200000,   2.96000,
,,,0.049497600000,   2.92000,
,,,0.049498000000,   2.96000,
,,,0.049498400000,   3.00000,
,,,0.049498800000,   2.96000,
,,,0.049499200000,   2.96000,
,,,0.049499600000,   2.88000,
