Record Length,2.500000e+03,,   0.047750000000,   0.04000,
Sample Interval,1.000000e-06,,   0.047751000000,   0.04000,
Trigger Point,-4.775000000000e+04,,   0.047752000000,   0.04000,
,,,   0.047753000000,   0.04000,
,,,   0.047754000000,   0.04000,
,,,   0.047755000000,   0.04000,
Source,CH1,,   0.047756000000,   0.04000,
Vertical Units,V,,   0.047757000000,   0.04000,
Vertical Scale,1.000000e+00,,   0.047758000000,   0.04000,
Vertical Offset,5.200000e-01,,   0.047759000000,   0.04000,
Horizontal Units,s,,   0.047760000000,   0.04000,
Horizontal Scale,2.500000e-04,,   0.047761000000,   0.04000,
Pt Fmt,Y,,   0.047762000000,   0.04000,
Yzero,0.000000e+00,,   0.047763000000,   0.04000,
Probe Atten,1.000000e+00,,   0.047764000000,   0.08000,
Model Number,TDS1012B,,   0.047765000000,   0.04000,
Serial Number,C050145,,   0.047766000000,   0.04000,
Firmware Version,FV:v22.16,,   0.047767000000,   0.04000,
,,,0.047768000000,   0.08000,
,,,0.047769000000,   0.04000,
,,,0.047770000000,   0.04000,
,,,0.047771000000,   0.04000,
,,,0.047772000000,   0.04000,
,,,0.047773000000,   0.04000,
,,,0.047774000000,   0.04000,
,,,0.047775000000,   0.04000,
,,,0.047776000000,   0.04000,
,,,0.047777000000,   0.04000,
,,,0.047778000000,   0.04000,
,,,0.047779000000,   0.04000,
,,,0.047780000000,   0.04000,
,,,0.047781000000,   0.04000,
,,,0.047782000000,   0.04000,
,,,0.047783000000,   0.04000,
,,,0.047784000000,   0.04000,
,,,0.047785000000,   0.04000,
,,,0.047786000000,   0.04000,
,,,0.047787000000,   0.04000,
,,,0.047788000000,   0.04000,
,,,0.047789000000,   0.04000,
,,,0.047790000000,   0.04000,
,,,0.047791000000,   0.04000,
,,,0.047792000000,   0.04000,
,,,0.047793000000,   0.04000,
,,,0.047794000000,   0.04000,
,,,0.047795000000,   0.04000,
,,,0.047796000000,   0.04000,
,,,0.047797000000,   0.04000,
,,,0.047798000000,   0.00000,
,,,0.047799000000,   0.04000,
,,,0.047800000000,   0.04000,
,,,0.047801000000,   0.04000,
,,,0.047802000000,   0.08000,
,,,0.047803000000,   0.04000,
,,,0.047804000000,   0.04000,
,,,0.047805000000,   0.04000,
,,,0.047806000000,   0.04000,
,,,0.047807000000,   0.04000,
,,,0.047808000000,   0.04000,
,,,0.047809000000,   0.04000,
,,,0.047810000000,   0.04000,
,,,0.047811000000,   0.04000,
,,,0.047812000000,   0.04000,
,,,0.047813000000,   0.04000,
,,,0.047814000000,   0.04000,
,,,0.047815000000,   0.04000,
,,,0.047816000000,   0.04000,
,,,0.047817000000,   0.04000,
,,,0.047818000000,   0.04000,
,,,0.047819000000,   0.04000,
,,,0.047820000000,   0.04000,
,,,0.047821000000,   0.04000,
,,,0.047822000000,   0.04000,
,,,0.047823000000,   0.04000,
,,,0.047824000000,   0.04000,
,,,0.047825000000,   0.04000,
,,,0.047826000000,   0.04000,
,,,0.047827000000,   0.04000,
,,,0.047828000000,   0.04000,
,,,0.047829000000,   0.04000,
,,,0.047830000000,   0.04000,
,,,0.047831000000,   0.04000,
,,,0.047832000000,   0.00000,
,,,0.047833000000,   0.04000,
,,,0.047834000000,   0.04000,
,,,0.047835000000,   0.04000,
,,,0.047836000000,   0.04000,
,,,0.047837000000,   0.04000,
,,,0.047838000000,   0.08000,
,,,0.047839000000,   0.04000,
,,,0.047840000000,   0.04000,
,,,0.047841000000,   0.04000,
,,,0.047842000000,   0.04000,
,,,0.047843000000,   0.08000,
,,,0.047844000000,   0.04000,
,,,0.047845000000,   0.04000,
,,,0.047846000000,   0.04000,
,,,0.047847000000,   0.00000,
,,,0.047848000000,   0.04000,
,,,0.047849000000,   0.04000,
,,,0.047850000000,   0.04000,
,,,0.047851000000,   0.04000,
,,,0.047852000000,   0.04000,
,,,0.047853000000,   0.00000,
,,,0.047854000000,   0.04000,
,,,0.047855000000,   0.04000,
,,,0.047856000000,   0.08000,
,,,0.047857000000,   0.04000,
,,,0.047858000000,   0.04000,
,,,0.047859000000,   0.04000,
,,,0.047860000000,   0.04000,
,,,0.047861000000,   0.04000,
,,,0.047862000000,   0.04000,
,,,0.047863000000,   0.04000,
,,,0.047864000000,   0.04000,
,,,0.047865000000,   0.04000,
,,,0.047866000000,   0.04000,
,,,0.047867000000,   0.04000,
,,,0.047868000000,   0.04000,
,,,0.047869000000,   0.04000,
,,,0.047870000000,   0.04000,
,,,0.047871000000,   0.04000,
,,,0.047872000000,   0.04000,
,,,0.047873000000,   0.04000,
,,,0.047874000000,   0.04000,
,,,0.047875000000,   0.04000,
,,,0.047876000000,   0.04000,
,,,0.047877000000,   0.04000,
,,,0.047878000000,   0.04000,
,,,0.047879000000,   0.04000,
,,,0.047880000000,   0.04000,
,,,0.047881000000,   0.04000,
,,,0.047882000000,   0.04000,
,,,0.047883000000,   0.04000,
,,,0.047884000000,   0.04000,
,,,0.047885000000,   0.04000,
,,,0.047886000000,   0.04000,
,,,0.047887000000,   0.04000,
,,,0.047888000000,   0.04000,
,,,0.047889000000,   0.04000,
,,,0.047890000000,   0.04000,
,,,0.047891000000,   0.04000,
,,,0.047892000000,   0.04000,
,,,0.047893000000,   0.04000,
,,,0.047894000000,   0.04000,
,,,0.047895000000,   0.04000,
,,,0.047896000000,   0.04000,
,,,0.047897000000,   0.04000,
,,,0.047898000000,   0.04000,
,,,0.047899000000,   0.04000,
,,,0.047900000000,   0.04000,
,,,0.047901000000,   0.04000,
,,,0.047902000000,   0.04000,
,,,0.047903000000,   0.04000,
,,,0.047904000000,   0.04000,
,,,0.047905000000,   0.04000,
,,,0.047906000000,   0.04000,
,,,0.047907000000,   0.08000,
,,,0.047908000000,   0.04000,
,,,0.047909000000,   0.04000,
,,,0.047910000000,   0.04000,
,,,0.047911000000,   0.04000,
,,,0.047912000000,   0.04000,
,,,0.047913000000,   0.04000,
,,,0.047914000000,   0.00000,
,,,0.047915000000,   0.04000,
,,,0.047916000000,   0.04000,
,,,0.047917000000,   0.04000,
,,,0.047918000000,   0.04000,
,,,0.047919000000,   0.04000,
,,,0.047920000000,   0.04000,
,,,0.047921000000,   0.00000,
,,,0.047922000000,   0.04000,
,,,0.047923000000,   0.04000,
,,,0.047924000000,   0.04000,
,,,0.047925000000,   0.04000,
,,,0.047926000000,   0.04000,
,,,0.047927000000,   0.04000,
,,,0.047928000000,   0.04000,
,,,0.047929000000,   0.04000,
,,,0.047930000000,   0.04000,
,,,0.047931000000,   0.04000,
,,,0.047932000000,   0.04000,
,,,0.047933000000,   0.04000,
,,,0.047934000000,   0.04000,
,,,0.047935000000,   0.04000,
,,,0.047936000000,   0.04000,
,,,0.047937000000,   0.04000,
,,,0.047938000000,   0.04000,
,,,0.047939000000,   0.04000,
,,,0.047940000000,   0.04000,
,,,0.047941000000,   0.04000,
,,,0.047942000000,   0.04000,
,,,0.047943000000,   0.04000,
,,,0.047944000000,   0.04000,
,,,0.047945000000,   0.04000,
,,,0.047946000000,   0.04000,
,,,0.047947000000,   0.04000,
,,,0.047948000000,   0.04000,
,,,0.047949000000,   0.04000,
,,,0.047950000000,   0.04000,
,,,0.047951000000,   0.04000,
,,,0.047952000000,   0.04000,
,,,0.047953000000,   0.04000,
,,,0.047954000000,   0.04000,
,,,0.047955000000,   0.04000,
,,,0.047956000000,   0.04000,
,,,0.047957000000,   0.04000,
,,,0.047958000000,   0.04000,
,,,0.047959000000,   0.04000,
,,,0.047960000000,   0.04000,
,,,0.047961000000,   0.08000,
,,,0.047962000000,   0.04000,
,,,0.047963000000,   0.04000,
,,,0.047964000000,   0.04000,
,,,0.047965000000,   0.00000,
,,,0.047966000000,   0.04000,
,,,0.047967000000,   0.04000,
,,,0.047968000000,   0.04000,
,,,0.047969000000,   0.04000,
,,,0.047970000000,   0.04000,
,,,0.047971000000,   0.04000,
,,,0.047972000000,   0.04000,
,,,0.047973000000,   0.04000,
,,,0.047974000000,   0.04000,
,,,0.047975000000,   0.04000,
,,,0.047976000000,   0.04000,
,,,0.047977000000,   0.04000,
,,,0.047978000000,   0.04000,
,,,0.047979000000,   0.04000,
,,,0.047980000000,   0.04000,
,,,0.047981000000,   0.04000,
,,,0.047982000000,   0.04000,
,,,0.047983000000,   0.04000,
,,,0.047984000000,   0.04000,
,,,0.047985000000,   0.04000,
,,,0.047986000000,   0.04000,
,,,0.047987000000,   0.04000,
,,,0.047988000000,   0.04000,
,,,0.047989000000,   0.04000,
,,,0.047990000000,   0.04000,
,,,0.047991000000,   0.04000,
,,,0.047992000000,   0.04000,
,,,0.047993000000,   0.04000,
,,,0.047994000000,   0.00000,
,,,0.047995000000,   0.04000,
,,,0.047996000000,   0.04000,
,,,0.047997000000,   0.08000,
,,,0.047998000000,   0.04000,
,,,0.047999000000,   0.04000,
,,,0.048000000000,   3.00000,
,,,0.048001000000,   0.04000,
,,,0.048002000000,   0.04000,
,,,0.048003000000,   0.04000,
,,,0.048004000000,   0.04000,
,,,0.048005000000,   0.04000,
,,,0.048006000000,   0.08000,
,,,0.048007000000,   0.04000,
,,,0.048008000000,   0.04000,
,,,0.048009000000,   0.04000,
,,,0.048010000000,   0.04000,
,,,0.048011000000,   0.00000,
,,,0.048012000000,   0.04000,
,,,0.048013000000,   0.04000,
,,,0.048014000000,   0.04000,
,,,0.048015000000,   0.08000,
,,,0.048016000000,   0.04000,
,,,0.048017000000,   0.04000,
,,,0.048018000000,   0.04000,
,,,0.048019000000,   0.04000,
,,,0.048020000000,   0.04000,
,,,0.048021000000,   0.04000,
,,,0.048022000000,   0.04000,
,,,0.048023000000,   0.04000,
,,,0.048024000000,   0.04000,
,,,0.048025000000,   0.08000,
,,,0.048026000000,   0.04000,
,,,0.048027000000,   0.04000,
,,,0.048028000000,   0.04000,
,,,0.048029000000,   0.08000,
,,,0.048030000000,   0.04000,
,,,0.048031000000,   0.04000,
,,,0.048032000000,   0.04000,
,,,0.048033000000,   0.04000,
,,,0.048034000000,   0.04000,
,,,0.048035000000,   0.04000,
,,,0.048036000000,   0.04000,
,,,0.048037000000,   0.04000,
,,,0.048038000000,   0.04000,
,,,0.048039000000,   0.04000,
,,,0.048040000000,   0.04000,
,,,0.048041000000,   0.04000,
,,,0.048042000000,   0.04000,
,,,0.048043000000,   0.04000,
,,,0.048044000000,   0.04000,
,,,0.048045000000,   0.04000,
,,,0.048046000000,   0.04000,
,,,0.048047000000,   0.04000,
,,,0.048048000000,   0.04000,
,,,0.048049000000,   0.08000,
,,,0.048050000000,   0.04000,
,,,0.048051000000,   0.04000,
,,,0.048052000000,   0.08000,
,,,0.048053000000,   0.04000,
,,,0.048054000000,   0.04000,
,,,0.048055000000,   0.04000,
,,,0.048056000000,   0.04000,
,,,0.048057000000,   0.08000,
,,,0.048058000000,   0.04000,
,,,0.048059000000,   0.04000,
,,,0.048060000000,   0.04000,
,,,0.048061000000,   0.04000,
,,,0.048062000000,   0.04000,
,,,0.048063000000,   0.04000,
,,,0.048064000000,   0.04000,
,,,0.048065000000,   0.04000,
,,,0.048066000000,   0.04000,
,,,0.048067000000,   0.04000,
,,,0.048068000000,   0.04000,
,,,0.048069000000,   0.04000,
,,,0.048070000000,   0.04000,
,,,0.048071000000,   0.04000,
,,,0.048072000000,   0.04000,
,,,0.048073000000,   0.04000,
,,,0.048074000000,   0.04000,
,,,0.048075000000,   0.04000,
,,,0.048076000000,   0.04000,
,,,0.048077000000,   0.04000,
,,,0.048078000000,   0.04000,
,,,0.048079000000,   0.04000,
,,,0.048080000000,   0.08000,
,,,0.048081000000,   0.04000,
,,,0.048082000000,   0.04000,
,,,0.048083000000,   0.04000,
,,,0.048084000000,   0.04000,
,,,0.048085000000,   0.04000,
,,,0.048086000000,   0.04000,
,,,0.048087000000,   0.08000,
,,,0.048088000000,   0.04000,
,,,0.048089000000,   0.04000,
,,,0.048090000000,   0.04000,
,,,0.048091000000,   0.04000,
,,,0.048092000000,   0.04000,
,,,0.048093000000,   0.04000,
,,,0.048094000000,   0.04000,
,,,0.048095000000,   0.04000,
,,,0.048096000000,   0.04000,
,,,0.048097000000,   0.04000,
,,,0.048098000000,   0.04000,
,,,0.048099000000,   0.04000,
,,,0.048100000000,   0.04000,
,,,0.048101000000,   0.04000,
,,,0.048102000000,   0.08000,
,,,0.048103000000,   0.08000,
,,,0.048104000000,   0.08000,
,,,0.048105000000,   0.04000,
,,,0.048106000000,   0.08000,
,,,0.048107000000,   0.04000,
,,,0.048108000000,   0.04000,
,,,0.048109000000,   0.04000,
,,,0.048110000000,   0.04000,
,,,0.048111000000,   0.04000,
,,,0.048112000000,   0.04000,
,,,0.048113000000,   0.04000,
,,,0.048114000000,   0.08000,
,,,0.048115000000,   0.04000,
,,,0.048116000000,   0.04000,
,,,0.048117000000,   0.04000,
,,,0.048118000000,   0.04000,
,,,0.048119000000,   0.04000,
,,,0.048120000000,   0.04000,
,,,0.048121000000,   0.08000,
,,,0.048122000000,   0.04000,
,,,0.048123000000,   0.04000,
,,,0.048124000000,   0.04000,
,,,0.048125000000,   0.08000,
,,,0.048126000000,   0.04000,
,,,0.048127000000,   0.04000,
,,,0.048128000000,   0.08000,
,,,0.048129000000,   0.04000,
,,,0.048130000000,   0.04000,
,,,0.048131000000,   0.04000,
,,,0.048132000000,   0.04000,
,,,0.048133000000,   0.04000,
,,,0.048134000000,   0.04000,
,,,0.048135000000,   0.04000,
,,,0.048136000000,   0.04000,
,,,0.048137000000,   0.04000,
,,,0.048138000000,   0.04000,
,,,0.048139000000,   0.04000,
,,,0.048140000000,   0.04000,
,,,0.048141000000,   0.04000,
,,,0.048142000000,   0.04000,
,,,0.048143000000,   0.04000,
,,,0.048144000000,   0.04000,
,,,0.048145000000,   0.08000,
,,,0.048146000000,   0.04000,
,,,0.048147000000,   0.04000,
,,,0.048148000000,   0.04000,
,,,0.048149000000,   0.04000,
,,,0.048150000000,   0.04000,
,,,0.048151000000,   0.08000,
,,,0.048152000000,   0.04000,
,,,0.048153000000,   0.04000,
,,,0.048154000000,   0.04000,
,,,0.048155000000,   0.04000,
,,,0.048156000000,   0.04000,
,,,0.048157000000,   0.04000,
,,,0.048158000000,   0.04000,
,,,0.048159000000,   0.04000,
,,,0.048160000000,   0.04000,
,,,0.048161000000,   0.04000,
,,,0.048162000000,   0.04000,
,,,0.048163000000,   0.04000,
,,,0.048164000000,   0.08000,
,,,0.048165000000,   0.04000,
,,,0.048166000000,   0.04000,
,,,0.048167000000,   0.04000,
,,,0.048168000000,   0.04000,
,,,0.048169000000,   0.04000,
,,,0.048170000000,   0.04000,
,,,0.048171000000,   0.04000,
,,,0.048172000000,   0.04000,
,,,0.048173000000,   0.04000,
,,,0.048174000000,   0.04000,
,,,0.048175000000,   0.04000,
,,,0.048176000000,   0.04000,
,,,0.048177000000,   0.04000,
,,,0.048178000000,   0.04000,
,,,0.048179000000,   0.04000,
,,,0.048180000000,   0.04000,
,,,0.048181000000,   0.04000,
,,,0.048182000000,   0.04000,
,,,0.048183000000,   0.08000,
,,,0.048184000000,   0.04000,
,,,0.048185000000,   0.04000,
,,,0.048186000000,   0.04000,
,,,0.048187000000,   0.04000,
,,,0.048188000000,   0.04000,
,,,0.048189000000,   0.04000,
,,,0.048190000000,   0.04000,
,,,0.048191000000,   0.04000,
,,,0.048192000000,   0.04000,
,,,0.048193000000,   0.04000,
,,,0.048194000000,   0.04000,
,,,0.048195000000,   0.04000,
,,,0.048196000000,   0.04000,
,,,0.048197000000,   0.04000,
,,,0.048198000000,   0.04000,
,,,0.048199000000,   0.04000,
,,,0.048200000000,   0.04000,
,,,0.048201000000,   0.04000,
,,,0.048202000000,   0.04000,
,,,0.048203000000,   0.04000,
,,,0.048204000000,   0.04000,
,,,0.048205000000,   0.08000,
,,,0.048206000000,   0.04000,
,,,0.048207000000,   0.04000,
,,,0.048208000000,   0.08000,
,,,0.048209000000,   0.04000,
,,,0.048210000000,   0.08000,
,,,0.048211000000,   0.04000,
,,,0.048212000000,   0.04000,
,,,0.048213000000,   0.04000,
,,,0.048214000000,   0.04000,
,,,0.048215000000,   0.08000,
,,,0.048216000000,   0.08000,
,,,0.048217000000,   0.04000,
,,,0.048218000000,   0.08000,
,,,0.048219000000,   0.04000,
,,,0.048220000000,   0.04000,
,,,0.048221000000,   0.04000,
,,,0.048222000000,   0.04000,
,,,0.048223000000,   0.04000,
,,,0.048224000000,   0.04000,
,,,0.048225000000,   0.04000,
,,,0.048226000000,   0.04000,
,,,0.048227000000,   0.04000,
,,,0.048228000000,   0.04000,
,,,0.048229000000,   0.04000,
,,,0.048230000000,   0.04000,
,,,0.048231000000,  -0.04000,
,,,0.048232000000,   0.04000,
,,,0.048233000000,   0.04000,
,,,0.048234000000,   0.04000,
,,,0.048235000000,   0.04000,
,,,0.048236000000,   0.04000,
,,,0.048237000000,   0.04000,
,,,0.048238000000,   0.04000,
,,,0.048239000000,   0.04000,
,,,0.048240000000,   0.04000,
,,,0.048241000000,   0.04000,
,,,0.048242000000,   0.04000,
,,,0.048243000000,   0.08000,
,,,0.048244000000,   0.04000,
,,,0.048245000000,   0.04000,
,,,0.048246000000,   0.04000,
,,,0.048247000000,   0.04000,
,,,0.048248000000,   0.04000,
,,,0.048249000000,   0.04000,
,,,0.048250000000,   0.04000,
,,,0.048251000000,   0.04000,
,,,0.048252000000,   0.04000,
,,,0.048253000000,   0.04000,
,,,0.048254000000,   0.04000,
,,,0.048255000000,   0.04000,
,,,0.048256000000,   0.04000,
,,,0.048257000000,   0.04000,
,,,0.048258000000,   0.04000,
,,,0.048259000000,   0.04000,
,,,0.048260000000,   0.04000,
,,,0.048261000000,   0.04000,
,,,0.048262000000,   0.04000,
,,,0.048263000000,   0.04000,
,,,0.048264000000,   0.04000,
,,,0.048265000000,   0.04000,
,,,0.048266000000,   0.04000,
,,,0.048267000000,   0.04000,
,,,0.048268000000,   0.04000,
,,,0.048269000000,   0.04000,
,,,0.048270000000,   0.04000,
,,,0.048271000000,   0.04000,
,,,0.048272000000,   0.04000,
,,,0.048273000000,   0.04000,
,,,0.048274000000,   0.04000,
,,,0.048275000000,   0.04000,
,,,0.048276000000,   0.04000,
,,,0.048277000000,   0.04000,
,,,0.048278000000,   0.04000,
,,,0.048279000000,   0.04000,
,,,0.048280000000,   0.04000,
,,,0.048281000000,   0.04000,
,,,0.048282000000,   0.04000,
,,,0.048283000000,   0.04000,
,,,0.048284000000,   0.04000,
,,,0.048285000000,   0.00000,
,,,0.048286000000,   0.00000,
,,,0.048287000000,   0.04000,
,,,0.048288000000,   0.04000,
,,,0.048289000000,   0.04000,
,,,0.048290000000,   0.04000,
,,,0.048291000000,   0.04000,
,,,0.048292000000,   0.04000,
,,,0.048293000000,   0.04000,
,,,0.048294000000,   0.04000,
,,,0.048295000000,   0.08000,
,,,0.048296000000,   0.04000,
,,,0.048297000000,   0.04000,
,,,0.048298000000,   0.04000,
,,,0.048299000000,   0.04000,
,,,0.048300000000,   0.04000,
,,,0.048301000000,   0.04000,
,,,0.048302000000,   0.08000,
,,,0.048303000000,   0.04000,
,,,0.048304000000,   0.04000,
,,,0.048305000000,   0.04000,
,,,0.048306000000,   0.04000,
,,,0.048307000000,   0.04000,
,,,0.048308000000,   0.08000,
,,,0.048309000000,   0.04000,
,,,0.048310000000,   0.04000,
,,,0.048311000000,   0.04000,
,,,0.048312000000,   0.04000,
,,,0.048313000000,   0.04000,
,,,0.048314000000,   0.04000,
,,,0.048315000000,   0.04000,
,,,0.048316000000,   0.04000,
,,,0.048317000000,   0.04000,
,,,0.048318000000,   0.04000,
,,,0.048319000000,   0.04000,
,,,0.048320000000,   0.04000,
,,,0.048321000000,   0.04000,
,,,0.048322000000,   0.04000,
,,,0.048323000000,   0.04000,
,,,0.048324000000,   0.04000,
,,,0.048325000000,   0.04000,
,,,0.048326000000,   0.04000,
,,,0.048327000000,   0.04000,
,,,0.048328000000,   0.04000,
,,,0.048329000000,   0.04000,
,,,0.048330000000,   0.04000,
,,,0.048331000000,   0.04000,
,,,0.048332000000,   0.04000,
,,,0.048333000000,   0.00000,
,,,0.048334000000,   0.04000,
,,,0.048335000000,   0.04000,
,,,0.048336000000,   0.04000,
,,,0.048337000000,   0.04000,
,,,0.048338000000,   0.04000,
,,,0.048339000000,   0.04000,
,,,0.048340000000,   0.04000,
,,,0.048341000000,   0.04000,
,,,0.048342000000,   0.04000,
,,,0.048343000000,   0.04000,
,,,0.048344000000,   0.04000,
,,,0.048345000000,   0.04000,
,,,0.048346000000,   0.04000,
,,,0.048347000000,   0.04000,
,,,0.048348000000,   0.04000,
,,,0.048349000000,   0.04000,
,,,0.048350000000,   0.04000,
,,,0.048351000000,   0.08000,
,,,0.048352000000,   0.04000,
,,,0.048353000000,   0.04000,
,,,0.048354000000,   0.04000,
,,,0.048355000000,   0.04000,
,,,0.048356000000,   0.04000,
,,,0.048357000000,   0.04000,
,,,0.048358000000,   0.04000,
,,,0.048359000000,   0.04000,
,,,0.048360000000,   0.04000,
,,,0.048361000000,   0.04000,
,,,0.048362000000,   0.04000,
,,,0.048363000000,   0.08000,
,,,0.048364000000,   0.04000,
,,,0.048365000000,   0.00000,
,,,0.048366000000,   0.04000,
,,,0.048367000000,   0.04000,
,,,0.048368000000,   0.04000,
,,,0.048369000000,   0.04000,
,,,0.048370000000,   0.04000,
,,,0.048371000000,   0.04000,
,,,0.048372000000,   0.04000,
,,,0.048373000000,   0.04000,
,,,0.048374000000,   0.04000,
,,,0.048375000000,   0.04000,
,,,0.048376000000,   0.04000,
,,,0.048377000000,   0.04000,
,,,0.048378000000,   0.04000,
,,,0.048379000000,   0.04000,
,,,0.048380000000,   0.04000,
,,,0.048381000000,   0.04000,
,,,0.048382000000,   0.08000,
,,,0.048383000000,   0.04000,
,,,0.048384000000,   0.04000,
,,,0.048385000000,   0.04000,
,,,0.048386000000,   0.04000,
,,,0.048387000000,   0.04000,
,,,0.048388000000,   0.04000,
,,,0.048389000000,   0.04000,
,,,0.048390000000,   0.04000,
,,,0.048391000000,   0.04000,
,,,0.048392000000,   0.04000,
,,,0.048393000000,   0.04000,
,,,0.048394000000,   0.04000,
,,,0.048395000000,   0.08000,
,,,0.048396000000,   0.00000,
,,,0.048397000000,   0.04000,
,,,0.048398000000,   0.04000,
,,,0.048399000000,   0.04000,
,,,0.048400000000,   0.04000,
,,,0.048401000000,   0.04000,
,,,0.048402000000,   0.00000,
,,,0.048403000000,   0.00000,
,,,0.048404000000,   0.04000,
,,,0.048405000000,   0.04000,
,,,0.048406000000,   0.04000,
,,,0.048407000000,   0.04000,
,,,0.048408000000,   0.04000,
,,,0.048409000000,   0.04000,
,,,0.048410000000,   0.04000,
,,,0.048411000000,   0.04000,
,,,0.048412000000,   0.04000,
,,,0.048413000000,   0.04000,
,,,0.048414000000,   0.04000,
,,,0.048415000000,   0.04000,
,,,0.048416000000,   0.04000,
,,,0.048417000000,   0.04000,
,,,0.048418000000,   0.04000,
,,,0.048419000000,   0.04000,
,,,0.048420000000,   0.04000,
,,,0.048421000000,   0.04000,
,,,0.048422000000,   0.04000,
,,,0.048423000000,   0.04000,
,,,0.048424000000,   0.04000,
,,,0.048425000000,   0.04000,
,,,0.048426000000,   0.04000,
,,,0.048427000000,   0.04000,
,,,0.048428000000,   0.04000,
,,,0.048429000000,   0.08000,
,,,0.048430000000,   0.04000,
,,,0.048431000000,   0.04000,
,,,0.048432000000,   0.04000,
,,,0.048433000000,   0.04000,
,,,0.048434000000,   0.04000,
,,,0.048435000000,   0.04000,
,,,0.048436000000,   0.04000,
,,,0.048437000000,   0.04000,
,,,0.048438000000,   0.04000,
,,,0.048439000000,   0.04000,
,,,0.048440000000,   0.04000,
,,,0.048441000000,   0.04000,
,,,0.048442000000,   0.04000,
,,,0.048443000000,   0.04000,
,,,0.048444000000,   0.04000,
,,,0.048445000000,   0.04000,
,,,0.048446000000,   0.04000,
,,,0.048447000000,   0.04000,
,,,0.048448000000,   0.04000,
,,,0.048449000000,   0.04000,
,,,0.048450000000,   0.08000,
,,,0.048451000000,   0.08000,
,,,0.048452000000,   0.04000,
,,,0.048453000000,   0.04000,
,,,0.048454000000,   0.04000,
,,,0.048455000000,   0.04000,
,,,0.048456000000,   0.04000,
,,,0.048457000000,   0.04000,
,,,0.048458000000,   0.04000,
,,,0.048459000000,   0.04000,
,,,0.048460000000,   0.04000,
,,,0.048461000000,   0.04000,
,,,0.048462000000,   0.04000,
,,,0.048463000000,   0.00000,
,,,0.048464000000,   0.04000,
,,,0.048465000000,   0.04000,
,,,0.048466000000,   0.04000,
,,,0.048467000000,   0.04000,
,,,0.048468000000,   0.04000,
,,,0.048469000000,   0.04000,
,,,0.048470000000,   0.04000,
,,,0.048471000000,   0.04000,
,,,0.048472000000,   0.04000,
,,,0.048473000000,   0.04000,
,,,0.048474000000,   0.04000,
,,,0.048475000000,   0.04000,
,,,0.048476000000,   0.04000,
,,,0.048477000000,   0.04000,
,,,0.048478000000,   0.04000,
,,,0.048479000000,   0.04000,
,,,0.048480000000,   0.04000,
,,,0.048481000000,   0.08000,
,,,0.048482000000,   0.04000,
,,,0.048483000000,   0.04000,
,,,0.048484000000,   0.04000,
,,,0.048485000000,   0.00000,
,,,0.048486000000,   0.04000,
,,,0.048487000000,   0.04000,
,,,0.048488000000,   0.04000,
,,,0.048489000000,   0.04000,
,,,0.048490000000,   0.04000,
,,,0.048491000000,   0.04000,
,,,0.048492000000,   0.04000,
,,,0.048493000000,   0.04000,
,,,0.048494000000,   0.04000,
,,,0.048495000000,   0.04000,
,,,0.048496000000,   0.04000,
,,,0.048497000000,   0.04000,
,,,0.048498000000,   0.00000,
,,,0.048499000000,   0.04000,
,,,0.048500000000,   0.04000,
,,,0.048501000000,   0.04000,
,,,0.048502000000,   0.04000,
,,,0.048503000000,   0.04000,
,,,0.048504000000,   0.04000,
,,,0.048505000000,   0.04000,
,,,0.048506000000,   0.04000,
,,,0.048507000000,   0.04000,
,,,0.048508000000,   0.04000,
,,,0.048509000000,   0.04000,
,,,0.048510000000,   0.04000,
,,,0.048511000000,   0.04000,
,,,0.048512000000,   0.04000,
,,,0.048513000000,   0.04000,
,,,0.048514000000,   0.04000,
,,,0.048515000000,   0.04000,
,,,0.048516000000,   0.04000,
,,,0.048517000000,   0.04000,
,,,0.048518000000,   0.04000,
,,,0.048519000000,   0.04000,
,,,0.048520000000,   0.04000,
,,,0.048521000000,   0.04000,
,,,0.048522000000,   0.04000,
,,,0.048523000000,   0.04000,
,,,0.048524000000,   0.04000,
,,,0.048525000000,   0.04000,
,,,0.048526000000,   0.04000,
,,,0.048527000000,   0.00000,
,,,0.048528000000,   0.04000,
,,,0.048529000000,   0.04000,
,,,0.048530000000,   0.00000,
,,,0.048531000000,   0.04000,
,,,0.048532000000,   0.04000,
,,,0.048533000000,   0.04000,
,,,0.048534000000,   0.04000,
,,,0.048535000000,   0.04000,
,,,0.048536000000,   0.04000,
,,,0.048537000000,   0.04000,
,,,0.048538000000,   0.08000,
,,,0.048539000000,   0.04000,
,,,0.048540000000,   0.04000,
,,,0.048541000000,   0.04000,
,,,0.048542000000,   0.04000,
,,,0.048543000000,   0.04000,
,,,0.048544000000,   0.04000,
,,,0.048545000000,   0.04000,
,,,0.048546000000,   0.04000,
,,,0.048547000000,   0.04000,
,,,0.048548000000,   0.04000,
,,,0.048549000000,   0.04000,
,,,0.048550000000,   0.04000,
,,,0.048551000000,   0.04000,
,,,0.048552000000,   0.04000,
,,,0.048553000000,   0.08000,
,,,0.048554000000,   0.04000,
,,,0.048555000000,   0.04000,
,,,0.048556000000,   0.04000,
,,,0.048557000000,   0.08000,
,,,0.048558000000,   0.04000,
,,,0.048559000000,   0.04000,
,,,0.048560000000,   0.04000,
,,,0.048561000000,   0.00000,
,,,0.048562000000,   0.04000,
,,,0.048563000000,   0.04000,
,,,0.048564000000,   0.04000,
,,,0.048565000000,   0.04000,
,,,0.048566000000,   0.04000,
,,,0.048567000000,   0.04000,
,,,0.048568000000,   0.04000,
,,,0.048569000000,   0.04000,
,,,0.048570000000,   0.08000,
,,,0.048571000000,   0.04000,
,,,0.048572000000,   0.04000,
,,,0.048573000000,   0.04000,
,,,0.048574000000,   0.04000,
,,,0.048575000000,   0.04000,
,,,0.048576000000,   0.04000,
,,,0.048577000000,   0.04000,
,,,0.048578000000,   0.04000,
,,,0.048579000000,   0.04000,
,,,0.048580000000,   0.04000,
,,,0.048581000000,   0.04000,
,,,0.048582000000,   0.04000,
,,,0.048583000000,   0.04000,
,,,0.048584000000,   0.04000,
,,,0.048585000000,   0.04000,
,,,0.048586000000,   0.04000,
,,,0.048587000000,   0.08000,
,,,0.048588000000,   0.04000,
,,,0.048589000000,   0.04000,
,,,0.048590000000,   0.04000,
,,,0.048591000000,   0.04000,
,,,0.048592000000,   0.04000,
,,,0.048593000000,   0.04000,
,,,0.048594000000,   0.00000,
,,,0.048595000000,   0.04000,
,,,0.048596000000,   0.08000,
,,,0.048597000000,   0.04000,
,,,0.048598000000,   0.04000,
,,,0.048599000000,   0.04000,
,,,0.048600000000,   0.04000,
,,,0.048601000000,   0.04000,
,,,0.048602000000,   0.04000,
,,,0.048603000000,   0.04000,
,,,0.048604000000,   0.04000,
,,,0.048605000000,   0.00000,
,,,0.048606000000,   0.04000,
,,,0.048607000000,   0.04000,
,,,0.048608000000,   0.04000,
,,,0.048609000000,   0.08000,
,,,0.048610000000,   0.04000,
,,,0.048611000000,   0.04000,
,,,0.048612000000,   0.04000,
,,,0.048613000000,   0.04000,
,,,0.048614000000,   0.00000,
,,,0.048615000000,   0.04000,
,,,0.048616000000,   0.04000,
,,,0.048617000000,   0.04000,
,,,0.048618000000,   0.04000,
,,,0.048619000000,   0.04000,
,,,0.048620000000,   0.04000,
,,,0.048621000000,   0.04000,
,,,0.048622000000,   0.04000,
,,,0.048623000000,   0.04000,
,,,0.048624000000,   0.04000,
,,,0.048625000000,   0.04000,
,,,0.048626000000,   0.04000,
,,,0.048627000000,   0.04000,
,,,0.048628000000,   0.04000,
,,,0.048629000000,   0.04000,
,,,0.048630000000,   0.04000,
,,,0.048631000000,   0.08000,
,,,0.048632000000,   0.04000,
,,,0.048633000000,   0.04000,
,,,0.048634000000,   0.04000,
,,,0.048635000000,   0.04000,
,,,0.048636000000,   0.04000,
,,,0.048637000000,   0.04000,
,,,0.048638000000,   0.04000,
,,,0.048639000000,   0.04000,
,,,0.048640000000,   0.04000,
,,,0.048641000000,   0.04000,
,,,0.048642000000,   0.04000,
,,,0.048643000000,   0.04000,
,,,0.048644000000,   0.04000,
,,,0.048645000000,   0.04000,
,,,0.048646000000,   0.04000,
,,,0.048647000000,   0.04000,
,,,0.048648000000,   0.04000,
,,,0.048649000000,   0.04000,
,,,0.048650000000,   0.04000,
,,,0.048651000000,   0.04000,
,,,0.048652000000,   0.04000,
,,,0.048653000000,   0.04000,
,,,0.048654000000,   0.04000,
,,,0.048655000000,   0.04000,
,,,0.048656000000,   0.04000,
,,,0.048657000000,   0.04000,
,,,0.048658000000,   0.04000,
,,,0.048659000000,   0.04000,
,,,0.048660000000,   0.00000,
,,,0.048661000000,   0.04000,
,,,0.048662000000,   0.04000,
,,,0.048663000000,   0.04000,
,,,0.048664000000,   0.04000,
,,,0.048665000000,   0.04000,
,,,0.048666000000,   0.04000,
,,,0.048667000000,   0.04000,
,,,0.048668000000,   0.04000,
,,,0.048669000000,   0.04000,
,,,0.048670000000,   0.04000,
,,,0.048671000000,   0.00000,
,,,0.048672000000,   0.04000,
,,,0.048673000000,   0.04000,
,,,0.048674000000,   0.00000,
,,,0.048675000000,   0.04000,
,,,0.048676000000,   0.04000,
,,,0.048677000000,   0.04000,
,,,0.048678000000,   0.04000,
,,,0.048679000000,   0.04000,
,,,0.048680000000,   0.04000,
,,,0.048681000000,   0.04000,
,,,0.048682000000,   0.04000,
,,,0.048683000000,   0.04000,
,,,0.048684000000,   0.04000,
,,,0.048685000000,   0.00000,
,,,0.048686000000,   0.04000,
,,,0.048687000000,   0.04000,
,,,0.048688000000,   0.04000,
,,,0.048689000000,   0.04000,
,,,0.048690000000,   0.04000,
,,,0.048691000000,   0.04000,
,,,0.048692000000,   0.04000,
,,,0.048693000000,   0.04000,
,,,0.048694000000,   0.04000,
,,,0.048695000000,   0.04000,
,,,0.048696000000,   0.04000,
,,,0.048697000000,   0.04000,
,,,0.048698000000,   0.04000,
,,,0.048699000000,   0.04000,
,,,0.048700000000,   0.04000,
,,,0.048701000000,   0.04000,
,,,0.048702000000,   0.04000,
,,,0.048703000000,   0.04000,
,,,0.048704000000,   0.04000,
,,,0.048705000000,   0.04000,
,,,0.048706000000,   0.04000,
,,,0.048707000000,   0.04000,
,,,0.048708000000,   0.04000,
,,,0.048709000000,   0.08000,
,,,0.048710000000,   0.04000,
,,,0.048711000000,   0.04000,
,,,0.048712000000,   0.04000,
,,,0.048713000000,   0.04000,
,,,0.048714000000,   0.04000,
,,,0.048715000000,   0.04000,
,,,0.048716000000,   0.04000,
,,,0.048717000000,   0.00000,
,,,0.048718000000,   0.04000,
,,,0.048719000000,   0.04000,
,,,0.048720000000,   0.00000,
,,,0.048721000000,   0.04000,
,,,0.048722000000,   0.00000,
,,,0.048723000000,   0.04000,
,,,0.048724000000,   0.04000,
,,,0.048725000000,   0.04000,
,,,0.048726000000,   0.04000,
,,,0.048727000000,   0.04000,
,,,0.048728000000,   0.04000,
,,,0.048729000000,   0.04000,
,,,0.048730000000,   0.04000,
,,,0.048731000000,   0.04000,
,,,0.048732000000,   0.04000,
,,,0.048733000000,   0.04000,
,,,0.048734000000,   0.04000,
,,,0.048735000000,   0.04000,
,,,0.048736000000,   0.04000,
,,,0.048737000000,   0.04000,
,,,0.048738000000,   0.04000,
,,,0.048739000000,   0.04000,
,,,0.048740000000,   0.08000,
,,,0.048741000000,   0.04000,
,,,0.048742000000,   0.04000,
,,,0.048743000000,   0.04000,
,,,0.048744000000,   0.04000,
,,,0.048745000000,   0.04000,
,,,0.048746000000,   0.04000,
,,,0.048747000000,   0.04000,
,,,0.048748000000,   0.04000,
,,,0.048749000000,   0.04000,
,,,0.048750000000,   0.04000,
,,,0.048751000000,   0.04000,
,,,0.048752000000,   0.04000,
,,,0.048753000000,   0.04000,
,,,0.048754000000,   0.08000,
,,,0.048755000000,   0.04000,
,,,0.048756000000,   0.04000,
,,,0.048757000000,   0.04000,
,,,0.048758000000,   0.00000,
,,,0.048759000000,   0.04000,
,,,0.048760000000,   0.04000,
,,,0.048761000000,   0.04000,
,,,0.048762000000,   0.04000,
,,,0.048763000000,   0.04000,
,,,0.048764000000,   0.04000,
,,,0.048765000000,   0.04000,
,,,0.048766000000,   0.04000,
,,,0.048767000000,   0.04000,
,,,0.048768000000,   0.04000,
,,,0.048769000000,   0.04000,
,,,0.048770000000,   0.04000,
,,,0.048771000000,   0.04000,
,,,0.048772000000,   0.04000,
,,,0.048773000000,   0.04000,
,,,0.048774000000,   0.04000,
,,,0.048775000000,   0.04000,
,,,0.048776000000,   0.04000,
,,,0.048777000000,   0.04000,
,,,0.048778000000,   0.04000,
,,,0.048779000000,   0.04000,
,,,0.048780000000,   0.04000,
,,,0.048781000000,   0.04000,
,,,0.048782000000,   0.04000,
,,,0.048783000000,   0.04000,
,,,0.048784000000,   0.04000,
,,,0.048785000000,   0.04000,
,,,0.048786000000,   0.04000,
,,,0.048787000000,   0.04000,
,,,0.048788000000,   0.04000,
,,,0.048789000000,   0.04000,
,,,0.048790000000,   0.04000,
,,,0.048791000000,   0.04000,
,,,0.048792000000,   0.04000,
,,,0.048793000000,   0.08000,
,,,0.048794000000,   0.04000,
,,,0.048795000000,   0.04000,
,,,0.048796000000,   0.04000,
,,,0.048797000000,   0.04000,
,,,0.048798000000,   0.04000,
,,,0.048799000000,   0.04000,
,,,0.048800000000,   0.04000,
,,,0.048801000000,   0.04000,
,,,0.048802000000,   0.04000,
,,,0.048803000000,   0.04000,
,,,0.048804000000,   0.04000,
,,,0.048805000000,   0.08000,
,,,0.048806000000,   0.00000,
,,,0.048807000000,   0.04000,
,,,0.048808000000,   0.04000,
,,,0.048809000000,   0.04000,
,,,0.048810000000,   0.04000,
,,,0.048811000000,   0.04000,
,,,0.048812000000,   0.04000,
,,,0.048813000000,   0.08000,
,,,0.048814000000,   0.04000,
,,,0.048815000000,   0.04000,
,,,0.048816000000,   0.04000,
,,,0.048817000000,   0.04000,
,,,0.048818000000,   0.04000,
,,,0.048819000000,   0.04000,
,,,0.048820000000,   0.04000,
,,,0.048821000000,   0.04000,
,,,0.048822000000,   0.08000,
,,,0.048823000000,   0.04000,
,,,0.048824000000,   0.04000,
,,,0.048825000000,   0.00000,
,,,0.048826000000,   0.00000,
,,,0.048827000000,   0.04000,
,,,0.048828000000,   0.04000,
,,,0.048829000000,   0.04000,
,,,0.048830000000,   0.04000,
,,,0.048831000000,   0.00000,
,,,0.048832000000,   0.04000,
,,,0.048833000000,   0.04000,
,,,0.048834000000,   0.04000,
,,,0.048835000000,   0.04000,
,,,0.048836000000,   0.04000,
,,,0.048837000000,   0.00000,
,,,0.048838000000,   0.04000,
,,,0.048839000000,   0.04000,
,,,0.048840000000,   0.04000,
,,,0.048841000000,   0.04000,
,,,0.048842000000,   0.04000,
,,,0.048843000000,   0.04000,
,,,0.048844000000,   0.04000,
,,,0.048845000000,   0.04000,
,,,0.048846000000,   0.04000,
,,,0.048847000000,   0.04000,
,,,0.048848000000,   0.04000,
,,,0.048849000000,   0.04000,
,,,0.048850000000,   0.04000,
,,,0.048851000000,   0.00000,
,,,0.048852000000,   0.04000,
,,,0.048853000000,   0.04000,
,,,0.048854000000,   0.04000,
,,,0.048855000000,   0.04000,
,,,0.048856000000,   0.04000,
,,,0.048857000000,   0.04000,
,,,0.048858000000,   0.04000,
,,,0.048859000000,   0.04000,
,,,0.048860000000,   0.04000,
,,,0.048861000000,   0.04000,
,,,0.048862000000,   0.04000,
,,,0.048863000000,   0.04000,
,,,0.048864000000,   0.04000,
,,,0.048865000000,   0.04000,
,,,0.048866000000,   0.04000,
,,,0.048867000000,   0.04000,
,,,0.048868000000,   0.04000,
,,,0.048869000000,   0.04000,
,,,0.048870000000,   0.04000,
,,,0.048871000000,   0.04000,
,,,0.048872000000,   0.04000,
,,,0.048873000000,   0.04000,
,,,0.048874000000,   0.04000,
,,,0.048875000000,   0.04000,
,,,0.048876000000,   0.08000,
,,,0.048877000000,   0.04000,
,,,0.048878000000,   0.04000,
,,,0.048879000000,   0.04000,
,,,0.048880000000,   0.04000,
,,,0.048881000000,   0.04000,
,,,0.048882000000,   0.04000,
,,,0.048883000000,   0.04000,
,,,0.048884000000,   0.04000,
,,,0.048885000000,   0.04000,
,,,0.048886000000,   0.04000,
,,,0.048887000000,   0.04000,
,,,0.048888000000,   0.04000,
,,,0.048889000000,   0.00000,
,,,0.048890000000,   0.04000,
,,,0.048891000000,   0.04000,
,,,0.048892000000,   0.04000,
,,,0.048893000000,   0.04000,
,,,0.048894000000,   0.04000,
,,,0.048895000000,   0.04000,
,,,0.048896000000,   0.04000,
,,,0.048897000000,   0.04000,
,,,0.048898000000,   0.04000,
,,,0.048899000000,   0.04000,
,,,0.048900000000,   0.04000,
,,,0.048901000000,   0.04000,
,,,0.048902000000,   0.04000,
,,,0.048903000000,   0.04000,
,,,0.048904000000,   0.00000,
,,,0.048905000000,   0.04000,
,,,0.048906000000,   0.04000,
,,,0.048907000000,   0.04000,
,,,0.048908000000,   0.04000,
,,,0.048909000000,   0.04000,
,,,0.048910000000,   0.04000,
,,,0.048911000000,   0.04000,
,,,0.048912000000,   0.04000,
,,,0.048913000000,   0.04000,
,,,0.048914000000,   0.04000,
,,,0.048915000000,   0.04000,
,,,0.048916000000,   0.04000,
,,,0.048917000000,   0.04000,
,,,0.048918000000,   0.04000,
,,,0.048919000000,   0.04000,
,,,0.048920000000,   0.04000,
,,,0.048921000000,   0.04000,
,,,0.048922000000,   0.04000,
,,,0.048923000000,   0.04000,
,,,0.048924000000,   0.04000,
,,,0.048925000000,   0.04000,
,,,0.048926000000,   0.04000,
,,,0.048927000000,   0.04000,
,,,0.048928000000,   0.04000,
,,,0.048929000000,   0.04000,
,,,0.048930000000,   0.04000,
,,,0.048931000000,   0.04000,
,,,0.048932000000,   0.04000,
,,,0.048933000000,   0.04000,
,,,0.048934000000,   0.04000,
,,,0.048935000000,   0.04000,
,,,0.048936000000,   0.04000,
,,,0.048937000000,   0.04000,
,,,0.048938000000,   0.04000,
,,,0.048939000000,   0.04000,
,,,0.048940000000,   0.04000,
,,,0.048941000000,   0.04000,
,,,0.048942000000,   0.04000,
,,,0.048943000000,   0.04000,
,,,0.048944000000,   0.04000,
,,,0.048945000000,   0.04000,
,,,0.048946000000,   0.04000,
,,,0.048947000000,   0.00000,
,,,0.048948000000,   0.04000,
,,,0.048949000000,   0.00000,
,,,0.048950000000,   0.04000,
,,,0.048951000000,   0.04000,
,,,0.048952000000,   0.04000,
,,,0.048953000000,   0.04000,
,,,0.048954000000,   0.04000,
,,,0.048955000000,   0.04000,
,,,0.048956000000,   0.04000,
,,,0.048957000000,   0.04000,
,,,0.048958000000,   0.04000,
,,,0.048959000000,   0.04000,
,,,0.048960000000,   0.04000,
,,,0.048961000000,   0.04000,
,,,0.048962000000,   0.00000,
,,,0.048963000000,   0.04000,
,,,0.048964000000,   0.04000,
,,,0.048965000000,   0.04000,
,,,0.048966000000,   0.04000,
,,,0.048967000000,   0.04000,
,,,0.048968000000,   0.04000,
,,,0.048969000000,   0.04000,
,,,0.048970000000,   0.04000,
,,,0.048971000000,   0.04000,
,,,0.048972000000,   0.04000,
,,,0.048973000000,   0.04000,
,,,0.048974000000,   0.04000,
,,,0.048975000000,   0.04000,
,,,0.048976000000,   0.04000,
,,,0.048977000000,   0.04000,
,,,0.048978000000,   0.04000,
,,,0.048979000000,   0.04000,
,,,0.048980000000,   0.00000,
,,,0.048981000000,   0.04000,
,,,0.048982000000,   0.04000,
,,,0.048983000000,   0.04000,
,,,0.048984000000,   0.08000,
,,,0.048985000000,   0.04000,
,,,0.048986000000,   0.04000,
,,,0.048987000000,   0.00000,
,,,0.048988000000,   0.04000,
,,,0.048989000000,   0.04000,
,,,0.048990000000,   0.04000,
,,,0.048991000000,   0.04000,
,,,0.048992000000,   0.04000,
,,,0.048993000000,   0.04000,
,,,0.048994000000,   0.08000,
,,,0.048995000000,   0.04000,
,,,0.048996000000,   0.04000,
,,,0.048997000000,   0.04000,
,,,0.048998000000,   0.00000,
,,,0.048999000000,   0.04000,
,,,0.049000000000,   3.00000,
,,,0.049001000000,   0.00000,
,,,0.049002000000,   0.04000,
,,,0.049003000000,   0.04000,
,,,0.049004000000,   0.04000,
,,,0.049005000000,   0.08000,
,,,0.049006000000,   0.04000,
,,,0.049007000000,   0.04000,
,,,0.049008000000,   0.04000,
,,,0.049009000000,   0.04000,
,,,0.049010000000,   0.04000,
,,,0.049011000000,   0.04000,
,,,0.049012000000,   0.04000,
,,,0.049013000000,   0.04000,
,,,0.049014000000,   0.04000,
,,,0.049015000000,   0.04000,
,,,0.049016000000,   0.04000,
,,,0.049017000000,   0.04000,
,,,0.049018000000,   0.04000,
,,,0.049019000000,   0.04000,
,,,0.049020000000,   0.04000,
,,,0.049021000000,   0.04000,
,,,0.049022000000,   0.04000,
,,,0.049023000000,   0.04000,
,,,0.049024000000,   0.04000,
,,,0.049025000000,   0.00000,
,,,0.049026000000,   0.04000,
,,,0.049027000000,   0.04000,
,,,0.049028000000,   0.04000,
,,,0.049029000000,   0.04000,
,,,0.049030000000,   0.04000,
,,,0.049031000000,   0.00000,
,,,0.049032000000,   0.04000,
,,,0.049033000000,   0.04000,
,,,0.049034000000,   0.04000,
,,,0.049035000000,   0.04000,
,,,0.049036000000,   0.04000,
,,,0.049037000000,   0.04000,
,,,0.049038000000,   0.04000,
,,,0.049039000000,   0.04000,
,,,0.049040000000,   0.04000,
,,,0.049041000000,   0.04000,
,,,0.049042000000,   0.04000,
,,,0.049043000000,   0.04000,
,,,0.049044000000,   0.04000,
,,,0.049045000000,   0.08000,
,,,0.049046000000,   0.04000,
,,,0.049047000000,   0.04000,
,,,0.049048000000,   0.04000,
,,,0.049049000000,   0.04000,
,,,0.049050000000,   0.04000,
,,,0.049051000000,   0.00000,
,,,0.049052000000,   0.04000,
,,,0.049053000000,   0.04000,
,,,0.049054000000,   0.04000,
,,,0.049055000000,   0.04000,
,,,0.049056000000,   0.04000,
,,,0.049057000000,   0.04000,
,,,0.049058000000,   0.04000,
,,,0.049059000000,   0.04000,
,,,0.049060000000,   0.04000,
,,,0.049061000000,   0.04000,
,,,0.049062000000,   0.08000,
,,,0.049063000000,   0.04000,
,,,0.049064000000,   0.04000,
,,,0.049065000000,   0.04000,
,,,0.049066000000,   0.04000,
,,,0.049067000000,   0.08000,
,,,0.049068000000,   0.04000,
,,,0.049069000000,   0.04000,
,,,0.049070000000,   0.04000,
,,,0.049071000000,   0.04000,
,,,0.049072000000,   0.04000,
,,,0.049073000000,   0.04000,
,,,0.049074000000,   0.04000,
,,,0.049075000000,   0.04000,
,,,0.049076000000,   0.04000,
,,,0.049077000000,   0.04000,
,,,0.049078000000,   0.04000,
,,,0.049079000000,   0.04000,
,,,0.049080000000,   0.04000,
,,,0.049081000000,   0.04000,
,,,0.049082000000,   0.00000,
,,,0.049083000000,   0.04000,
,,,0.049084000000,   0.04000,
,,,0.049085000000,   0.04000,
,,,0.049086000000,   0.04000,
,,,0.049087000000,   0.04000,
,,,0.049088000000,   0.04000,
,,,0.049089000000,   0.04000,
,,,0.049090000000,   0.08000,
,,,0.049091000000,   0.04000,
,,,0.049092000000,   0.04000,
,,,0.049093000000,   0.04000,
,,,0.049094000000,   0.04000,
,,,0.049095000000,   0.04000,
,,,0.049096000000,   0.04000,
,,,0.049097000000,   0.04000,
,,,0.049098000000,   0.04000,
,,,0.049099000000,   0.04000,
,,,0.049100000000,   0.04000,
,,,0.049101000000,   0.00000,
,,,0.049102000000,   0.04000,
,,,0.049103000000,   0.04000,
,,,0.049104000000,   0.04000,
,,,0.049105000000,   0.04000,
,,,0.049106000000,   0.04000,
,,,0.049107000000,   0.04000,
,,,0.049108000000,   0.08000,
,,,0.049109000000,   0.04000,
,,,0.049110000000,   0.04000,
,,,0.049111000000,   0.04000,
,,,0.049112000000,   0.04000,
,,,0.049113000000,   0.08000,
,,,0.049114000000,   0.08000,
,,,0.049115000000,   0.08000,
,,,0.049116000000,   0.04000,
,,,0.049117000000,   0.04000,
,,,0.049118000000,   0.08000,
,,,0.049119000000,   0.04000,
,,,0.049120000000,   0.04000,
,,,0.049121000000,   0.04000,
,,,0.049122000000,   0.04000,
,,,0.049123000000,   0.04000,
,,,0.049124000000,   0.04000,
,,,0.049125000000,   0.04000,
,,,0.049126000000,   0.04000,
,,,0.049127000000,   0.04000,
,,,0.049128000000,   0.04000,
,,,0.049129000000,   0.04000,
,,,0.049130000000,   0.04000,
,,,0.049131000000,   0.04000,
,,,0.049132000000,   0.04000,
,,,0.049133000000,   0.04000,
,,,0.049134000000,   0.04000,
,,,0.049135000000,   0.04000,
,,,0.049136000000,   0.04000,
,,,0.049137000000,   0.04000,
,,,0.049138000000,   0.04000,
,,,0.049139000000,   0.04000,
,,,0.049140000000,   0.04000,
,,,0.049141000000,   0.04000,
,,,0.049142000000,   0.04000,
,,,0.049143000000,   0.04000,
,,,0.049144000000,   0.04000,
,,,0.049145000000,   0.04000,
,,,0.049146000000,   0.04000,
,,,0.049147000000,   0.04000,
,,,0.049148000000,   0.04000,
,,,0.049149000000,   0.04000,
,,,0.049150000000,   0.08000,
,,,0.049151000000,   0.04000,
,,,0.049152000000,   0.04000,
,,,0.049153000000,   0.08000,
,,,0.049154000000,   0.04000,
,,,0.049155000000,   0.04000,
,,,0.049156000000,   0.08000,
,,,0.049157000000,   0.04000,
,,,0.049158000000,   0.08000,
,,,0.049159000000,   0.04000,
,,,0.049160000000,   0.04000,
,,,0.049161000000,   0.04000,
,,,0.049162000000,   0.04000,
,,,0.049163000000,   0.04000,
,,,0.049164000000,   0.04000,
,,,0.049165000000,   0.04000,
,,,0.049166000000,   0.04000,
,,,0.049167000000,   0.04000,
,,,0.049168000000,   0.04000,
,,,0.049169000000,   0.04000,
,,,0.049170000000,   0.04000,
,,,0.049171000000,   0.04000,
,,,0.049172000000,   0.04000,
,,,0.049173000000,   0.04000,
,,,0.049174000000,   0.04000,
,,,0.049175000000,   0.04000,
,,,0.049176000000,   0.04000,
,,,0.049177000000,   0.04000,
,,,0.049178000000,   0.04000,
,,,0.049179000000,   0.04000,
,,,0.049180000000,   0.08000,
,,,0.049181000000,   0.04000,
,,,0.049182000000,   0.04000,
,,,0.049183000000,   0.04000,
,,,0.049184000000,   0.08000,
,,,0.049185000000,   0.04000,
,,,0.049186000000,   0.08000,
,,,0.049187000000,   0.04000,
,,,0.049188000000,   0.04000,
,,,0.049189000000,   0.04000,
,,,0.049190000000,   0.04000,
,,,0.049191000000,   0.04000,
,,,0.049192000000,   0.04000,
,,,0.049193000000,   0.04000,
,,,0.049194000000,   0.04000,
,,,0.049195000000,   0.04000,
,,,0.049196000000,   0.04000,
,,,0.049197000000,   0.04000,
,,,0.049198000000,   0.04000,
,,,0.049199000000,   0.04000,
,,,0.049200000000,   0.04000,
,,,0.049201000000,   0.04000,
,,,0.049202000000,   0.04000,
,,,0.049203000000,   0.04000,
,,,0.049204000000,   0.04000,
,,,0.049205000000,   0.04000,
,,,0.049206000000,   0.04000,
,,,0.049207000000,   0.08000,
,,,0.049208000000,   0.08000,
,,,0.049209000000,   0.04000,
,,,0.049210000000,   0.04000,
,,,0.049211000000,   0.04000,
,,,0.049212000000,   0.04000,
,,,0.049213000000,   0.04000,
,,,0.049214000000,   0.04000,
,,,0.049215000000,   0.04000,
,,,0.049216000000,   0.04000,
,,,0.049217000000,   0.04000,
,,,0.049218000000,   0.04000,
,,,0.049219000000,   0.08000,
,,,0.049220000000,   0.04000,
,,,0.049221000000,   0.04000,
,,,0.049222000000,   0.04000,
,,,0.049223000000,   0.04000,
,,,0.049224000000,   0.04000,
,,,0.049225000000,   0.04000,
,,,0.049226000000,   0.04000,
,,,0.049227000000,   0.08000,
,,,0.049228000000,   0.04000,
,,,0.049229000000,   0.04000,
,,,0.049230000000,   0.04000,
,,,0.049231000000,   0.04000,
,,,0.049232000000,   0.08000,
,,,0.049233000000,   0.04000,
,,,0.049234000000,   0.04000,
,,,0.049235000000,   0.04000,
,,,0.049236000000,   0.04000,
,,,0.049237000000,   0.04000,
,,,0.049238000000,   0.04000,
,,,0.049239000000,   0.04000,
,,,0.049240000000,   0.04000,
,,,0.049241000000,   0.04000,
,,,0.049242000000,   0.04000,
,,,0.049243000000,   0.04000,
,,,0.049244000000,   0.04000,
,,,0.049245000000,   0.04000,
,,,0.049246000000,   0.04000,
,,,0.049247000000,   0.04000,
,,,0.049248000000,   0.04000,
,,,0.049249000000,   0.04000,
,,,0.049250000000,   0.04000,
,,,0.049251000000,   0.04000,
,,,0.049252000000,   0.04000,
,,,0.049253000000,   0.04000,
,,,0.049254000000,   0.04000,
,,,0.049255000000,   0.04000,
,,,0.049256000000,   0.04000,
,,,0.049257000000,   0.04000,
,,,0.049258000000,   0.04000,
,,,0.049259000000,   0.04000,
,,,0.049260000000,   0.04000,
,,,0.049261000000,   0.04000,
,,,0.049262000000,   0.04000,
,,,0.049263000000,   0.04000,
,,,0.049264000000,   0.00000,
,,,0.049265000000,   0.04000,
,,,0.049266000000,   0.04000,
,,,0.049267000000,   0.04000,
,,,0.049268000000,   0.04000,
,,,0.049269000000,   0.04000,
,,,0.049270000000,   0.04000,
,,,0.049271000000,   0.04000,
,,,0.049272000000,   0.04000,
,,,0.049273000000,   0.04000,
,,,0.049274000000,   0.04000,
,,,0.049275000000,   0.04000,
,,,0.049276000000,   0.04000,
,,,0.049277000000,   0.04000,
,,,0.049278000000,   0.04000,
,,,0.049279000000,   0.04000,
,,,0.049280000000,   0.04000,
,,,0.049281000000,   0.04000,
,,,0.049282000000,   0.04000,
,,,0.049283000000,   0.04000,
,,,0.049284000000,   0.04000,
,,,0.049285000000,   0.04000,
,,,0.049286000000,   0.04000,
,,,0.049287000000,   0.04000,
,,,0.049288000000,   0.04000,
,,,0.049289000000,   0.04000,
,,,0.049290000000,   0.00000,
,,,0.049291000000,   0.04000,
,,,0.049292000000,   0.04000,
,,,0.049293000000,   0.04000,
,,,0.049294000000,   0.04000,
,,,0.049295000000,   0.04000,
,,,0.049296000000,   0.04000,
,,,0.049297000000,   0.04000,
,,,0.049298000000,   0.04000,
,,,0.049299000000,   0.08000,
,,,0.049300000000,   0.04000,
,,,0.049301000000,   0.04000,
,,,0.049302000000,   0.04000,
,,,0.049303000000,   0.04000,
,,,0.049304000000,   0.04000,
,,,0.049305000000,   0.04000,
,,,0.049306000000,   0.04000,
,,,0.049307000000,   0.04000,
,,,0.049308000000,   0.04000,
,,,0.049309000000,   0.04000,
,,,0.049310000000,   0.04000,
,,,0.049311000000,   0.04000,
,,,0.049312000000,   0.04000,
,,,0.049313000000,   0.08000,
,,,0.049314000000,   0.04000,
,,,0.049315000000,   0.04000,
,,,0.049316000000,   0.04000,
,,,0.049317000000,   0.04000,
,,,0.049318000000,   0.04000,
,,,0.049319000000,   0.04000,
,,,0.049320000000,   0.04000,
,,,0.049321000000,   0.04000,
,,,0.049322000000,   0.04000,
,,,0.049323000000,   0.04000,
,,,0.049324000000,   0.04000,
,,,0.049325000000,   0.04000,
,,,0.049326000000,   0.08000,
,,,0.049327000000,   0.04000,
,,,0.049328000000,   0.00000,
,,,0.049329000000,   0.04000,
,,,0.049330000000,   0.04000,
,,,0.049331000000,   0.04000,
,,,0.049332000000,   0.04000,
,,,0.049333000000,   0.04000,
,,,0.049334000000,   0.00000,
,,,0.049335000000,   0.04000,
,,,0.049336000000,   0.04000,
,,,0.049337000000,   0.04000,
,,,0.049338000000,   0.04000,
,,,0.049339000000,   0.04000,
,,,0.049340000000,   0.08000,
,,,0.049341000000,   0.04000,
,,,0.049342000000,   0.04000,
,,,0.049343000000,   0.04000,
,,,0.049344000000,   0.00000,
,,,0.049345000000,   0.04000,
,,,0.049346000000,   0.04000,
,,,0.049347000000,   0.04000,
,,,0.049348000000,   0.04000,
,,,0.049349000000,   0.04000,
,,,0.049350000000,   0.04000,
,,,0.049351000000,   0.04000,
,,,0.049352000000,   0.04000,
,,,0.049353000000,   0.04000,
,,,0.049354000000,   0.04000,
,,,0.049355000000,   0.04000,
,,,0.049356000000,   0.04000,
,,,0.049357000000,   0.04000,
,,,0.049358000000,   0.04000,
,,,0.049359000000,   0.04000,
,,,0.049360000000,   0.04000,
,,,0.049361000000,   0.04000,
,,,0.049362000000,   0.04000,
,,,0.049363000000,   0.04000,
,,,0.049364000000,   0.04000,
,,,0.049365000000,   0.04000,
,,,0.049366000000,   0.04000,
,,,0.049367000000,   0.04000,
,,,0.049368000000,   0.04000,
,,,0.049369000000,   0.04000,
,,,0.049370000000,   0.00000,
,,,0.049371000000,   0.04000,
,,,0.049372000000,   0.04000,
,,,0.049373000000,   0.04000,
,,,0.049374000000,   0.04000,
,,,0.049375000000,   0.00000,
,,,0.049376000000,   0.04000,
,,,0.049377000000,   0.04000,
,,,0.049378000000,   0.04000,
,,,0.049379000000,   0.00000,
,,,0.049380000000,   0.04000,
,,,0.049381000000,   0.04000,
,,,0.049382000000,   0.04000,
,,,0.049383000000,   0.00000,
,,,0.049384000000,   0.00000,
,,,0.049385000000,   0.04000,
,,,0.049386000000,   0.04000,
,,,0.049387000000,   0.04000,
,,,0.049388000000,   0.04000,
,,,0.049389000000,   0.00000,
,,,0.049390000000,   0.04000,
,,,0.049391000000,   0.04000,
,,,0.049392000000,   0.04000,
,,,0.049393000000,   0.04000,
,,,0.049394000000,   0.04000,
,,,0.049395000000,   0.00000,
,,,0.049396000000,   0.04000,
,,,0.049397000000,   0.04000,
,,,0.049398000000,   0.04000,
,,,0.049399000000,   0.04000,
,,,0.049400000000,   0.04000,
,,,0.049401000000,   0.04000,
,,,0.049402000000,   0.04000,
,,,0.049403000000,   0.04000,
,,,0.049404000000,   0.04000,
,,,0.049405000000,   0.04000,
,,,0.049406000000,   0.04000,
,,,0.049407000000,   0.04000,
,,,0.049408000000,   0.00000,
,,,0.049409000000,   0.04000,
,,,0.049410000000,   0.04000,
,,,0.049411000000,   0.04000,
,,,0.049412000000,   0.04000,
,,,0.049413000000,   0.04000,
,,,0.049414000000,   0.04000,
,,,0.049415000000,   0.04000,
,,,0.049416000000,   0.04000,
,,,0.049417000000,   0.04000,
,,,0.049418000000,   0.04000,
,,,0.049419000000,   0.04000,
,,,0.049420000000,   0.04000,
,,,0.049421000000,   0.04000,
,,,0.049422000000,   0.04000,
,,,0.049423000000,   0.04000,
,,,0.049424000000,   0.04000,
,,,0.049425000000,   0.04000,
,,,0.049426000000,   0.04000,
,,,0.049427000000,   0.04000,
,,,0.049428000000,   0.04000,
,,,0.049429000000,   0.04000,
,,,0.049430000000,   0.04000,
,,,0.049431000000,   0.04000,
,,,0.049432000000,   0.04000,
,,,0.049433000000,   0.04000,
,,,0.049434000000,   0.04000,
,,,0.049435000000,   0.04000,
,,,0.049436000000,   0.04000,
,,,0.049437000000,   0.04000,
,,,0.049438000000,   0.04000,
,,,0.049439000000,   0.04000,
,,,0.049440000000,   0.04000,
,,,0.049441000000,   0.04000,
,,,0.049442000000,   0.04000,
,,,0.049443000000,   0.04000,
,,,0.049444000000,   0.04000,
,,,0.049445000000,   0.08000,
,,,0.049446000000,   0.04000,
,,,0.049447000000,   0.04000,
,,,0.049448000000,   0.04000,
,,,0.049449000000,   0.04000,
,,,0.049450000000,   0.04000,
,,,0.049451000000,   0.04000,
,,,0.049452000000,   0.04000,
,,,0.049453000000,   0.04000,
,,,0.049454000000,   0.04000,
,,,0.049455000000,   0.04000,
,,,0.049456000000,   0.04000,
,,,0.049457000000,   0.04000,
,,,0.049458000000,   0.04000,
,,,0.049459000000,   0.04000,
,,,0.049460000000,   0.08000,
,,,0.049461000000,   0.04000,
,,,0.049462000000,   0.00000,
,,,0.049463000000,   0.04000,
,,,0.049464000000,   0.04000,
,,,0.049465000000,   0.04000,
,,,0.049466000000,   0.08000,
,,,0.049467000000,   0.04000,
,,,0.049468000000,   0.04000,
,,,0.049469000000,   0.04000,
,,,0.049470000000,   0.04000,
,,,0.049471000000,   0.04000,
,,,0.049472000000,   0.00000,
,,,0.049473000000,   0.04000,
,,,0.049474000000,   0.04000,
,,,0.049475000000,   0.04000,
,,,0.049476000000,   0.04000,
,,,0.049477000000,   0.04000,
,,,0.049478000000,   0.04000,
,,,0.049479000000,   0.04000,
,,,0.049480000000,   0.04000,
,,,0.049481000000,   0.04000,
,,,0.049482000000,   0.04000,
,,,0.049483000000,   0.00000,
,,,0.049484000000,   0.04000,
,,,0.049485000000,   0.04000,
,,,0.049486000000,   0.00000,
,,,0.049487000000,   0.04000,
,,,0.049488000000,   0.08000,
,,,0.049489000000,   0.04000,
,,,0.049490000000,   0.04000,
,,,0.049491000000,   0.04000,
,,,0.049492000000,   0.04000,
,,,0.049493000000,   0.04000,
,,,0.049494000000,   0.04000,
,,,0.049495000000,   0.04000,
,,,0.049496000000,   0.04000,
,,,0.049497000000,   0.04000,
,,,0.049498000000,   0.04000,
,,,0.049499000000,   0.00000,
,,,0.049500000000,   0.04000,
,,,0.049501000000,   0.04000,
,,,0.049502000000,   0.04000,
,,,0.049503000000,   0.04000,
,,,0.049504000000,   0.04000,
,,,0.049505000000,   0.08000,
,,,0.049506000000,   0.04000,
,,,0.049507000000,   0.04000,
,,,0.049508000000,   0.04000,
,,,0.049509000000,   0.04000,
,,,0.049510000000,   0.04000,
,,,0.049511000000,   0.04000,
,,,0.049512000000,   0.04000,
,,,0.049513000000,   0.04000,
,,,0.049514000000,   0.04000,
,,,0.049515000000,   0.04000,
,,,0.049516000000,   0.04000,
,,,0.049517000000,   0.00000,
,,,0.049518000000,   0.04000,
,,,0.049519000000,   0.08000,
,,,0.049520000000,   0.04000,
,,,0.049521000000,   0.04000,
,,,0.049522000000,   0.04000,
,,,0.049523000000,   0.04000,
,,,0.049524000000,   0.04000,
,,,0.049525000000,   0.04000,
,,,0.049526000000,   0.04000,
,,,0.049527000000,   0.04000,
,,,0.049528000000,   0.04000,
,,,0.049529000000,   0.04000,
,,,0.049530000000,   0.04000,
,,,0.049531000000,   0.04000,
,,,0.049532000000,   0.04000,
,,,0.049533000000,   0.04000,
,,,0.049534000000,   0.04000,
,,,0.049535000000,   0.04000,
,,,0.049536000000,   0.04000,
,,,0.049537000000,   0.04000,
,,,0.049538000000,   0.00000,
,,,0.049539000000,   0.04000,
,,,0.049540000000,   0.04000,
,,,0.049541000000,   0.04000,
,,,0.049542000000,   0.00000,
,,,0.049543000000,   0.04000,
,,,0.049544000000,   0.04000,
,,,0.049545000000,   0.00000,
,,,0.049546000000,   0.04000,
,,,0.049547000000,   0.04000,
,,,0.049548000000,   0.04000,
,,,0.049549000000,   0.04000,
,,,0.049550000000,   0.00000,
,,,0.049551000000,   0.04000,
,,,0.049552000000,   0.04000,
,,,0.049553000000,   0.04000,
,,,0.049554000000,   0.04000,
,,,0.049555000000,   0.04000,
,,,0.049556000000,   0.04000,
,,,0.049557000000,   0.04000,
,,,0.049558000000,   0.04000,
,,,0.049559000000,   0.04000,
,,,0.049560000000,   0.04000,
,,,0.049561000000,   0.04000,
,,,0.049562000000,   0.04000,
,,,0.049563000000,   0.04000,
,,,0.049564000000,   0.04000,
,,,0.049565000000,   0.04000,
,,,0.049566000000,   0.04000,
,,,0.049567000000,   0.04000,
,,,0.049568000000,   0.04000,
,,,0.049569000000,   0.04000,
,,,0.049570000000,   0.04000,
,,,0.049571000000,   0.04000,
,,,0.049572000000,   0.04000,
,,,0.049573000000,   0.04000,
,,,0.049574000000,   0.04000,
,,,0.049575000000,   0.04000,
,,,0.049576000000,   0.04000,
,,,0.049577000000,   0.04000,
,,,0.049578000000,   0.08000,
,,,0.049579000000,   0.04000,
,,,0.049580000000,   0.04000,
,,,0.049581000000,   0.04000,
,,,0.049582000000,   0.04000,
,,,0.049583000000,   0.04000,
,,,0.049584000000,   0.04000,
,,,0.049585000000,   0.04000,
,,,0.049586000000,   0.04000,
,,,0.049587000000,   0.04000,
,,,0.049588000000,   0.04000,
,,,0.049589000000,   0.04000,
,,,0.049590000000,   0.04000,
,,,0.049591000000,   0.08000,
,,,0.049592000000,   0.04000,
,,,0.049593000000,   0.04000,
,,,0.049594000000,   0.04000,
,,,0.049595000000,   0.04000,
,,,0.049596000000,   0.04000,
,,,0.049597000000,   0.04000,
,,,0.049598000000,   0.04000,
,,,0.049599000000,   0.04000,
,,,0.049600000000,   0.04000,
,,,0.049601000000,   0.04000,
,,,0.049602000000,   0.04000,
,,,0.049603000000,   0.04000,
,,,0.049604000000,   0.04000,
,,,0.049605000000,   0.04000,
,,,0.049606000000,   0.04000,
,,,0.049607000000,   0.04000,
,,,0.049608000000,   0.04000,
,,,0.049609000000,   0.04000,
,,,0.049610000000,   0.04000,
,,,0.049611000000,   0.04000,
,,,0.049612000000,   0.04000,
,,,0.049613000000,   0.04000,
,,,0.049614000000,   0.04000,
,,,0.049615000000,   0.04000,
,,,0.049616000000,   0.04000,
,,,0.049617000000,   0.04000,
,,,0.049618000000,   0.04000,
,,,0.049619000000,   0.04000,
,,,0.049620000000,   0.04000,
,,,0.049621000000,   0.04000,
,,,0.049622000000,   0.04000,
,,,0.049623000000,   0.04000,
,,,0.049624000000,   0.04000,
,,,0.049625000000,   0.04000,
,,,0.049626000000,   0.04000,
,,,0.049627000000,   0.04000,
,,,0.049628000000,   0.04000,
,,,0.049629000000,   0.04000,
,,,0.049630000000,   0.04000,
,,,0.049631000000,   0.04000,
,,,0.049632000000,   0.04000,
,,,0.049633000000,   0.04000,
,,,0.049634000000,   0.04000,
,,,0.049635000000,   0.04000,
,,,0.049636000000,   0.04000,
,,,0.049637000000,   0.04000,
,,,0.049638000000,   0.04000,
,,,0.049639000000,   0.08000,
,,,0.049640000000,   0.00000,
,,,0.049641000000,   0.04000,
,,,0.049642000000,   0.04000,
,,,0.049643000000,   0.04000,
,,,0.049644000000,   0.04000,
,,,0.049645000000,   0.04000,
,,,0.049646000000,   0.04000,
,,,0.049647000000,   0.04000,
,,,0.049648000000,   0.04000,
,,,0.049649000000,   0.04000,
,,,0.049650000000,   0.04000,
,,,0.049651000000,   0.04000,
,,,0.049652000000,   0.04000,
,,,0.049653000000,   0.04000,
,,,0.049654000000,   0.04000,
,,,0.049655000000,   0.04000,
,,,0.049656000000,   0.04000,
,,,0.049657000000,   0.04000,
,,,0.049658000000,   0.04000,
,,,0.049659000000,   0.04000,
,,,0.049660000000,   0.04000,
,,,0.049661000000,   0.04000,
,,,0.049662000000,   0.04000,
,,,0.049663000000,   0.04000,
,,,0.049664000000,   0.04000,
,,,0.049665000000,   0.04000,
,,,0.049666000000,   0.04000,
,,,0.049667000000,   0.04000,
,,,0.049668000000,   0.04000,
,,,0.049669000000,   0.04000,
,,,0.049670000000,   0.04000,
,,,0.049671000000,   0.04000,
,,,0.049672000000,   0.04000,
,,,0.049673000000,   0.04000,
,,,0.049674000000,   0.04000,
,,,0.049675000000,   0.04000,
,,,0.049676000000,   0.04000,
,,,0.049677000000,   0.04000,
,,,0.049678000000,   0.04000,
,,,0.049679000000,   0.08000,
,,,0.049680000000,   0.04000,
,,,0.049681000000,   0.08000,
,,,0.049682000000,   0.04000,
,,,0.049683000000,   0.04000,
,,,0.049684000000,   0.04000,
,,,0.049685000000,   0.04000,
,,,0.049686000000,   0.04000,
,,,0.049687000000,   0.04000,
,,,0.049688000000,   0.04000,
,,,0.049689000000,   0.04000,
,,,0.049690000000,   0.04000,
,,,0.049691000000,   0.04000,
,,,0.049692000000,   0.04000,
,,,0.049693000000,   0.04000,
,,,0.049694000000,   0.04000,
,,,0.049695000000,   0.04000,
,,,0.049696000000,   0.04000,
,,,0.049697000000,   0.04000,
,,,0.049698000000,   0.04000,
,,,0.049699000000,   0.04000,
,,,0.049700000000,   0.04000,
,,,0.049701000000,   0.04000,
,,,0.049702000000,   0.04000,
,,,0.049703000000,   0.04000,
,,,0.049704000000,   0.04000,
,,,0.049705000000,   0.04000,
,,,0.049706000000,   0.04000,
,,,0.049707000000,   0.04000,
,,,0.049708000000,   0.04000,
,,,0.049709000000,   0.04000,
,,,0.049710000000,   0.08000,
,,,0.049711000000,   0.04000,
,,,0.049712000000,   0.04000,
,,,0.049713000000,   0.04000,
,,,0.049714000000,   0.04000,
,,,0.049715000000,   0.04000,
,,,0.049716000000,   0.04000,
,,,0.049717000000,   0.04000,
,,,0.049718000000,   0.04000,
,,,0.049719000000,   0.04000,
,,,0.049720000000,   0.04000,
,,,0.049721000000,   0.04000,
,,,0.049722000000,   0.04000,
,,,0.049723000000,   0.04000,
,,,0.049724000000,   0.04000,
,,,0.049725000000,   0.04000,
,,,0.049726000000,   0.04000,
,,,0.049727000000,   0.04000,
,,,0.049728000000,   0.04000,
,,,0.049729000000,   0.04000,
,,,0.049730000000,   0.08000,
,,,0.049731000000,   0.04000,
,,,0.049732000000,   0.08000,
,,,0.049733000000,   0.04000,
,,,0.049734000000,   0.08000,
,,,0.049735000000,   0.04000,
,,,0.049736000000,   0.04000,
,,,0.049737000000,   0.04000,
,,,0.049738000000,   0.04000,
,,,0.049739000000,   0.04000,
,,,0.049740000000,   0.04000,
,,,0.049741000000,   0.04000,
,,,0.049742000000,   0.04000,
,,,0.049743000000,   0.04000,
,,,0.049744000000,   0.04000,
,,,0.049745000000,   0.04000,
,,,0.049746000000,   0.04000,
,,,0.049747000000,   0.04000,
,,,0.049748000000,   0.04000,
,,,0.049749000000,   0.04000,
,,,0.049750000000,   0.08000,
,,,0.049751000000,   0.04000,
,,,0.049752000000,   0.00000,
,,,0.049753000000,   0.04000,
,,,0.049754000000,   0.04000,
,,,0.049755000000,   0.04000,
,,,0.049756000000,   0.04000,
,,,0.049757000000,   0.04000,
,,,0.049758000000,   0.04000,
,,,0.049759000000,   0.04000,
,,,0.049760000000,   0.04000,
,,,0.049761000000,   0.04000,
,,,0.049762000000,   0.08000,
,,,0.049763000000,   0.04000,
,,,0.049764000000,   0.04000,
,,,0.049765000000,   0.04000,
,,,0.049766000000,   0.04000,
,,,0.049767000000,   0.04000,
,,,0.049768000000,   0.04000,
,,,0.049769000000,   0.04000,
,,,0.049770000000,   0.04000,
,,,0.049771000000,   0.04000,
,,,0.049772000000,   0.04000,
,,,0.049773000000,   0.00000,
,,,0.049774000000,   0.04000,
,,,0.049775000000,   0.04000,
,,,0.049776000000,   0.00000,
,,,0.049777000000,   0.04000,
,,,0.049778000000,   0.04000,
,,,0.049779000000,   0.04000,
,,,0.049780000000,   0.04000,
,,,0.049781000000,   0.04000,
,,,0.049782000000,   0.04000,
,,,0.049783000000,   0.08000,
,,,0.049784000000,   0.04000,
,,,0.049785000000,   0.04000,
,,,0.049786000000,   0.04000,
,,,0.049787000000,   0.04000,
,,,0.049788000000,   0.04000,
,,,0.049789000000,   0.04000,
,,,0.049790000000,   0.04000,
,,,0.049791000000,   0.04000,
,,,0.049792000000,   0.00000,
,,,0.049793000000,   0.04000,
,,,0.049794000000,   0.04000,
,,,0.049795000000,   0.04000,
,,,0.049796000000,   0.04000,
,,,0.049797000000,   0.04000,
,,,0.049798000000,   0.00000,
,,,0.049799000000,   0.04000,
,,,0.049800000000,   0.04000,
,,,0.049801000000,   0.04000,
,,,0.049802000000,   0.04000,
,,,0.049803000000,   0.04000,
,,,0.049804000000,   0.04000,
,,,0.049805000000,   0.04000,
,,,0.049806000000,   0.04000,
,,,0.049807000000,   0.04000,
,,,0.049808000000,   0.04000,
,,,0.049809000000,   0.04000,
,,,0.049810000000,   0.04000,
,,,0.049811000000,   0.04000,
,,,0.049812000000,   0.04000,
,,,0.049813000000,   0.04000,
,,,0.049814000000,   0.04000,
,,,0.049815000000,   0.04000,
,,,0.049816000000,   0.04000,
,,,0.049817000000,   0.04000,
,,,0.049818000000,   0.04000,
,,,0.049819000000,   0.04000,
,,,0.049820000000,   0.04000,
,,,0.049821000000,   0.08000,
,,,0.049822000000,   0.04000,
,,,0.049823000000,   0.04000,
,,,0.049824000000,   0.04000,
,,,0.049825000000,   0.04000,
,,,0.049826000000,   0.04000,
,,,0.049827000000,   0.04000,
,,,0.049828000000,   0.04000,
,,,0.049829000000,   0.04000,
,,,0.049830000000,   0.04000,
,,,0.049831000000,   0.04000,
,,,0.049832000000,   0.04000,
,,,0.049833000000,   0.04000,
,,,0.049834000000,   0.04000,
,,,0.049835000000,   0.04000,
,,,0.049836000000,   0.04000,
,,,0.049837000000,   0.04000,
,,,0.049838000000,   0.08000,
,,,0.049839000000,   0.04000,
,,,0.049840000000,   0.04000,
,,,0.049841000000,   0.04000,
,,,0.049842000000,   0.04000,
,,,0.049843000000,   0.04000,
,,,0.049844000000,   0.04000,
,,,0.049845000000,   0.04000,
,,,0.049846000000,   0.04000,
,,,0.049847000000,   0.04000,
,,,0.049848000000,   0.04000,
,,,0.049849000000,   0.04000,
,,,0.049850000000,   0.08000,
,,,0.049851000000,   0.04000,
,,,0.049852000000,   0.04000,
,,,0.049853000000,   0.04000,
,,,0.049854000000,   0.04000,
,,,0.049855000000,   0.00000,
,,,0.049856000000,   0.04000,
,,,0.049857000000,   0.04000,
,,,0.049858000000,   0.04000,
,,,0.049859000000,   0.04000,
,,,0.049860000000,   0.04000,
,,,0.049861000000,   0.04000,
,,,0.049862000000,   0.04000,
,,,0.049863000000,   0.04000,
,,,0.049864000000,   0.04000,
,,,0.049865000000,   0.04000,
,,,0.049866000000,   0.04000,
,,,0.049867000000,   0.04000,
,,,0.049868000000,   0.00000,
,,,0.049869000000,   0.04000,
,,,0.049870000000,   0.04000,
,,,0.049871000000,   0.04000,
,,,0.049872000000,   0.04000,
,,,0.049873000000,   0.04000,
,,,0.049874000000,   0.08000,
,,,0.049875000000,   0.04000,
,,,0.049876000000,   0.04000,
,,,0.049877000000,   0.04000,
,,,0.049878000000,   0.04000,
,,,0.049879000000,   0.04000,
,,,0.049880000000,   0.04000,
,,,0.049881000000,   0.04000,
,,,0.049882000000,   0.04000,
,,,0.049883000000,   0.04000,
,,,0.049884000000,   0.04000,
,,,0.049885000000,   0.04000,
,,,0.049886000000,   0.04000,
,,,0.049887000000,   0.04000,
,,,0.049888000000,   0.04000,
,,,0.049889000000,   0.04000,
,,,0.049890000000,   0.04000,
,,,0.049891000000,   0.04000,
,,,0.049892000000,   0.04000,
,,,0.049893000000,   0.04000,
,,,0.049894000000,   0.04000,
,,,0.049895000000,   0.04000,
,,,0.049896000000,   0.04000,
,,,0.049897000000,   0.04000,
,,,0.049898000000,   0.04000,
,,,0.049899000000,   0.04000,
,,,0.049900000000,   0.04000,
,,,0.049901000000,   0.04000,
,,,0.049902000000,   0.04000,
,,,0.049903000000,   0.04000,
,,,0.049904000000,   0.04000,
,,,0.049905000000,   0.04000,
,,,0.049906000000,   0.04000,
,,,0.049907000000,   0.04000,
,,,0.049908000000,   0.04000,
,,,0.049909000000,   0.04000,
,,,0.049910000000,   0.04000,
,,,0.049911000000,   0.04000,
,,,0.049912000000,   0.04000,
,,,0.049913000000,   0.04000,
,,,0.049914000000,   0.04000,
,,,0.049915000000,   0.08000,
,,,0.049916000000,   0.00000,
,,,0.049917000000,   0.04000,
,,,0.049918000000,   0.04000,
,,,0.049919000000,   0.04000,
,,,0.049920000000,   0.04000,
,,,0.049921000000,   0.04000,
,,,0.049922000000,   0.04000,
,,,0.049923000000,   0.04000,
,,,0.049924000000,   0.04000,
,,,0.049925000000,   0.04000,
,,,0.049926000000,   0.04000,
,,,0.049927000000,   0.04000,
,,,0.049928000000,   0.04000,
,,,0.049929000000,   0.04000,
,,,0.049930000000,   0.08000,
,,,0.049931000000,   0.04000,
,,,0.049932000000,   0.04000,
,,,0.049933000000,   0.08000,
,,,0.049934000000,   0.04000,
,,,0.049935000000,   0.04000,
,,,0.049936000000,   0.04000,
,,,0.049937000000,   0.04000,
,,,0.049938000000,   0.04000,
,,,0.049939000000,   0.00000,
,,,0.049940000000,   0.04000,
,,,0.049941000000,   0.04000,
,,,0.049942000000,   0.04000,
,,,0.049943000000,   0.04000,
,,,0.049944000000,   0.04000,
,,,0.049945000000,   0.04000,
,,,0.049946000000,   0.08000,
,,,0.049947000000,   0.04000,
,,,0.049948000000,   0.04000,
,,,0.049949000000,   0.04000,
,,,0.049950000000,   0.04000,
,,,0.049951000000,   0.04000,
,,,0.049952000000,   0.04000,
,,,0.049953000000,   0.04000,
,,,0.049954000000,   0.04000,
,,,0.049955000000,   0.04000,
,,,0.049956000000,   0.04000,
,,,0.049957000000,   0.04000,
,,,0.049958000000,   0.04000,
,,,0.049959000000,   0.04000,
,,,0.049960000000,   0.04000,
,,,0.049961000000,   0.04000,
,,,0.049962000000,   0.04000,
,,,0.049963000000,   0.04000,
,,,0.049964000000,   0.04000,
,,,0.049965000000,   0.04000,
,,,0.049966000000,   0.04000,
,,,0.049967000000,   0.04000,
,,,0.049968000000,   0.04000,
,,,0.049969000000,   0.04000,
,,,0.049970000000,   0.04000,
,,,0.049971000000,   0.08000,
,,,0.049972000000,   0.04000,
,,,0.049973000000,   0.04000,
,,,0.049974000000,   0.04000,
,,,0.049975000000,   0.04000,
,,,0.049976000000,   0.04000,
,,,0.049977000000,   0.08000,
,,,0.049978000000,   0.04000,
,,,0.049979000000,   0.04000,
,,,0.049980000000,   0.00000,
,,,0.049981000000,   0.04000,
,,,0.049982000000,   0.04000,
,,,0.049983000000,   0.04000,
,,,0.049984000000,   0.04000,
,,,0.049985000000,   0.04000,
,,,0.049986000000,   0.04000,
,,,0.049987000000,   0.04000,
,,,0.049988000000,   0.04000,
,,,0.049989000000,   0.04000,
,,,0.049990000000,   0.04000,
,,,0.049991000000,   0.04000,
,,,0.049992000000,   0.04000,
,,,0.049993000000,   0.04000,
,,,0.049994000000,   0.04000,
,,,0.049995000000,   0.04000,
,,,0.049996000000,   0.04000,
,,,0.049997000000,   0.04000,
,,,0.049998000000,   0.04000,
,,,0.049999000000,   0.04000,
,,,0.050000000000,   3.00000,
,,,0.050001000000,   0.00000,
,,,0.050002000000,   0.04000,
,,,0.050003000000,   0.04000,
,,,0.050004000000,   0.04000,
,,,0.050005000000,   0.04000,
,,,0.050006000000,   0.04000,
,,,0.050007000000,   0.04000,
,,,0.050008000000,   0.04000,
,,,0.050009000000,   0.04000,
,,,0.050010000000,   0.04000,
,,,0.050011000000,   0.04000,
,,,0.050012000000,   0.04000,
,,,0.050013000000,   0.04000,
,,,0.050014000000,   0.04000,
,,,0.050015000000,   0.04000,
,,,0.050016000000,   0.04000,
,,,0.050017000000,   0.04000,
,,,0.050018000000,   0.04000,
,,,0.050019000000,   0.04000,
,,,0.050020000000,   0.04000,
,,,0.050021000000,   0.04000,
,,,0.050022000000,   0.04000,
,,,0.050023000000,   0.04000,
,,,0.050024000000,   0.08000,
,,,0.050025000000,   0.04000,
,,,0.050026000000,   0.04000,
,,,0.050027000000,   0.04000,
,,,0.050028000000,   0.00000,
,,,0.050029000000,   0.04000,
,,,0.050030000000,   0.04000,
,,,0.050031000000,   0.04000,
,,,0.050032000000,   0.04000,
,,,0.050033000000,   0.04000,
,,,0.050034000000,   0.04000,
,,,0.050035000000,   0.04000,
,,,0.050036000000,   0.04000,
,,,0.050037000000,   0.04000,
,,,0.050038000000,   0.04000,
,,,0.050039000000,   0.04000,
,,,0.050040000000,   0.04000,
,,,0.050041000000,   0.04000,
,,,0.050042000000,   0.04000,
,,,0.050043000000,   0.08000,
,,,0.050044000000,   0.04000,
,,,0.050045000000,   0.04000,
,,,0.050046000000,   0.04000,
,,,0.050047000000,   0.04000,
,,,0.050048000000,   0.04000,
,,,0.050049000000,   0.04000,
,,,0.050050000000,   0.04000,
,,,0.050051000000,   0.04000,
,,,0.050052000000,   0.04000,
,,,0.050053000000,   0.04000,
,,,0.050054000000,   0.04000,
,,,0.050055000000,   0.04000,
,,,0.050056000000,   0.04000,
,,,0.050057000000,   0.04000,
,,,0.050058000000,   0.04000,
,,,0.050059000000,   0.04000,
,,,0.050060000000,   0.04000,
,,,0.050061000000,   0.04000,
,,,0.050062000000,   0.04000,
,,,0.050063000000,   0.04000,
,,,0.050064000000,   0.04000,
,,,0.050065000000,   0.08000,
,,,0.050066000000,   0.04000,
,,,0.050067000000,   0.04000,
,,,0.050068000000,   0.04000,
,,,0.050069000000,   0.04000,
,,,0.050070000000,   0.04000,
,,,0.050071000000,   0.04000,
,,,0.050072000000,   0.04000,
,,,0.050073000000,   0.04000,
,,,0.050074000000,   0.08000,
,,,0.050075000000,   0.08000,
,,,0.050076000000,   0.04000,
,,,0.050077000000,   0.04000,
,,,0.050078000000,   0.08000,
,,,0.050079000000,   0.08000,
,,,0.050080000000,   0.04000,
,,,0.050081000000,   0.08000,
,,,0.050082000000,   0.04000,
,,,0.050083000000,   0.04000,
,,,0.050084000000,   0.08000,
,,,0.050085000000,   0.04000,
,,,0.050086000000,   0.04000,
,,,0.050087000000,   0.04000,
,,,0.050088000000,   0.04000,
,,,0.050089000000,   0.04000,
,,,0.050090000000,   0.04000,
,,,0.050091000000,   0.04000,
,,,0.050092000000,   0.04000,
,,,0.050093000000,   0.08000,
,,,0.050094000000,   0.04000,
,,,0.050095000000,   0.04000,
,,,0.050096000000,   0.04000,
,,,0.050097000000,   0.04000,
,,,0.050098000000,   0.04000,
,,,0.050099000000,   0.04000,
,,,0.050100000000,   0.04000,
,,,0.050101000000,   0.04000,
,,,0.050102000000,   0.04000,
,,,0.050103000000,   0.04000,
,,,0.050104000000,   0.04000,
,,,0.050105000000,   0.04000,
,,,0.050106000000,   0.04000,
,,,0.050107000000,   0.08000,
,,,0.050108000000,   0.04000,
,,,0.050109000000,   0.04000,
,,,0.050110000000,   0.04000,
,,,0.050111000000,   0.04000,
,,,0.050112000000,   0.04000,
,,,0.050113000000,   0.04000,
,,,0.050114000000,   0.08000,
,,,0.050115000000,   0.00000,
,,,0.050116000000,   0.04000,
,,,0.050117000000,   0.08000,
,,,0.050118000000,   0.00000,
,,,0.050119000000,   0.04000,
,,,0.050120000000,   0.04000,
,,,0.050121000000,   0.04000,
,,,0.050122000000,   0.04000,
,,,0.050123000000,   0.04000,
,,,0.050124000000,   0.04000,
,,,0.050125000000,   0.04000,
,,,0.050126000000,   0.04000,
,,,0.050127000000,   0.04000,
,,,0.050128000000,   0.04000,
,,,0.050129000000,   0.04000,
,,,0.050130000000,   0.04000,
,,,0.050131000000,   0.04000,
,,,0.050132000000,   0.04000,
,,,0.050133000000,   0.04000,
,,,0.050134000000,   0.04000,
,,,0.050135000000,   0.00000,
,,,0.050136000000,   0.04000,
,,,0.050137000000,   0.04000,
,,,0.050138000000,   0.04000,
,,,0.050139000000,   0.04000,
,,,0.050140000000,   0.04000,
,,,0.050141000000,   0.04000,
,,,0.050142000000,   0.00000,
,,,0.050143000000,   0.04000,
,,,0.050144000000,   0.04000,
,,,0.050145000000,   0.04000,
,,,0.050146000000,   0.04000,
,,,0.050147000000,   0.08000,
,,,0.050148000000,   0.04000,
,,,0.050149000000,   0.04000,
,,,0.050150000000,   0.04000,
,,,0.050151000000,   0.04000,
,,,0.050152000000,   0.04000,
,,,0.050153000000,   0.08000,
,,,0.050154000000,   0.04000,
,,,0.050155000000,   0.04000,
,,,0.050156000000,   0.04000,
,,,0.050157000000,   0.04000,
,,,0.050158000000,   0.04000,
,,,0.050159000000,   0.04000,
,,,0.050160000000,   0.04000,
,,,0.050161000000,   0.04000,
,,,0.050162000000,   0.04000,
,,,0.050163000000,   0.04000,
,,,0.050164000000,   0.04000,
,,,0.050165000000,   0.04000,
,,,0.050166000000,   0.04000,
,,,0.050167000000,   0.04000,
,,,0.050168000000,   0.04000,
,,,0.050169000000,   0.04000,
,,,0.050170000000,   0.04000,
,,,0.050171000000,   0.00000,
,,,0.050172000000,   0.04000,
,,,0.050173000000,   0.04000,
,,,0.050174000000,   0.04000,
,,,0.050175000000,   0.04000,
,,,0.050176000000,   0.04000,
,,,0.050177000000,   0.08000,
,,,0.050178000000,   0.04000,
,,,0.050179000000,   0.04000,
,,,0.050180000000,   0.04000,
,,,0.050181000000,   0.04000,
,,,0.050182000000,   0.04000,
,,,0.050183000000,   0.08000,
,,,0.050184000000,   0.04000,
,,,0.050185000000,   0.04000,
,,,0.050186000000,   0.04000,
,,,0.050187000000,   0.04000,
,,,0.050188000000,   0.04000,
,,,0.050189000000,   0.04000,
,,,0.050190000000,   0.04000,
,,,0.050191000000,   0.04000,
,,,0.050192000000,   0.04000,
,,,0.050193000000,   0.04000,
,,,0.050194000000,   0.04000,
,,,0.050195000000,   0.04000,
,,,0.050196000000,   0.04000,
,,,0.050197000000,   0.04000,
,,,0.050198000000,   0.04000,
,,,0.050199000000,   0.04000,
,,,0.050200000000,   0.04000,
,,,0.050201000000,   0.04000,
,,,0.050202000000,   0.04000,
,,,0.050203000000,   0.04000,
,,,0.050204000000,   0.04000,
,,,0.050205000000,   0.04000,
,,,0.050206000000,   0.08000,
,,,0.050207000000,   0.04000,
,,,0.050208000000,   0.04000,
,,,0.050209000000,   0.04000,
,,,0.050210000000,   0.04000,
,,,0.050211000000,   0.04000,
,,,0.050212000000,   0.00000,
,,,0.050213000000,   0.04000,
,,,0.050214000000,   0.04000,
,,,0.050215000000,   0.04000,
,,,0.050216000000,   0.04000,
,,,0.050217000000,   0.04000,
,,,0.050218000000,   0.04000,
,,,0.050219000000,   0.04000,
,,,0.050220000000,   0.04000,
,,,0.050221000000,   0.04000,
,,,0.050222000000,   0.00000,
,,,0.050223000000,   0.00000,
,,,0.050224000000,   0.04000,
,,,0.050225000000,   0.04000,
,,,0.050226000000,   0.04000,
,,,0.050227000000,   0.04000,
,,,0.050228000000,   0.04000,
,,,0.050229000000,   0.04000,
,,,0.050230000000,   0.00000,
,,,0.050231000000,  -0.04000,
,,,0.050232000000,   0.04000,
,,,0.050233000000,   0.04000,
,,,0.050234000000,   0.04000,
,,,0.050235000000,   0.04000,
,,,0.050236000000,   0.04000,
,,,0.050237000000,   0.04000,
,,,0.050238000000,   0.04000,
,,,0.050239000000,   0.04000,
,,,0.050240000000,   0.04000,
,,,0.050241000000,   0.04000,
,,,0.050242000000,   0.04000,
,,,0.050243000000,   0.04000,
,,,0.050244000000,   0.04000,
,,,0.050245000000,   0.04000,
,,,0.050246000000,   0.04000,
,,,0.050247000000,   0.04000,
,,,0.050248000000,   0.04000,
,,,0.050249000000,   0.04000,
